5.038415164999822,1.0424288846288077e-27
5.0338465944147375,1.2734054157567795e-27
5.029278023829653,1.5561783592038934e-27
5.024709453244568,1.901090620047233e-27
5.020140882659482,2.3199282144548307e-27
5.015572312074397,2.8259555631254074e-27
5.011003741489312,3.4339148157778334e-27
5.006435170904227,4.159984869135167e-27
5.0018666003191425,5.021697795316457e-27
4.997298029734058,6.037813217597298e-27
4.992729459148973,7.228154800025395e-27
4.988160888563887,8.6134174846029e-27
4.983592317978802,1.0214959435918474e-26
4.979023747393717,1.205459886867065e-26
4.9744551768086325,1.415444310367026e-26
4.969886606223548,1.6536785459944768e-26
4.965318035638463,1.9224115205295185e-26
4.960749465053378,2.223929720845597e-26
4.956180894468293,2.5605991899163392e-26
4.951612323883207,2.934940378423787e-26
4.947043753298122,3.349746977506245e-26
4.9424751827130375,3.8082629384962986e-26
4.937906612127953,4.3144360874828116e-26
4.933338041542868,4.8732725389579934e-26
4.928769470957783,5.491324147547111e-26
4.924200900372698,6.177352376513802e-26
4.919632329787612,6.94322736166747e-26
4.9150637592025275,7.805142137143539e-26
4.910495188617443,8.785250971485006e-26
4.905926618032358,9.913880157230882e-26
4.901358047447273,1.1232512804595346e-25
4.896789476862188,1.2797820601755402e-25
4.892220906277103,1.4687110768652e-25
4.887652335692017,1.7005682780175699e-25
4.8830837651069325,1.9896756092308262e-25
4.878515194521848,2.355484879284518e-25
4.873946623936763,2.8243772661112175e-25
4.869378053351678,3.432078129856952e-25
4.864809482766593,4.226888837310367e-25
4.860240912181508,5.273999221661214e-25
4.8556723415964225,6.6612238109663065e-25
4.851103771011338,8.50660669042047e-25
4.846535200426253,1.0968469592122159e-24
4.841966629841168,1.4258642714060415e-24
4.837398059256083,1.865982677263032e-24
4.832829488670998,2.4548298932132476e-24
4.828260918085913,3.242350817774034e-24
4.8236923475008275,4.294652423576889e-24
4.819123776915743,5.6989829006424585e-24
4.814555206330658,7.570159608434677e-24
4.809986635745573,1.0058842344104699e-23
4.805418065160488,1.3362150478017323e-23
4.800849494575403,1.773724928297297e-23
4.796280923990318,2.3518687929879134e-23
4.791712353405233,3.114046598039415e-23
4.787143782820148,4.1164045053333065e-23
4.782575212235063,5.431381766783968e-23
4.778006641649978,7.152190810454097e-23
4.773438071064893,9.39846249323508e-23
4.768869500479808,1.232334289517823e-22
4.764300929894723,1.6122394443168482e-22
4.759732359309639,2.1044735040090393e-22
4.755163788724553,2.7406947185864784e-22
4.750595218139468,3.5610408310007485e-22
4.746026647554383,4.616283784485549e-22
4.741458076969298,5.970503087109226e-22
4.736889506384213,7.704395827310598e-22
4.7323209357991285,9.919366610456455e-22
4.727752365214044,1.2742571035489509e-21
4.723183794628958,1.6333122701239128e-21
4.718615224043873,2.0889717237426747e-21
4.714046653458788,2.6659978800678893e-21
4.709478082873703,3.395189638768364e-21
4.704909512288618,4.3147790979999315e-21
4.700340941703534,5.4721342029352015e-21
4.695772371118449,6.925830554409518e-21
4.691203800533363,8.7481678869608e-21
4.686635229948278,1.1028221244887357e-20
4.682066659363193,1.3875534021384906e-20
4.677498088778108,1.742458022109567e-20
4.6729295181930235,2.1840147072308108e-20
4.668360947607939,2.732381704371938e-20
4.663792377022854,3.412176109665269e-20
4.659223806437769,4.2534093417296595e-20
4.654655235852683,5.292608283659527e-20
4.650086665267598,6.574156870833821e-20
4.645518094682513,8.151899038790316e-20
4.640949524097429,1.0091051102489692e-19
4.636380953512344,1.247047997491662e-19
4.631812382927259,1.538541333221086e-19
4.627243812342174,1.8950659104181946e-19
4.622675241757088,2.330442475316557e-19
4.618106671172003,2.8612841975043323e-19
4.6135381005869185,3.5075320026993505e-19
4.608969530001834,4.2930871213986444e-19
4.604400959416749,5.246557555656588e-19
4.599832388831664,6.402137877783701e-19
4.595263818246579,7.8006449012297e-19
4.590695247661493,9.490735364778485e-19
4.586126677076408,1.1530335913773767e-18
4.581558106491324,1.3988320422580692e-18
4.576989535906239,1.6946475166872269e-18
4.572420965321154,2.0501798619711437e-18
4.567852394736069,2.4769189821131616e-18
4.563283824150984,2.9884587480174705e-18
4.558715253565898,3.600863134962271e-18
4.5541466829808135,4.333092812257543e-18
4.549578112395729,5.207501631135643e-18
4.545009541810644,6.250413847888783e-18
4.540440971225559,7.492794502058993e-18
4.535872400640474,8.97102716871401e-18
4.531303830055389,1.0727815347099092e-17
4.526735259470303,1.2813226066117867e-17
4.5221666888852186,1.5285896914727723e-17
4.517598118300134,1.821443068113743e-17
4.513029547715049,2.1679005151915128e-17
4.508460977129964,2.5773229429239233e-17
4.503892406544879,3.06062824256869e-17
4.499323835959794,3.630537405182158e-17
4.4947552653747085,4.30185750902255e-17
4.490186694789624,5.0918067926415545e-17
4.485618124204539,6.02038772672273e-17
4.481049553619454,7.110814781562284e-17
4.476480983034369,8.390004469385854e-17
4.471912412449284,9.889136233314195e-17
4.467343841864199,1.1644293871017982e-16
4.4627752712791136,1.369719843576184e-16
4.458206700694029,1.6096044967184486e-16
4.453638130108944,1.8896456987281763e-16
4.449069559523859,2.2162574474204529e-16
4.444500988938774,2.596829302062712e-16
4.439932418353689,3.03986741200288e-16
4.435363847768604,3.5551549031604655e-16
4.430795277183519,4.153934148408228e-16
4.426226706598434,4.849113762523534e-16
4.421658136013349,5.655503514585686e-16
4.417089565428264,6.590080744676448e-16
4.412520994843179,7.672292312198863e-16
4.407952424258094,8.924396595206e-16
4.403383853673009,1.0371850609496533e-15
4.398815283087925,1.2043747929103988e-15
4.39424671250284,1.3973313772998665e-15
4.389678141917754,1.6198464383803149e-15
4.385109571332669,1.8762438671268143e-15
4.380541000747584,2.171451103511809e-15
4.375972430162499,2.511079532840371e-15
4.3714038595774145,2.901515108443176e-15
4.36683528899233,3.3500204419315936e-15
4.362266718407245,3.864849745102159e-15
4.357698147822159,4.455378165840897e-15
4.353129577237074,5.132247235549801e-15
4.348561006651989,5.907528339371875e-15
4.343992436066904,6.794906334646983e-15
4.33942386548182,7.809885679602036e-15
4.334855294896735,8.970021695439483e-15
4.33028672431165,1.0295179873141007e-14
4.325718153726564,1.1807826454063786e-14
4.321149583141479,1.3533353863636383e-14
4.316581012556394,1.5500444963306945e-14
4.3120124419713095,1.7741480510756715e-14
4.307443871386225,2.0292994686061328e-14
4.30287530080114,2.3196184056030806e-14
4.298306730216055,2.649747591492225e-14
4.293738159630969,3.0249162562041543e-14
4.289169589045884,3.451010876088077e-14
4.284601018460799,3.934654037643507e-14
4.280032447875715,4.4832923013807465e-14
4.27546387729063,5.105294038965448e-14
4.270895306705545,5.810058316659565e-14
4.26632673612046,6.608136007869206e-14
4.261758165535374,7.511364438372827e-14
4.257189594950289,8.533017000680043e-14
4.2526210243652045,9.687969320251111e-14
4.24805245378012,1.0992883717398993e-13
4.243483883195035,1.2466413886209317e-13
4.23891531260995,1.4129431907471836e-13
4.234346742024865,1.6005279928357027e-13
4.229778171439779,1.8120049079485148e-13
4.225209600854694,2.0502888462392461e-13
4.22064103026961,2.318634732967244e-13
4.216072459684525,2.620675389884496e-13
4.21150388909944,2.9604634592141257e-13
4.206935318514355,3.3425177880792744e-13
4.20236674792927,3.7718747337256333e-13
4.197798177344184,4.2541448965375407e-13
4.1932296067590995,4.79557583902456e-13
4.188661036174015,5.403121405023011e-13
4.18409246558893,6.084518314694423e-13
4.179523895003845,6.848370777935375e-13
4.17495532441876,7.704243941967313e-13
4.170386753833675,8.662767068630651e-13
4.165818183248589,9.735747423766998e-13
4.161249612663505,1.0936295955579818e-12
4.15668104207842,1.227896594160715e-12
4.152112471493335,1.3779905895518502e-12
4.14754390090825,1.5457028146034023e-12
4.142975330323165,1.7330194631485095e-12
4.13840675973808,1.94214215955604e-12
4.1338381891529945,2.17551050232109e-12
4.12926961856791,2.435826882105846e-12
4.124701047982825,2.7260837924416434e-12
4.12013247739774,3.0495938703443173e-12
4.115563906812655,3.4100229244205714e-12
4.11099533622757,3.81142622964758e-12
4.106426765642485,4.258288390883704e-12
4.1018581950574005,4.755567101303204e-12
4.097289624472315,5.308741147347269e-12
4.09272105388723,5.923863038490435e-12
4.088152483302145,6.607616668252272e-12
4.08358391271706,7.367380442647256e-12
4.079015342131975,8.211296344036096e-12
4.07444677154689,9.148345432646706e-12
4.0698782009618055,1.0188430325638296e-11
4.065309630376721,1.134246523546538e-11
4.060741059791635,1.2622474196672924e-11
4.05617248920655,1.4041698164523512e-11
4.051603918621465,1.5614711731559743e-11
4.04703534803638,1.7357550280888573e-11
4.0424667774512955,1.9287848479113548e-11
4.037898206866211,2.142499110859043e-11
4.033329636281126,2.379027734878873e-11
4.02876106569604,2.6407099740104374e-11
4.024192495110955,2.9301139199837915e-11
4.01962392452587,3.250057760775233e-11
4.015055353940785,3.603632963531058e-11
4.0104867833557005,3.994229565543179e-11
4.005918212770616,4.425563773492132e-11
4.001349642185531,4.901708087626466e-11
3.9967810716004455,5.4271241836349874e-11
3.99221250101536,6.006698800522248e-11
3.9876439304302753,6.645782897839368e-11
3.9830753598451905,7.350234360421286e-11
3.9785067892601056,8.126464543906667e-11
3.9739382186750207,8.981488970670536e-11
3.9693696480899354,9.9229825045835e-11
3.9648010775048506,1.0959339355705625e-10
3.9602325069197652,1.2099738294258045e-10
3.9556639363346804,1.3354213488625797e-10
3.9510953657495955,1.4733731426212283e-10
3.9465267951645107,1.6250274429739114e-10
3.941958224579426,1.791693134555749e-10
3.9373896539943405,1.974799605435567e-10
3.9328210834092556,2.1759074537066923e-10
3.9282525128241703,2.3967201317560326e-10
3.9236839422390855,2.639096619566701e-10
3.9191153716540006,2.905065227538179e-10
3.9145468010689157,3.1968386379328207e-10
3.909978230483831,3.516830301745462e-10
3.9054096598987456,3.867672314149342e-10
3.9008410893136607,4.252234896400529e-10
3.8962725187285754,4.673647615023331e-10
3.8917039481434905,5.135322470263972e-10
3.8871353775584057,5.640978985403218e-10
3.882566806973321,6.19467142696266e-10
3.877998236388236,6.800818283723581e-10
3.873429665803151,7.464234130541149e-10
3.8688610952180658,8.190164002033036e-10
3.8642925246329805,8.984320402259488e-10
3.8597239540478956,9.852923080404988e-10
3.8551553834628107,1.0802741710096538e-09
3.850586812877726,1.184114162216412e-09
3.846018242292641,1.2976132758091965e-09
3.841449671707556,1.4216422034763235e-09
3.836881101122471,1.557146934091671e-09
3.832312530537386,1.705154742246262e-09
3.8277439599523007,1.8667805957793343e-09
3.823175389367216,2.0432340175628462e-09
3.818606818782131,2.235826442670138e-09
3.814038248197046,2.445979118625928e-09
3.809469677611961,2.6752316035986982e-09
3.804901107026876,2.925250924995395e-09
3.800332536441791,3.197841468714169e-09
3.7957639658567057,3.4949556769798977e-09
3.791195395271621,3.818705639821678e-09
3.786626824686536,4.17137567138568e-09
3.782058254101451,4.555435966905485e-09
3.7774896835163663,4.973557438804868e-09
3.772921112931281,5.428627830691689e-09
3.768352542346196,5.9237692056996994e-09
3.763783971761111,6.462356900775847e-09
3.759215401176026,7.048040031433076e-09
3.754646830590941,7.68476362290699e-09
3.750078260005856,8.376792434640712e-09
3.7455096894207713,9.12873653699659e-09
3.740941118835686,9.945578693713996e-09
3.736372548250601,1.0832703602659002e-08
3.731803977665516,1.1795929052530385e-08
3.727235407080431,1.2841539065767541e-08
3.722666836495346,1.3976319118847348e-08
3.7180982659102613,1.5207593560627277e-08
3.7135296953251764,1.6543265386801026e-08
3.7089611247400915,1.799185857240881e-08
3.7043925541550062,1.9562563212478874e-08
3.699823983569921,2.1265283770453042e-08
3.695255412984836,2.311069078194791e-08
3.690686842399751,2.5110276404516667e-08
3.6861182718146663,2.7276414239702583e-08
3.6815497012295815,2.9622423879836778e-08
3.6769811306444966,3.216264064775697e-08
3.6724125600594113,3.4912491003107886e-08
3.6678439894743264,3.788857408548543e-08
3.663275418889241,4.1108749854825495e-08
3.6587068483041563,4.4592234276243446e-08
3.6541382777190714,4.835970198361396e-08
3.6495697071339865,5.243339684696151e-08
3.6450011365489017,5.68372508663184e-08
3.6404325659638164,6.159701182119705e-08
3.6358639953787315,6.674038012131736e-08
3.631295424793646,7.229715533052874e-08
3.6267268542085613,7.829939287054295e-08
3.6221582836234765,8.478157145178711e-08
3.6175897130383916,9.178077182215604e-08
3.6130211424533067,9.933686746731827e-08
3.6084525718682214,1.0749272793514155e-07
3.6038840012831366,1.162944354891547e-07
3.5993154306980513,1.2579151582015392e-07
3.5947468601129664,1.360371835610823e-07
3.5901782895278815,1.470886033599422e-07
3.5856097189427967,1.5900716727240538e-07
3.581041148357712,1.7185878924568787e-07
3.5764725777726265,1.8571421748554497e-07
3.5719040071875416,2.0064936553755777e-07
3.5673354366024563,2.167456629816099e-07
3.5627668660173715,2.3409042674355944e-07
3.5581982954322866,2.5277725417848536e-07
3.5536297248472017,2.7290643928077133e-07
3.549061154262117,2.9458541362973763e-07
3.544492583677032,3.179292139829671e-07
3.5399240130919467,3.430609787754122e-07
3.535355442506862,3.70112476158085e-07
3.5307868719217765,3.9922466659799444e-07
3.5262183013366917,4.305483034391154e-07
3.521649730751607,4.642445751684217e-07
3.517081160166522,5.004857934156274e-07
3.512512589581437,5.394561309168035e-07
3.5079440189963518,5.813524137695812e-07
3.503375448411267,6.263849722866646e-07
3.4988068778261816,6.747785546077954e-07
3.4942383072410967,7.267733069596018e-07
3.489669736656012,7.826258240696892e-07
3.485101166070927,8.426102727665625e-07
3.480532595485842,9.070195912608861e-07
3.475964024900757,9.761667660432978e-07
3.471395454315672,1.050386187792891e-06
3.4668268837305867,1.1300350872150232e-06
3.462258313145502,1.2154950513636929e-06
3.457689742560417,1.3071736207987199e-06
3.453121171975332,1.4055059679200737e-06
3.448552601390247,1.510956657046098e-06
3.443984030805162,1.624021487282213e-06
3.439415460220077,1.7452294199760078e-06
3.4348468896349917,1.8751445935751474e-06
3.430278319049907,2.0143684299839083e-06
3.425709748464822,2.163541838029611e-06
3.421141177879737,2.3233475213631126e-06
3.4165726072946523,2.4945123999804324e-06
3.4120040367095674,2.6778101565078234e-06
3.407435466124482,2.874063920372376e-06
3.402866895539397,3.08414910491702e-06
3.398298324954312,3.308996414338162e-06
3.393729754369227,3.549595038956936e-06
3.389161183784142,3.806996058715779e-06
3.3845926131990574,4.082316075863245e-06
3.3800240426139725,4.376741098504503e-06
3.375455472028887,4.691530697019592e-06
3.3708869014438023,5.028022455266569e-06
3.366318330858717,5.38763673798928e-06
3.361749760273632,5.771881794950836e-06
3.3571811896885473,6.1823592210478265e-06
3.3526126191034624,6.620769790069034e-06
3.3480440485183776,7.0889196779134794e-06
3.3434754779332923,7.588727089053055e-06
3.3389069073482074,8.122229297907392e-06
3.334338336763122,8.691590114701095e-06
3.329769766178037,9.299107783402024e-06
3.3252011955929524,9.947223317623674e-06
3.3206326250078675,1.0638529279017334e-05
3.3160640544227826,1.1375779001805366e-05
3.3114954838376973,1.2161896266807969e-05
3.3069269132526125,1.2999985428674293e-05
3.302358342667527,1.3893342001112198e-05
3.2977897720824423,1.4845463706742434e-05
3.2932212014973574,1.5860062000804167e-05
3.2886526309122726,1.694107408126942e-05
3.2840840603271877,1.8092675401952162e-05
3.2795154897421024,1.9319292709827082e-05
3.2749469191570175,2.06256176329205e-05
3.270378348571932,2.2016620850665902e-05
3.2658097779868474,2.3497566884392427e-05
3.2612412074017625,2.5074029551496078e-05
3.2566726368166776,2.6751908132640287e-05
3.2521040662315928,2.8537444306898664e-05
3.247535495646508,3.0437239914893707e-05
3.2429669250614226,3.2458275614525445e-05
3.2383983544763373,3.460793049765614e-05
3.2338297838912524,3.689400273895857e-05
3.2292612133061676,3.9324731349895566e-05
3.2246926427210827,4.19088191113912e-05
3.220124072135998,4.4655456758086816e-05
3.215555501550913,4.7574348485163614e-05
3.2109869309658277,5.0675738845582e-05
3.206418360380743,5.397044110138018e-05
3.2018497897956575,5.7469867087586886e-05
3.1972812192105726,6.118605864159637e-05
3.1927126486254878,6.513172064490678e-05
3.188144078040403,6.932025571829839e-05
3.183575507455318,7.376580060634146e-05
3.1790069368702327,7.848326428297546e-05
3.174438366285148,8.348836780735154e-05
3.1698697957000626,8.87976859585724e-05
3.1653012251149777,9.44286906798023e-05
3.160732654529893,0.00010039979636684608
3.156164083944808,0.00010673040704378394
3.151595513359723,0.00011344096547883692
3.147026942774638,0.0001205530043071219
3.142458372189553,0.00012808919924317088
3.1378898016044676,0.0001360734244846033
3.1333212310193828,0.0001445308104284652
3.128752660434298,0.00015348780384288427
3.124184089849213,0.00016297223065761253
3.119615519264128,0.00017301336155695093
3.115046948679043,0.00018364198057606968
3.110478378093958,0.00019489045691578353
3.1059098075088727,0.00020679282020024485
3.101341236923788,0.00021938483940564199
3.096772666338703,0.00023270410568514821
3.092204095753618,0.0002467901193052894
3.0876355251685332,0.0002616843808915017
3.0830669545834484,0.000277430487155922
3.078498383998363,0.0002940742312490221
3.0739298134132778,0.00031166370783940997
3.069361242828193,0.00033024942298442485
3.064792672243108,0.00034988440880958163
3.060224101658023,0.0003706243429696089
3.0556555310729383,0.00039252767281991826
3.0510869604878534,0.0004156557441871988
3.046518389902768,0.00044007293459384124
3.0419498193176833,0.00046584679076546067
3.0373812487325984,0.0004930481702359296
3.032812678147513,0.0005217513868618967
3.0282441075624282,0.0005520343600702086
3.0236755369773434,0.0005839787676877389
3.019106966392258,0.0006176702022438285
3.014538395807173,0.000653198330690829
3.0099698252220883,0.000690657057556167
3.0054012546370035,0.000730144691618453
3.000832684051918,0.0007717641162874615
2.9962641134668333,0.0008156229639601408
2.9916955428817484,0.0008618337947186648
2.987126972296663,0.0009105142798276282
2.9825584017115783,0.0009617873905724059
2.9779898311264934,0.0010157815930552582
2.9734212605414085,0.0010726310496264003
2.9688526899563232,0.0011324758276715253
2.9642841193712384,0.0011954621165022178
2.9597155487861535,0.0012617424531004182
2.9551469782010686,0.0013314759574510296
2.9505784076159833,0.0014048285781592658
2.9460098370308985,0.001481973348991335
2.9414412664458136,0.001563090656901041
2.9368726958607283,0.0016483685220132435
2.9323041252756434,0.00173800288993094
2.9277355546905586,0.0018321979366197451
2.9231669841054737,0.0019311663860049337
2.9185984135203884,0.0020351298402963556
2.9140298429353035,0.0021443191229384415
2.9094612723502187,0.002258974633969483
2.9048927017651334,0.0023793467174690872
2.9003241311800485,0.0025056960406771877
2.8957555605949636,0.0026382939842842013
2.8911869900098788,0.0027774230433198393
2.8866184194247935,0.00292337723800979
2.8820498488397086,0.0030764625339234314
2.8774812782546237,0.0032369972707037105
2.872912707669539,0.0034053125986495563
2.8683441370844536,0.0035817529224147905
2.8637755664993687,0.003766676351091384
2.859206995914284,0.003960455153962774
2.8546384253291985,0.0041634762212406275
2.8500698547441137,0.004376141529139898
2.845501284159029,0.004598868608699463
2.840932713573944,0.00483209101781821
2.8363641429888586,0.005076258816052454
2.8317955724037738,0.005331839041802852
2.827227001818689,0.005599316191611511
2.8226584312336036,0.0058791927013848696
2.8180898606485187,0.006171989429455316
2.813521290063434,0.006478246141488296
2.808952719478349,0.0067985219973242484
2.8043841488932637,0.00713339603991585
2.799815578308179,0.007483467686568119
2.795247007723094,0.007849357222710835
2.790678437138009,0.008231706298423347
2.786109866552924,0.008631178427885354
2.781541295967839,0.009048459491845462
2.776972725382754,0.009484258243079226
2.7724041547976688,0.009939306814653347
2.767835584212584,0.010414361230627573
2.763267013627499,0.010910201918621716
2.758698443042414,0.011427634223451126
2.754129872457329,0.011967488920818281
2.749561301872244,0.012530622729836524
2.744992731287159,0.013117918822982811
2.740424160702074,0.013730287331932572
2.735855590116989,0.014368665847644218
2.731287019531904,0.015034019913037594
2.7267184489468193,0.01572734350666079
2.722149878361734,0.01644965951587025
2.717581307776649,0.017202020198256965
2.713012737191564,0.017985507630333703
2.7084441666064794,0.018801234142843442
2.703875596021394,0.01965034274244493
2.699307025436309,0.020534007519953008
2.6947384548512243,0.021453434045740134
2.690169884266139,0.022409859753307906
2.685601313681054,0.023404554312393397
2.6810327430959693,0.02443881999324751
2.6764641725108844,0.025513992023888293
2.671895601925799,0.026631438942167806
2.6673270313407142,0.027792562944371903
2.6627584607556294,0.02899880023179114
2.6581898901705445,0.03025162135623635
2.653621319585459,0.031552531564840884
2.6490527490003744,0.0329030711436843
2.6444841784152895,0.03430481575881627
2.639915607830204,0.03575937679215859
2.6353470372451193,0.03726840166857976
2.6307784666600345,0.03883357416916541
2.6262098960749496,0.040456614724420775
2.6216413254898643,0.04213928067986636
2.6170727549047794,0.0438833665252757
2.6125041843196946,0.04569070407769347
2.6079356137346092,0.04756316260741132
2.6033670431495244,0.04950264889530206
2.5987984725644395,0.05151110720936408
2.5942299019793547,0.0535905191880117
2.5896613313942694,0.05574290361762488
2.5850927608091845,0.05797031609211238
2.5805241902240996,0.06027484854280726
2.5759556196390148,0.06265862862784899
2.5713870490539295,0.06512381897136788
2.5668184784688446,0.06767261624421675
2.5622499078837597,0.07030725007971464
2.5576813372986744,0.07302998181982927
2.5531127667135896,0.07584310308943135
2.5485441961285047,0.07874893419865445
2.54397562554342,0.08174982237596097
2.5394070549583345,0.0848481398372202
2.5348384843732497,0.08804628169886697
2.530269913788165,0.09134666374604704
2.5257013432030795,0.09475172006941007
2.5211327726179946,0.09826390058692047
2.5165642020329098,0.1018856684695969
2.511995631447825,0.10561949749236849
2.5074270608627396,0.1094678693332362
2.5028584902776547,0.1134332708454903
2.49828991969257,0.1175181913288384
2.493721349107485,0.12172511982580465
2.4891527785223997,0.12605654246964226
2.484584207937315,0.13051493990915103
2.48001563735223,0.13510278483417562
2.4754470667671447,0.13982253962314556
2.47087849618206,0.14467665413077058
2.466309925596975,0.14966756362997471
2.46174135501189,0.15479768691733298
2.4571727844268048,0.16006942458577522
2.45260421384172,0.16548515746221387
2.448035643256635,0.17104724520119508
2.4434670726715497,0.17675802501875557
2.438898502086465,0.18261981054364074
2.43432993150138,0.18863489075604645
2.429761360916295,0.19480552897724787
2.42519279033121,0.20113396186715837
2.420624219746125,0.20762239838110244
2.41605564916104,0.21427301863213843
2.4114870785759552,0.22108797260118748
2.40691850799087,0.22806937863420837
2.402349937405785,0.2352193216637089
2.3977813668207,0.24253985109106233
2.393212796235615,0.2500329782663997
2.38864422565053,0.2577006735042177
2.384075655065445,0.26554486257522686
2.3795070844803603,0.27356742261821515
2.374938513895275,0.28177017741982346
2.37036994331019,0.290154892014782
2.3658013727251053,0.29872326656455417
2.36123280214002,0.30747692947805416
2.356664231554935,0.31641742974431375
2.3520956609698502,0.3255462284536633
2.3475270903847654,0.33486468949094184
2.34295851979968,0.34437406939200066
2.338389949214595,0.35407550636295554
2.3338213786295103,0.3639700084708917
2.3292528080444255,0.3740584410249686
2.32468423745934,0.38434151317852466
2.3201156668742553,0.3948197637960452
2.3155470962891704,0.4054935466439473
2.310978525704085,0.41636301498127876
2.3064099551190003,0.42742810564574485
2.3018413845339154,0.43868852275197373
2.2972728139488305,0.4501437211424949
2.2927042433637452,0.4617928897573203
2.2881356727786604,0.4736349351148197
2.2835671021935755,0.4856684651241516
2.27899853160849,0.49789177347713753
2.2744299610234053,0.5103028248940067
2.2698613904383205,0.522899241521972
2.2652928198532356,0.5356782908065288
2.2607242492681503,0.5486368751716499
2.2561556786830654,0.5617715238548763
2.2515871080979806,0.5750783872454026
2.2470185375128957,0.5885532340661636
2.2424499669278104,0.602191451723155
2.2378813963427255,0.6159880501159801
2.2333128257576407,0.6299376691615816
2.2287442551725554,0.6440345902281858
2.2241756845874705,0.6582727516082727
2.2196071140023856,0.6726457680783834
2.2150385434173008,0.6871469545005684
2.2104699728322155,0.7017693533168731
2.2059014022471306,0.7165057656762156
2.2013328316620457,0.7313487858152571
2.1967642610769604,0.7462908381940081
2.1921956904918756,0.7613242167670428
2.1876271199067907,0.7764411256558953
2.183058549321706,0.7916337203817986
2.1784899787366205,0.8068941487250241
2.1739214081515357,0.822214590201911
2.169352837566451,0.8375872930978202
2.164784266981366,0.8530046079674584
2.1602156963962806,0.8684590165173809
2.1556471258111958,0.8839431548211941
2.151078555226111,0.8994498298888128
2.1465099846410256,0.9149720287174018
2.1419414140559407,0.9305029190937181
2.137372843470856,0.9460358415938217
2.132804272885771,0.961564292433626
2.1282357023006857,0.9770818970589535
2.123667131715601,0.9925823746208153
2.119098561130516,1.008059493754283
2.1145299905454307,1.0235070203600005
2.109961419960346,1.038918658367297
2.105392849375261,1.0542879847285074
2.100824278790176,1.0696083801450678
2.0962557082050908,1.0848729572486335
2.091687137620006,1.1000744881448536
2.087118567034921,1.1152053333654517
2.082549996449836,1.1302573743581057
2.077981425864751,1.1452219516675086
2.073412855279666,1.160089810920483
2.068844284694581,1.1748510586208856
2.064275714109496,1.1894951295862288
2.059707143524411,1.2040107676201612
2.055138572939326,1.2183860207170518
2.0505700023542413,1.232608251744939
2.046001431769156,1.246664165159509
2.041432861184071,1.260539849875914
2.036864290598986,1.27422083798012
2.0322957200139014,1.2876921785104012
2.027727149428816,1.3009385250981675
2.023158578843731,1.3139442358396942
2.0185900082586463,1.3266934833914237
2.014021437673561,1.3391703729548878
2.009452867088476,1.3513590655551884
2.0048842965033913,1.363243903829156
2.0003157259183064,1.3748095374337759
1.9957471553332211,1.3860410451668232
1.9911785847481362,1.3969240509616978
1.9866100141630514,1.4074448310758467
1.982041443577966,1.417590410032323
1.9774728729928812,1.427348643189199
1.9729043024077964,1.436708284192059
1.9683357318227115,1.4456590359966972
1.9637671612376262,1.4541915846192293
1.9591985906525413,1.4622976152621427
1.9546300200674565,1.469969810960696
1.9500614494823716,1.4772018343785462
1.9454928788972863,1.48398829383722
1.9409243083122014,1.4903246950769502
1.9363557377271166,1.4962073806032012
1.9317871671420312,1.5016334587627242
1.9272185965569464,1.5066007249077158
1.9226500259718615,1.511107577141371
1.9180814553867767,1.5151529291908288
1.9135128848016913,1.5187361229257694
1.9089443142166065,1.5218568429367307
1.9043757436315216,1.524515035413809
1.8998071730464363,1.526710833332833
1.8952386024613515,1.528444489673679
1.8906700318762666,1.5297163200764579
1.8861014612911817,1.5305266559989437
1.8815328907060964,1.5308758090858179
1.8769643201210116,1.5307640471102928
1.8723957495359267,1.5301915815126403
1.8678271789508418,1.5291585662483278
1.8632586083657565,1.5276651073799137
1.8586900377806717,1.5257112826071286
1.8541214671955868,1.5232971697334499
1.8495528966105015,1.5204228829167146
1.8449843260254166,1.5170886154459502
1.8404157554403318,1.51329468772451
1.835847184855247,1.5090415991174242
1.8312786142701616,1.5043300823337793
1.8267100436850767,1.4991611590572163
1.8221414730999919,1.493536195603532
1.8175729025149066,1.487456957467479
1.8130043319298217,1.4809256617158106
1.8084357613447368,1.473945026284933
1.803867190759652,1.4665183153451935
1.7992986201745667,1.4586493799966105
1.7947300495894818,1.4503426936600772
1.790161479004397,1.4416033816233949
1.785592908419312,1.4324372442921884
1.7810243378342268,1.4228507737825076
1.776455767249142,1.412851163576847
1.771887196664057,1.4024463110489778
1.7673186260789717,1.3916448127484622
1.7627500554938869,1.3804559524238618
1.758181484908802,1.3688896818561833
1.7536129143237171,1.3569565946719302
1.7490443437386318,1.3446678934078988
1.744475773153547,1.3320353502069553
1.739907202568462,1.3190712616340539
1.7353386319833768,1.3057883982118026
1.730770061398292,1.2921999493822243
1.726201490813207,1.27831946470206
1.7216329202281222,1.2641607921693334
1.717064349643037,1.249738014654394
1.712495779057952,1.2350653854657583
1.7079272084728672,1.2201572641157339
1.7033586378877823,1.2050280533605908
1.698790067302697,1.1896921385722148
1.6942214967176121,1.174163830452097
1.6896529261325273,1.1584573120240234
1.685084355547442,1.142586590739877
1.680515784962357,1.1265654564062146
1.6759472143772722,1.110407445490911
1.6713786437921874,1.0941258122034998
1.666810073207102,1.0777335065653355
1.6622415026220172,1.0612431595015352
1.6576729320369323,1.0446670748025568
1.653104361451847,1.0280172276247042
1.6485357908667622,1.0113052690322357
1.6439672202816773,0.9945425359342419
1.6393986496965924,0.9777400656422646
1.6348300791115071,0.9609086141731422
1.6302615085264223,0.9440586773494686
1.6256929379413374,0.9272005137085437
1.6211243673562525,0.9103441682209861
1.6165557967711672,0.8934994958413286
1.6119872261860824,0.8766761839638872
1.6074186556009975,0.8598837729348241
1.6028500850159122,0.8431316738726582
1.5982815144308273,0.8264291831700035
1.5937129438457425,0.8097854931844376
1.5891443732606576,0.7932096987712535
1.5845758026755723,0.7767107994600057
1.5800072320904874,0.7602976972254969
1.5754386615054026,0.7439791899471001
1.5708700909203173,0.7277639607839055
1.5663015203352324,0.7116605638132777
1.5617329497501475,0.6956774063837283
1.5571643791650627,0.6798227287176675
1.5525958085799774,0.664104581363322
1.5480272379948925,0.6485308011379698
1.5434586674098076,0.6331089862258346
1.5388900968247228,0.6178464710949442
1.5343215262396375,0.6027503018786146
1.5297529556545526,0.5878272128313415
1.5251843850694677,0.5730836044175903
1.5206158144843824,0.5585255235280785
1.5160472438992976,0.5441586462440683
1.5114786733142127,0.5299882634889763
1.5069101027291278,0.5160192698209695
1.5023415321440425,0.5022561555326452
1.4977729615589577,0.4887030021373023
1.4932043909738728,0.4753634812375117
1.488635820388788,0.46224085669316467
1.4840672498037026,0.4493379899342389
1.4794986792186178,0.43665734819994967
1.474930108633533,0.4242010154315822
1.4703615380484476,0.4119707055022216
1.4657929674633627,0.39996777743305306
1.4612243968782779,0.3881932522232811
1.456655826293193,0.37664783090890475
1.4520872557081077,0.36533191346407223
1.4475186851230228,0.354245618167113
1.442950114537938,0.34338880107048547
1.4383815439528527,0.33276107523913184
1.4338129733677678,0.32236182945345887
1.429244402782683,0.31219024611052876
1.424675832197598,0.30224531809849736
1.4201072616125128,0.29252586446353646
1.415538691027428,0.2830305447342433
1.410970120442343,0.27375787181440037
1.4064015498572582,0.264706223399981
1.4018329792721729,0.25587385191903567
1.397264408687088,0.2472588930330114
1.3926958381020031,0.23885937277390096
1.3881272675169178,0.23067321342302483
1.383558696931833,0.22269823826347285
1.3789901263467481,0.21493217535893352
1.3744215557616632,0.20737266052667516
1.369852985176578,0.2000172396815439
1.365284414591493,0.1928633707312557
1.3607158440064082,0.18590842520109638
1.356147273421323,0.1791496897588127
1.351578702836238,0.17258436779845063
1.3470101322511532,0.1662095812257825
1.3424415616660683,0.1600223725685105
1.337872991080983,0.1540197075123304
1.3333044204958981,0.14819847794014326
1.3287358499108133,0.1425555055269045
1.3241672793257284,0.13708754591781974
1.3195987087406431,0.13179129349347937
1.3150301381555582,0.12666338670289148
1.3104615675704734,0.12170041392483928
1.305892996985388,0.11689891980005405
1.3013244264003032,0.11225541196175126
1.2967558558152184,0.10776636808037429
1.2921872852301335,0.10342824313006796
1.2876187146450482,0.09923747677940715
1.2830501440599633,0.09519050080720635
1.2784815734748785,0.09128374644556192
1.2739130028897931,0.08751365155643138
1.2693444323047083,0.0838766675546505
1.2647758617196234,0.08036926599897115
1.2602072911345386,0.07698794478310536
1.2556387205494532,0.07372923387038727
1.2510701499643684,0.07058970052816961
1.2465015793792835,0.0675659540309811
1.2419330087941987,0.06465464981443425
1.2373644382091133,0.06185249307447381
1.2327958676240285,0.05915624181849781
1.2282272970389436,0.056562709385827505
1.2236587264538583,0.054068766464712925
1.2190901558687735,0.051671342641292625
1.2145215852836886,0.049367427522535125
1.2099530146986037,0.047154071480064556
1.2053844441135184,0.04502838606484835
1.2008158735284336,0.04298754414405011
1.1962473029433487,0.041028779810976225
1.1916787323582634,0.039149388117146036
1.1871101617731785,0.037346724672246374
1.1825415911880937,0.035618205153356466
1.1779730206030088,0.03396130475959225
1.1734044500179235,0.03237355764248906
1.1688358794328386,0.030852556336309508
1.1642673088477538,0.029395951206268336
1.159698738262669,0.028001449926675644
1.1551301676775836,0.026666816995399665
1.1505615970924987,0.025389873286032018
1.1459930265074139,0.02416849563482486
1.1414244559223286,0.023000616455957534
1.1368558853372437,0.021884223376022728
1.1322873147521588,0.020817358876808287
1.127718744167074,0.019798119934471815
1.1231501735819887,0.01882465764298618
1.1185816029969038,0.017895176810209776
1.114013032411819,0.01700793551598716
1.1094444618267336,0.01616124462321152
1.1048758912416488,0.015353467234643628
1.100307320656564,0.014583018090371574
1.095738750071479,0.013848362902986756
1.0911701794863937,0.013148017629730915
1.0866016089013089,0.012480547682946213
1.082033038316224,0.011844567082043742
1.0774644677311391,0.011238737551834254
1.0728958971460538,0.010661767573378899
1.068327326560969,0.010112411394491224
1.063758755975884,0.009589468007625833
1.0591901853907988,0.009091780103132155
1.054621614805714,0.008618233005734723
1.050053044220629,0.008167753601659616
1.0454844736355442,0.007739309263100201
1.040915903050459,0.00733190677575037
1.0363473324653745,0.006944591274001084
1.0317787618802887,0.006576445187159218
1.0272101912952039,0.0062265871987861815
1.022641620710119,0.0058941712200340675
1.0180730501250341,0.005578385376765003
1.0135044795399493,0.00527845100932418
1.0089359089548644,0.004993621683168758
1.0043673383697795,0.004723182208164796
0.9997987677846938,0.004466447664280732
0.9952301971996089,0.0042227624316294905
0.9906616266145241,0.003991499223323885
0.9860930560294392,0.003772058120372937
0.9815244854443543,0.00356386560879516
0.9769559148592695,0.0033663736201884715
0.9723873442741846,0.0031790585780836792
0.9678187736890989,0.003001420453431344
0.963250203104014,0.002832981833442299
0.9586816325189291,0.002673287008642748
0.9541130619338443,0.002521901083358962
0.9495444913487594,0.002378409114871456
0.9449759207636745,0.0022424152861655077
0.9404073501785897,0.0021135421165621253
0.9358387795935039,0.001991429713577512
0.9312702090084191,0.0018757350681847937
0.9267016384233342,0.0017661313943084988
0.9221330678382493,0.001662307511952831
0.9175644972531645,0.0015639672719296644
0.9129959266680796,0.001470829018797526
0.9084273560829947,0.0013826250874221064
0.9038587854979099,0.0012991013275880994
0.8992902149128241,0.0012200166503822205
0.8947216443277393,0.0011451425896633533
0.8901530737426544,0.0010742628718552016
0.8855845031575695,0.0010071729875417053
0.8810159325724847,0.0009436797588981671
0.8764473619873998,0.0008836008978233115
0.871878791402315,0.0008267645507051524
0.8673102208172292,0.0007730088270045436
0.8627416502321443,0.0007221813102154035
0.8581730796470595,0.0006741385511961852
0.8536045090619746,0.0006287455453003053
0.8490359384768897,0.0005858751961005027
0.8444673678918049,0.0005454077697467779
0.83989879730672,0.0005072303450670896
0.8353302267216343,0.0004712362653703801
0.8307616561365494,0.00043732459850778956
0.8261930855514645,0.0004053996120647518
0.8216245149663797,0.0003753702705807599
0.8170559443812948,0.00034714976142176894
0.8124873737962099,0.0003206550553733415
0.8079188032111251,0.00029580650720214115
0.8033502326260393,0.0002725275003832674
0.7987816620409545,0.0002507441389556049
0.7942130914558696,0.00023038498809997606
0.7896445208707847,0.0002113808635960499
0.7850759502856999,0.0001936646688671965
0.780507379700615,0.00017717127693357387
0.7759388091155301,0.00016183745332531307
0.7713702385304444,0.00014760181491756753
0.7668016679453595,0.0001344048187869167
0.7622330973602747,0.00012218877459275803
0.7576645267751898,0.00011089787368400262
0.7530959561901049,0.00010047822813162955
0.7485273856050201,9.087791318785926e-05
0.7439588150199352,8.204700725295458e-05
0.7393902444348504,7.393762425627736e-05
0.7348216738497646,6.650393438061693e-05
0.7302531032646797,5.970217021801619e-05
0.7256845326795949,5.349061667315414e-05
0.72111596209451,4.782958415477899e-05
0.7165473915094251,4.268136574508186e-05
0.7119788209243403,3.801018004574584e-05
0.7074102503392554,3.378210221243827e-05
0.7028416797541697,2.9964986266442616e-05
0.6982731091690848,2.6528382090383422e-05
0.6937045385839999,2.344345057131943e-05
0.6891359679989151,2.0682880164770006e-05
0.6845673974138302,1.822080775035681e-05
0.6799988268287454,1.6032746080339543e-05
0.6754302562436605,1.409551944188362e-05
0.6708616856585747,1.2387208421772339e-05
0.6662931150734899,1.0887103936372832e-05
0.661724544488405,9.575670021832371e-06
0.6571559739033201,8.434514311920711e-06
0.6525874033182353,7.446364693741018e-06
0.6480188327331504,6.5950503418575446e-06
0.6434502621480656,5.865485193593728e-06
0.6388816915629798,5.2436519353784095e-06
0.6343131209778949,4.716584705846461e-06
0.6297445503928101,4.272348963015384e-06
0.6251759798077252,3.900017283302306e-06
0.6206074092226403,3.5896402308651268e-06
0.6160388386375555,3.3322118288123535e-06
0.6114702680524706,3.1196295535583515e-06
0.6069016974673849,2.9446491378576204e-06
0.6023331268823,2.800834788931612e-06
0.5977645562972151,2.6825056922657105e-06
0.5931959857121303,2.5846798702851893e-06
0.5886274151270454,2.5030165935894654e-06
0.5840588445419606,2.433758599811031e-06
0.5794902739568757,2.3736753636453247e-06
0.5749217033717908,2.3200085858740037e-06
0.5703531327867051,2.2704209359988155e-06
0.5657845622016202,2.222948900788609e-06
0.5612159916165353,2.175960369421914e-06
0.5566474210314505,2.1281173361210446e-06
0.5520788504463656,2.078343835656987e-06
0.5475102798612808,2.0257989595131807e-06
0.5429417092761959,1.969854545472049e-06
0.5383731386911101,1.910076906081194e-06
0.5338045681060253,1.8462117767401388e-06
0.5292359975209404,1.7781715355393075e-06
0.5246674269358556,1.7060236853454974e-06
0.5200988563507707,1.6299796008136776e-06
0.5155302857656858,1.5503826306468347e-06
0.510961715180601,1.4676948040895815e-06
0.5063931445955152,1.382481609561263e-06
0.5018245740104303,1.295394575849382e-06
0.4972560034253455,1.2071516710285772e-06
0.4926874328402606,1.118515817037252e-06
0.48811886225517576,1.0302720739257423e-06
0.4835502916700909,9.432042545332251e-07
0.47898172108500603,8.580718695712825e-07
0.47441315049992006,7.755883630521323e-07
