5.038415164999822,6.249206850596686e-30
5.0338465944147375,7.726540870130454e-30
5.029278023829653,9.549009284051624e-30
5.024709453244568,1.1787454152041049e-29
5.020140882659482,1.452315236154402e-29
5.015572312074397,1.7848292546879846e-29
5.011003741489312,2.186625327369384e-29
5.006435170904227,2.669165399969755e-29
5.0018666003191425,3.245016324477742e-29
4.997298029734058,3.9278066806031785e-29
4.992729459148973,4.7321623267002544e-29
4.988160888563887,5.673626492887646e-29
4.983592317978802,6.768574006042805e-29
4.979023747393717,8.034133752123502e-29
4.9744551768086325,9.488138809791894e-29
4.969886606223548,1.1149129954123745e-28
4.965318035638463,1.303644564018492e-28
4.960749465053378,1.5170440480841203e-28
4.956180894468293,1.7572885185426406e-28
4.951612323883207,2.02676147792422e-28
4.947043753298122,2.328150995371246e-28
4.9424751827130375,2.6645920462403727e-28
4.937906612127953,3.0398672233650766e-28
4.933338041542868,3.4586845043960895e-28
4.928769470957783,3.9270570350348564e-28
4.924200900372698,4.4528186283029165e-28
4.919632329787612,5.0463208438010245e-28
4.9150637592025275,5.721374387401604e-28
4.910495188617443,6.496520882511201e-28
4.905926618032358,7.3967530932447745e-28
4.901358047447273,8.455845441551309e-28
4.896789476862188,9.71951611079343e-28
4.892220906277103,1.124972233650489e-27
4.887652335692017,1.3130498375620557e-27
4.8830837651069325,1.5475889832762598e-27
4.878515194521848,1.8440729759191795e-27
4.873946623936763,2.22352557114763e-27
4.869378053351678,2.714490135349796e-27
4.864809482766593,3.355703500534163e-27
4.860240912181508,4.199699117847285e-27
4.8556723415964225,5.3176488318263516e-27
4.851103771011338,6.805849595702904e-27
4.846535200426253,8.794386978293433e-27
4.841966629841168,1.1458669296129907e-26
4.837398059256083,1.5034734657377825e-26
4.832829488670998,1.9839500770479943e-26
4.828260918085913,2.6297469979397003e-26
4.8236923475008275,3.4975839667146964e-26
4.819123776915743,4.6630526051333007e-26
4.814555206330658,6.226631894741212e-26
4.809986635745573,8.321528561409817e-26
4.805418065160488,1.1123868233473354e-25
4.800849494575403,1.4865907389370616e-25
4.796280923990318,1.9853117923555117e-25
4.791712353405233,2.6486225002135468e-25
4.787143782820148,3.5289566324078628e-25
4.782575212235063,4.694750121232248e-25
4.778006641649978,6.235104867079717e-25
4.773438071064893,8.265749617923e-25
4.768869500479808,1.0936642190693853e-24
4.764300929894723,1.4441644440238026e-24
4.759732359309639,1.903080949071743e-24
4.755163788724553,2.5025954600972148e-24
4.750595218139468,3.284035843900234e-24
4.746026647554383,4.300362552072057e-24
4.741458076969298,5.619301162827547e-24
4.736889506384213,7.327281243299871e-24
4.7323209357991285,9.534379568668994e-24
4.727752365214044,1.2380512011050067e-23
4.723183794628958,1.604317494022944e-23
4.718615224043873,2.074710590720508e-23
4.714046653458788,2.677631728171255e-23
4.709478082873703,3.4489058461937224e-23
4.704909512288618,4.433638594138353e-23
4.700340941703534,5.688517028450425e-23
4.695772371118449,7.284655014603253e-23
4.691203800533363,9.311106207415777e-23
4.686635229948278,1.1879193833628221e-22
4.682066659363193,1.51278382144807e-22
4.677498088778108,1.9230101080469406e-22
4.6729295181930235,2.440121147253073e-22
4.668360947607939,3.090839284441945e-22
4.663792377022854,3.908287659353491e-22
4.659223806437769,4.93345656733221e-22
4.654655235852683,6.216990556162588e-22
4.650086665267598,7.821363147961338e-22
4.645518094682513,9.823519367134125e-22
4.640949524097429,1.2318082063509307e-21
4.636380953512344,1.5421236798435634e-21
4.631812382927259,1.9275432342664662e-21
4.627243812342174,2.4055060240500262e-21
4.622675241757088,2.9973308152120302e-21
4.618106671172003,3.729041864379317e-21
4.6135381005869185,4.632362874313975e-21
4.608969530001834,5.745911706502698e-21
4.604400959416749,7.116634598197435e-21
4.599832388831664,8.80152577153068e-21
4.595263818246579,1.0869686716214503e-20
4.590695247661493,1.340478928359345e-20
4.586126677076408,1.650801828986583e-20
4.581558106491324,2.030158286900542e-20
4.576989535906239,2.4932901663001326e-20
4.572420965321154,3.057958545931398e-20
4.567852394736069,3.745536250960417e-20
4.563283824150984,4.5817116980528784e-20
4.558715253565898,5.597324036021143e-20
4.5541466829808135,6.829352981943337e-20
4.549578112395729,8.322090724583446e-20
4.545009541810644,1.0128527878104455e-19
4.540440971225559,1.2311990816611948e-19
4.535872400640474,1.49480739150151e-19
4.531303830055389,1.8126917390939035e-19
4.526735259470303,2.195588973083898e-19
4.5221666888852186,2.6562743256373297e-19
4.517598118300134,3.209932243309059e-19
4.513029547715049,3.8745917257480492e-19
4.508460977129964,4.671636872549127e-19
4.503892406544879,5.626405026466143e-19
4.499323835959794,6.768886842081736e-19
4.4947552653747085,8.134544839042724e-19
4.490186694789624,9.765269559259977e-19
4.485618124204539,1.1710495384838567e-18
4.481049553619454,1.4028501441127244e-18
4.476480983034369,1.678792686764494e-18
4.471912412449284,2.0069534157400266e-18
4.467343841864199,2.3968259320254653e-18
4.4627752712791136,2.85955934069576e-18
4.458206700694029,3.4082346537620777e-18
4.453638130108944,4.058185312542213e-18
4.449069559523859,4.827368560190462e-18
4.444500988938774,5.736795378011979e-18
4.439932418353689,6.8110278200621345e-18
4.435363847768604,8.078753857891829e-18
4.430795277183519,9.57345130212394e-18
4.426226706598434,1.1334154023467033e-17
4.421658136013349,1.3406335579418957e-17
4.417089565428264,1.584292749417957e-17
4.412520994843179,1.8705491871832882e-17
4.407952424258094,2.2065570784346377e-17
4.403383853673009,2.6006238008667245e-17
4.398815283087925,3.0623882238479793e-17
4.39424671250284,3.603025491897645e-17
4.389678141917754,4.235482040643864e-17
4.385109571332669,4.974745130458614e-17
4.380541000747584,5.838151765028634e-17
4.375972430162499,6.845742519441919e-17
4.3714038595774145,8.020666544122339e-17
4.36683528899233,9.389644847317008e-17
4.362266718407245,1.098349990120162e-16
4.357698147822159,1.2837760677650928e-16
4.353129577237074,1.4993353413382065e-16
4.348561006651989,1.7497389746156985e-16
4.343992436066904,2.0404065371372918e-16
4.33942386548182,2.3775684061012614e-16
4.334855294896735,2.7683823785965953e-16
4.33028672431165,3.2210663811987717e-16
4.325718153726564,3.7450494025425073e-16
4.321149583141479,4.351143041662503e-16
4.316581012556394,5.051736363916278e-16
4.3120124419713095,5.861017090769773e-16
4.307443871386225,6.795222523649832e-16
4.30287530080114,7.872924019878997e-16
4.298306730216055,9.115349305346778e-16
4.293738159630969,1.0546747429521123e-15
4.289169589045884,1.2194801749762813e-15
4.284601018460799,1.409109698048766e-15
4.280032447875715,1.6271647066085522e-15
4.27546387729063,1.877749144316704e-15
4.270895306705545,2.165536815710767e-15
4.26632673612046,2.49584733006327e-15
4.261758165535374,2.8747317360204395e-15
4.257189594950289,3.309069030253989e-15
4.2526210243652045,3.806674862361571e-15
4.24805245378012,4.3764239132582286e-15
4.243483883195035,5.028387597177778e-15
4.23891531260995,5.773988930206232e-15
4.234346742024865,6.626176623299125e-15
4.229778171439779,7.599620697526786e-15
4.225209600854694,8.71093218664598e-15
4.22064103026961,9.978909790102054e-15
4.216072459684525,1.1424816671582468e-14
4.21150388909944,1.3072690967998259e-14
4.206935318514355,1.494969398527196e-14
4.20236674792927,1.708650051498102e-14
4.197798177344184,1.9517736214533493e-14
4.1932296067590995,2.228246755835593e-14
4.188661036174015,2.5424750494261902e-14
4.18409246558893,2.899424463390098e-14
4.179523895003845,3.304690057579448e-14
4.17495532441876,3.764572881126696e-14
4.170386753833675,4.286165960570174e-14
4.165818183248589,4.877450428876565e-14
4.161249612663505,5.54740295371648e-14
4.15668104207842,6.306115750256471e-14
4.152112471493335,7.164930603669358e-14
4.14754390090825,8.136588480753712e-14
4.142975330323165,9.23539647975664e-14
4.13840675973808,1.047741405406077e-13
4.1338381891529945,1.1880660650202615e-13
4.12926961856791,1.3465347125142658e-13
4.124701047982825,1.5254133553224934e-13
4.12013247739774,1.7272416301223197e-13
4.115563906812655,1.9548647541689286e-13
4.11099533622757,2.2114690691858052e-13
4.106426765642485,2.5006215609086187e-13
4.1018581950574005,2.826313774580609e-13
4.097289624472315,3.193010586914812e-13
4.09272105388723,3.6057043385125053e-13
4.088152483302145,4.0699748777753717e-13
4.08358391271706,4.592056118388801e-13
4.079015342131975,5.17890976805786e-13
4.07444677154689,5.838306947075232e-13
4.0698782009618055,6.578918482437715e-13
4.065309630376721,7.410414737762685e-13
4.060741059791635,8.343575922569177e-13
4.05617248920655,9.390413918156717e-13
4.051603918621465,1.0564306763074546e-12
4.04703534803638,1.1880147060802763e-12
4.0424667774512955,1.3354505707553579e-12
4.037898206866211,1.5005812490605296e-12
4.033329636281126,1.6854555278605667e-12
4.02876106569604,1.8923499715650765e-12
4.024192495110955,2.123793154093373e-12
4.01962392452587,2.3825923885055544e-12
4.015055353940785,2.671863214174296e-12
4.0104867833557005,2.9950619278409577e-12
4.005918212770616,3.356021472911082e-12
4.001349642185531,3.758991030761438e-12
3.9967810716004455,4.2086796885824636e-12
3.99221250101536,4.710304590420251e-12
3.9876439304302753,5.269644011858735e-12
3.9830753598451905,5.89309583468422e-12
3.9785067892601056,6.587741936690937e-12
3.9739382186750207,7.361419054618241e-12
3.9693696480899354,8.222796726469317e-12
3.9648010775048506,9.181462974811982e-12
3.9602325069197652,1.0248018456936089e-11
3.9556639363346804,1.1434179882777252e-11
3.9510953657495955,1.2752893589013708e-11
3.9465267951645107,1.4218460259009653e-11
3.941958224579426,1.584667189408708e-11
3.9373896539943405,1.7654962271951294e-11
3.9328210834092556,1.9662572272098004e-11
3.9282525128241703,2.189073160388914e-11
3.9236839422390855,2.4362858637989536e-11
3.9191153716540006,2.710478021263568e-11
3.9145468010689157,3.0144973458889224e-11
3.909978230483831,3.3514831859773674e-11
3.9054096598987456,3.7248957923485994e-11
3.9008410893136607,4.1385485008128384e-11
3.8962725187285754,4.5966430983318e-11
3.8917039481434905,5.1038086552932505e-11
3.8871353775584057,5.665144119547731e-11
3.882566806973321,6.286264980825564e-11
3.877998236388236,6.973354327494288e-11
3.873429665803151,7.733218632107485e-11
3.8688610952180658,8.573348618766466e-11
3.8642925246329805,9.501985584992655e-11
3.8597239540478956,1.0528193574703818e-10
3.8551553834628107,1.1661937828158484e-10
3.850586812877726,1.2914169970585218e-10
3.846018242292641,1.4296920444892566e-10
3.841449671707556,1.5823398746641296e-10
3.836881101122471,1.7508102082662224e-10
3.832312530537386,1.9366933149645255e-10
3.8277439599523007,2.1417327816949116e-10
3.823175389367216,2.3678393599852444e-10
3.818606818782131,2.6171059926216115e-10
3.814038248197046,2.8918241331162214e-10
3.809469677611961,3.1945014860221553e-10
3.804901107026876,3.5278813119630373e-10
3.800332536441791,3.89496345799451e-10
3.7957639658567057,4.299027291134267e-10
3.791195395271621,4.743656729990801e-10
3.786626824686536,5.232767585690538e-10
3.782058254101451,5.770637437986052e-10
3.7774896835163663,6.361938284805702e-10
3.772921112931281,7.01177221298675e-10
3.768352542346196,7.725710344201967e-10
3.763783971761111,8.509835313214348e-10
3.759215401176026,9.370787536144933e-10
3.754646830590941,1.0315815525575574e-09
3.750078260005856,1.135283050875754e-09
3.7455096894207713,1.2490465607252864e-09
3.740941118835686,1.3738139843646272e-09
3.736372548250601,1.5106127256373456e-09
3.731803977665516,1.6605631429917123e-09
3.727235407080431,1.824886578686269e-09
3.722666836495346,2.0049140042062356e-09
3.7180982659102613,2.202095328780231e-09
3.7135296953251764,2.4180094261591946e-09
3.7089611247400915,2.6543749442855966e-09
3.7043925541550062,2.9130619728145376e-09
3.699823983569921,3.1961046542355188e-09
3.695255412984836,3.505714835128143e-09
3.690686842399751,3.844296864420593e-09
3.6861182718146663,4.214463655029517e-09
3.6815497012295815,4.619054133684281e-09
3.6769811306444966,5.061152210976567e-09
3.6724125600594113,5.544107409806003e-09
3.6678439894743264,6.071557295665739e-09
3.663275418889241,6.647451857031474e-09
3.6587068483041563,7.276079988980142e-09
3.6541382777190714,7.962098238616037e-09
3.6495697071339865,8.710561977417382e-09
3.6450011365489017,9.526959173653867e-09
3.6404325659638164,1.041724694780833e-08
3.6358639953787315,1.1387891105532085e-08
3.631295424793646,1.2445908855944033e-08
3.6267268542085613,1.3598914937723899e-08
3.6221582836234765,1.4855171391015862e-08
3.6175897130383916,1.6223641229105926e-08
3.6130211424533067,1.771404627966555e-08
3.6084525718682214,1.9336929480626575e-08
3.6038840012831366,2.1103721930235116e-08
3.5993154306980513,2.302681500454615e-08
3.5947468601129664,2.5119637868901534e-08
3.5901782895278815,2.7396740723544745e-08
3.5856097189427967,2.987388413852572e-08
3.581041148357712,3.2568134850982676e-08
3.5764725777726265,3.549796842050993e-08
3.5719040071875416,3.868337916765468e-08
3.5673354366024563,4.2145997858699716e-08
3.5627668660173715,4.590921764869047e-08
3.5581982954322866,4.99983288558002e-08
3.5536297248472017,5.444066321453128e-08
3.549061154262117,5.926574834323854e-08
3.544492583677032,6.45054732621921e-08
3.5399240130919467,7.019426591007088e-08
3.535355442506862,7.636928372636472e-08
3.5307868719217765,8.307061849063671e-08
3.5262183013366917,9.0341516731963e-08
3.521649730751607,9.822861713770696e-08
3.517081160166522,1.0678220649427434e-07
3.512512589581437,1.1605649577835702e-07
3.5079440189963518,1.2610991808065776e-07
3.503375448411267,1.3700545008189643e-07
3.4988068778261816,1.4881095881135113e-07
3.4942383072410967,1.6159957540154498e-07
3.489669736656012,1.754500975116939e-07
3.485101166070927,1.9044742203182311e-07
3.480532595485842,2.0668300960630817e-07
3.475964024900757,2.242553824387999e-07
3.471395454315672,2.432706567707251e-07
3.4668268837305867,2.6384311137448197e-07
3.462258313145502,2.860957933820095e-07
3.457689742560417,3.1016116279214855e-07
3.453121171975332,3.361817770769145e-07
3.448552601390247,3.643110174481746e-07
3.443984030805162,3.947138585598746e-07
3.439415460220077,4.275676837129842e-07
3.4348468896349917,4.6306314800350195e-07
3.430278319049907,5.014050923074546e-07
3.425709748464822,5.428135115276674e-07
3.421141177879737,5.875245811269051e-07
3.4165726072946523,6.357917466307217e-07
3.4120040367095674,6.878868814864947e-07
3.407435466124482,7.441015193962532e-07
3.402866895539397,8.047481679811449e-07
3.398298324954312,8.701617113648889e-07
3.393729754369227,9.407009099617005e-07
3.389161183784142,1.016750006401392e-06
3.3845926131990574,1.0987204471020593e-06
3.3800240426139725,1.1870527294930814e-06
3.375455472028887,1.2822183852852954e-06
3.3708869014438023,1.384722110471879e-06
3.366318330858717,1.4951040529188927e-06
3.361749760273632,1.6139422684675615e-06
3.3571811896885473,1.7418553564287878e-06
3.3526126191034624,1.8795052852123918e-06
3.3480440485183776,2.0276004186184767e-06
3.3434754779332923,2.186898753045255e-06
3.3389069073482074,2.3582113755652725e-06
3.334338336763122,2.5424061525211123e-06
3.329769766178037,2.7404116580266208e-06
3.3252011955929524,2.9532213515699977e-06
3.3206326250078675,3.1818980138375465e-06
3.3160640544227826,3.427578449951881e-06
3.3114954838376973,3.691478469581482e-06
3.3069269132526125,3.97489815386215e-06
3.302358342667527,4.279227419803137e-06
3.2977897720824423,4.605951893849293e-06
3.2932212014973574,4.956659107549951e-06
3.2886526309122726,5.333045029843897e-06
3.2840840603271877,5.736920952304036e-06
3.2795154897421024,6.170220745775726e-06
3.2749469191570175,6.635008509161461e-06
3.270378348571932,7.133486633620618e-06
3.2658097779868474,7.66800430811322e-06
3.2612412074017625,8.241066494980782e-06
3.2566726368166776,8.855343407053444e-06
3.2521040662315928,9.513680520550688e-06
3.247535495646508,1.0219109160723976e-05
3.2429669250614226,1.097485769971474e-05
3.2383983544763373,1.1784363408396938e-05
3.2338297838912524,1.2651285005982347e-05
3.2292612133061676,1.3579515952832628e-05
3.2246926427210827,1.4573198533203582e-05
3.220124072135998,1.563673877552594e-05
3.215555501550913,1.6774822258291968e-05
3.2109869309658277,1.799243084970178e-05
3.206418360380743,1.92948604289714e-05
3.2018497897956575,2.0687739636704548e-05
3.1972812192105726,2.2177049701087793e-05
3.1927126486254878,2.376914538603388e-05
3.188144078040403,2.5470777106921623e-05
3.183575507455318,2.7289114259459278e-05
3.1790069368702327,2.9231769807610274e-05
3.174438366285148,3.130682617766194e-05
3.1698697957000626,3.352286250757075e-05
3.1653012251149777,3.588898330382144e-05
3.160732654529893,3.8414848562339266e-05
3.156164083944808,4.1110705415537084e-05
3.151595513359723,4.398742137440474e-05
3.147026942774638,4.7056519242602126e-05
3.142458372189553,5.033021378867465e-05
3.1378898016044676,5.3821450272596205e-05
3.1333212310193828,5.7543944933561114e-05
3.128752660434298,6.151222755699789e-05
3.124184089849213,6.574168624968889e-05
3.119615519264128,7.024861456226425e-05
3.115046948679043,7.505026110763872e-05
3.110478378093958,8.016488183170446e-05
3.1059098075088727,8.5611795098292e-05
3.101341236923788,9.141143975359493e-05
3.096772666338703,9.758543633563491e-05
3.092204095753618,0.00010415665159157159
3.0876355251685332,0.00011114926645976884
3.0830669545834484,0.00011858884766444005
3.078498383998363,0.00012650242305875094
3.0739298134132778,0.00013491856083779972
3.069361242828193,0.00014386745272656465
3.064792672243108,0.00015338100123039736
3.060224101658023,0.0001634929110178874
3.0556555310729383,0.00017423878448889527
3.0510869604878534,0.00018565622156529055
3.046518389902768,0.00019778492372957943
3.0419498193176833,0.00021066680232813324
3.0373812487325984,0.00022434609115226325
3.032812678147513,0.00023886946331254418
3.0282441075624282,0.00025428615243050967
3.0236755369773434,0.00027064807818730604
3.019106966392258,0.00028800997629128765
3.014538395807173,0.00030642953295579705
3.0099698252220883,0.00032596752401383295
3.0054012546370035,0.00034668795883711
3.000832684051918,0.00036865822927225516
2.9962641134668333,0.0003919492638547513
2.9916955428817484,0.0004166356876105898
2.987126972296663,0.0004427959878041745
2.9825584017115783,0.00047051268603750797
2.9779898311264934,0.000499872517148004
2.9734212605414085,0.0005309666153887388
2.9688526899563232,0.0005638907084043663
2.9642841193712384,0.0005987453195366548
2.9597155487861535,0.0006356359790051073
2.9551469782010686,0.0006746734445094382
2.9505784076159833,0.0007159739317918936
2.9460098370308985,0.0007596593556784824
2.9414412664458136,0.0008058575820897222
2.9368726958607283,0.0008547026914741476
2.9323041252756434,0.0009063352540730226
2.9277355546905586,0.0009609026173735065
2.9231669841054737,0.0010185592060513264
2.9185984135203884,0.0010794668346448134
2.9140298429353035,0.0011437950331408492
2.9094612723502187,0.0012117213855920572
2.9048927017651334,0.0012834318818240383
2.9003241311800485,0.0013591212822335703
2.8957555605949636,0.0014389934956242254
2.8911869900098788,0.0015232619699753324
2.8866184194247935,0.001612150095995401
2.8820498488397086,0.0017058916232716315
2.8774812782546237,0.001804731088794492
2.872912707669539,0.0019089242576098562
2.8683441370844536,0.0020187385753329713
2.8637755664993687,0.0021344536322467377
2.859206995914284,0.002256361638703952
2.8546384253291985,0.002384767911557119
2.8500698547441137,0.002519991371351901
2.845501284159029,0.002662365050040427
2.840932713573944,0.002812236608996883
2.8363641429888586,0.0029699688671513563
2.8317955724037738,0.0031359403390952105
2.827227001818689,0.0033105457830529834
2.8226584312336036,0.003494196758657094
2.8180898606485187,0.0036873221945028507
2.813521290063434,0.003890368965497468
2.808952719478349,0.004103802480044757
2.8043841488932637,0.004328107277125471
2.799815578308179,0.0045637876333360985
2.795247007723094,0.004811368179936464
2.790678437138009,0.005071394529922378
2.786109866552924,0.0053444339150880045
2.781541295967839,0.005631075832968418
2.776972725382754,0.0059319327034594435
2.7724041547976688,0.006247640534801358
2.767835584212584,0.006578859598489398
2.763267013627499,0.006926275112542095
2.758698443042414,0.007290597932422713
2.754129872457329,0.007672565248781444
2.749561301872244,0.008072941291067922
2.744992731287159,0.008492518035969208
2.740424160702074,0.008932115919559077
2.735855590116989,0.009392584552013809
2.731287019531904,0.009874803433757922
2.7267184489468193,0.010379682671955267
2.722149878361734,0.010908163696361566
2.717581307776649,0.011461219973695655
2.713012737191564,0.012039857719872774
2.7084441666064794,0.01264511660965436
2.703875596021394,0.013278070483509506
2.699307025436309,0.013939828051725072
2.6947384548512243,0.014631533596040006
2.690169884266139,0.01535436766928923
2.685601313681054,0.016109547793710165
2.6810327430959693,0.016898329158672683
2.6764641725108844,0.017722005318614203
2.671895601925799,0.018581908891896273
2.6673270313407142,0.019479412261117286
2.6627584607556294,0.020415928275122168
2.6581898901705445,0.021392910952523818
2.653621319585459,0.02241185618601121
2.6490527490003744,0.02347430244604776
2.6444841784152895,0.024581831481786776
2.639915607830204,0.025736069016153475
2.6353470372451193,0.026938685431086348
2.6307784666600345,0.028191396437924843
2.6262098960749496,0.029495963726885937
2.6216413254898643,0.030854195588538857
2.6170727549047794,0.03226794749918379
2.6125041843196946,0.033739122661104806
2.6079356137346092,0.035269672487825796
2.6033670431495244,0.03686159702379391
2.5987984725644395,0.038516945287368945
2.5942299019793547,0.04023781552562591
2.5896613313942694,0.04202635536933682
2.5850927608091845,0.04388476187656352
2.5805241902240996,0.045815281453621536
2.5759556196390148,0.04782020964274316
2.5713870490539295,0.04990189076660915
2.5668184784688446,0.05206271742101472
2.5622499078837597,0.05430512980829953
2.5576813372986744,0.056631614905764356
2.5531127667135896,0.05904470546515045
2.5485441961285047,0.0615469788413008
2.54397562554342,0.06414105565035219
2.5394070549583345,0.06682959826019541
2.5348384843732497,0.06961530911841475
2.530269913788165,0.07250092892547885
2.5257013432030795,0.0754892346634779
2.5211327726179946,0.07858303749320449
2.5165642020329098,0.08178518053472734
2.511995631447825,0.08509853654875398
2.5074270608627396,0.08852600553797024
2.5028584902776547,0.09207051228904714
2.49828991969257,0.09573500387710186
2.493721349107485,0.09952244715496107
2.4891527785223997,0.10343582624956378
2.484584207937315,0.10747814008718512
2.48001563735223,0.11165239996782252
2.4754470667671447,0.11596162720700519
2.47087849618206,0.12040885086049613
2.466309925596975,0.1249971055438249
2.46174135501189,0.12972942935434836
2.4571727844268048,0.13460886189869167
2.45260421384172,0.13963844242296
2.448035643256635,0.14482120803724347
2.4434670726715497,0.15016019201965713
2.438898502086465,0.15565842217874115
2.43432993150138,0.16131891924650385
2.429761360916295,0.1671446952679854
2.42519279033121,0.17313875194704437
2.420624219746125,0.17930407890231254
2.41605564916104,0.1856436517820253
2.4114870785759552,0.1921604301819052
2.40691850799087,0.19885735530647042
2.402349937405785,0.20573734731124022
2.3977813668207,0.21280330226128463
2.393212796235615,0.22005808864050797
2.38864422565053,0.22750454334593503
2.384075655065445,0.23514546710214243
2.3795070844803603,0.24298361923268677
2.374938513895275,0.251021711728116
2.37036994331019,0.25926240255361604
2.3658013727251053,0.26770828814380543
2.36123280214002,0.27636189503735475
2.356664231554935,0.2852256706103104
2.3520956609698502,0.2943019728739817
2.3475270903847654,0.30359305931135167
2.34295851979968,0.3131010747351697
2.338389949214595,0.32282803816136896
2.3338213786295103,0.3327758287034096
2.3292528080444255,0.3429461705067319
2.32468423745934,0.3533406167579224
2.3201156668742553,0.36396053282063284
2.3155470962891704,0.37480707856977624
2.310978525704085,0.3858811900172373
2.3064099551190003,0.3971835603461784
2.3018413845339154,0.40871462049687696
2.2972728139488305,0.42047451947458336
2.2927042433637452,0.4324631045789068
2.2881356727786604,0.4446799017838089
2.2835671021935755,0.4571240965270538
2.27899853160849,0.4697945151966341
2.2744299610234053,0.4826896076284868
2.2698613904383205,0.4958074309532725
2.2652928198532356,0.5091456351489152
2.2607242492681503,0.5227014506684948
2.2561556786830654,0.5364716785185588
2.2515871080979806,0.550452683159492
2.2470185375128957,0.5646403885859299
2.2424499669278104,0.5790302779202319
2.2378813963427255,0.5936173968145162
2.2333128257576407,0.6083963609064997
2.2287442551725554,0.6233613675104284
2.2241756845874705,0.6385062116475604
2.2196071140023856,0.6538243064310761
2.2150385434173008,0.669308707719307
2.2104699728322155,0.6849521428405513
2.2059014022471306,0.7007470430746785
2.2013328316620457,0.7166855794540307
2.1967642610769604,0.732759701322192
2.1921956904918756,0.7489611769677537
2.1876271199067907,0.7652816355353045
2.183058549321706,0.781712609311912
2.1784899787366205,0.7982455753988613
2.1739214081515357,0.8148719957096148
2.169352837566451,0.8315833541904104
2.164784266981366,0.8483711901431382
2.1602156963962806,0.865227126544803
2.1556471258111958,0.8821428923063224
2.151078555226111,0.8991103374974978
2.1465099846410256,0.9161214406850723
2.1419414140559407,0.9331683076866563
2.137372843470856,0.9502431612327641
2.132804272885771,0.967338321249128
2.1282357023006857,0.9844461757176496
2.123667131715601,1.0015591423407408
2.119098561130516,1.0186696215136555
2.1145299905454307,1.0357699413950052
2.109961419960346,1.052852296147954
2.105392849375261,1.0699086786949186
2.100824278790176,1.0869308095766124
2.0962557082050908,1.1039100637236898
2.091687137620006,1.1208373971256747
2.087118567034921,1.1377032755102743
2.082549996449836,1.1544976072185835
2.077981425864751,1.171209682472873
2.073412855279666,1.1878281211798358
2.068844284694581,1.2043408312912889
2.064275714109496,1.220734979557124
2.059707143524411,1.2369969762543425
2.055138572939326,1.2531124751665297
2.0505700023542413,1.2690663897272199
2.046001431769156,1.28484292583804
2.041432861184071,1.300425631439178
2.036864290598986,1.315797462458744
2.0322957200139014,1.330940864312519
2.027727149428816,1.3458378676813003
2.023158578843731,1.360470196873928
2.0185900082586463,1.3748193887046258
2.014021437673561,1.3888669194865273
2.009452867088476,1.4025943374811116
2.0048842965033913,1.4159833979554963
2.0003157259183064,1.4290161978934708
1.9957471553332211,1.4416753073861537
1.9911785847481362,1.4539438947966377
1.9866100141630514,1.4658058429475016
1.982041443577966,1.4772458538173479
1.9774728729928812,1.4882495395443538
1.9729043024077964,1.4988034979117706
1.9683357318227115,1.5088953709200086
1.9637671612376262,1.5185138855180298
1.9591985906525413,1.5276488760583147
1.9546300200674565,1.536291288537943
1.9500614494823716,1.5444331671773446
1.9454928788972863,1.5520676243523024
1.9409243083122014,1.559188795318955
1.9363557377271166,1.565791779542848
1.9317871671420312,1.5718725707509877
1.9272185965569464,1.5774279780614158
1.9226500259718615,1.5824555407032568
1.9180814553867767,1.5869534389183027
1.9135128848016913,1.5909204036334628
1.9089443142166065,1.594355627415593
1.9043757436315216,1.5972586790711991
1.8998071730464363,1.5996294240423463
1.8952386024613515,1.6014679524859632
1.8906700318762666,1.602774516618744
1.8861014612911817,1.6035494785752307
1.8815328907060964,1.6037932696758295
1.8769643201210116,1.6035063616459746
1.8723957495359267,1.6026892499794672
1.8678271789508418,1.6013424493080612
1.8632586083657565,1.5994665003351374
1.8586900377806717,1.5970619876205832
1.8541214671955868,1.5941295672719749
1.8495528966105015,1.5906700034077192
1.8449843260254166,1.5866842121117137
1.8404157554403318,1.5821733114966114
1.835847184855247,1.5771386764316286
1.8312786142701616,1.5715819964681526
1.8267100436850767,1.5655053355081698
1.8221414730999919,1.5589111918016985
1.8175729025149066,1.5518025569255067
1.8130043319298217,1.5441829724808258
1.8084357613447368,1.5360565833483688
1.803867190759652,1.5274281864501065
1.7992986201745667,1.5183032740852938
1.7947300495894818,1.5086880710306343
1.790161479004397,1.498589564718536
1.785592908419312,1.4880155279321887
1.7810243378342268,1.4769745335807052
1.776455767249142,1.4654759612415302
1.771887196664057,1.453529995280971
1.7673186260789717,1.4411476144871822
1.7627500554938869,1.4283405732737207
1.758181484908802,1.4151213746356526
1.7536129143237171,1.4015032351640209
1.7490443437386318,1.387500042547653
1.744475773153547,1.3731263061121237
1.739907202568462,1.3583971010630143
1.7353386319833768,1.3433280072115978
1.730770061398292,1.3279350430634111
1.726201490813207,1.312234596240519
1.7216329202281222,1.2962433512842801
1.717064349643037,1.2799782159425548
1.712495779057952,1.2634562470823631
1.7079272084728672,1.2466945773820022
1.7033586378877823,1.229710343944517
1.698790067302697,1.2125206199356096
1.6942214967176121,1.1951423502833178
1.6896529261325273,1.1775922923844804
1.685084355547442,1.1598869626463228
1.680515784962357,1.1420425895519029
1.6759472143772722,1.1240750737803582
1.6713786437921874,1.1059999557401847
1.666810073207102,1.0878323906912621
1.6622415026220172,1.0695871314449579
1.6576729320369323,1.0512785184459998
1.653104361451847,1.0329204768615394
1.6485357908667622,1.0145265201369529
1.6439672202816773,0.996109759329451
1.6393986496965924,0.9776829174045806
1.6348300791115071,0.9592583475802445
1.6302615085264223,0.9408480547313166
1.6256929379413374,0.922463718826867
1.6211243673562525,0.9041167193622934
1.6165557967711672,0.8858181597699224
1.6119872261860824,0.8675788908425071
1.6074186556009975,0.8494095322822501
1.6028500850159122,0.831320491590207
1.5982815144308273,0.8133219796331905
1.5937129438457425,0.7954240223633141
1.5891443732606576,0.7776364683138778
1.5845758026755723,0.759968991649571
1.5800072320904874,0.7424310907036914
1.5754386615054026,0.725032082085536
1.5708700909203173,0.7077810905824606
1.5663015203352324,0.6906870352095177
1.5617329497501475,0.6737586118715195
1.5571643791650627,0.6570042731950229
1.5525958085799774,0.6404322061594179
1.5480272379948925,0.6240503082055623
1.5434586674098076,0.6078661625271318
1.5388900968247228,0.5918870132544604
1.5343215262396375,0.5761197412240112
1.5297529556545526,0.5605708409906888
1.5251843850694677,0.545246399686925
1.5206158144843824,0.530152078264718
1.5160472438992976,0.5152930955769081
1.5114786733142127,0.5006742156656752
1.5069101027291278,0.48629973853191455
1.5023415321440425,0.4721734945623536
1.4977729615589577,0.4582988426946183
1.4932043909738728,0.44467867230674757
1.488635820388788,0.4313154087293659
1.4840672498037026,0.4182110221977744
1.4794986792186178,0.4053670399896287
1.474930108633533,0.3927845614327603
1.4703615380484476,0.3804642754184381
1.4657929674633627,0.36840648001819565
1.4612243968782779,0.35661110377792843
1.456655826293193,0.3450777282509482
1.4520872557081077,0.33380561133170855
1.4475186851230228,0.3227937109632034
1.442950114537938,0.31204070881256996
1.4383815439528527,0.301545033539934
1.4338129733677678,0.2913048833235347
1.429244402782683,0.28131824734820027
1.424675832197598,0.2715829260127098
1.4201072616125128,0.2620965496627665
1.415538691027428,0.25285659570881674
1.410970120442343,0.2438604040401833
1.4064015498572582,0.23510519069764732
1.4018329792721729,0.22658805981440175
1.397264408687088,0.21830601387927404
1.3926958381020031,0.21025596241524375
1.3881272675169178,0.20243472920000122
1.383558696931833,0.19483905818295877
1.3789901263467481,0.18746561827442998
1.3744215557616632,0.18031100719756332
1.369852985176578,0.17337175460185975
1.365284414591493,0.16664432463910483
1.3607158440064082,0.16012511819845848
1.356147273421323,0.15381047498785966
1.351578702836238,0.14769667563433725
1.3470101322511532,0.1417799439570219
1.3424415616660683,0.13605644954443352
1.337872991080983,0.1305223107428102
1.3333044204958981,0.12517359813579476
1.3287358499108133,0.12000633856858602
1.3241672793257284,0.11501651974265642
1.3195987087406431,0.11020009538107889
1.3150301381555582,0.10555299094030157
1.3104615675704734,0.10107110982237735
1.305892996985388,0.09675034002284313
1.3013244264003032,0.09258656113395346
1.2967558558152184,0.08857565161109905
1.2921872852301335,0.08471349620210211
1.2876187146450482,0.08099599343458205
1.2830501440599633,0.0774190630556882
1.2784815734748785,0.07397865332089473
1.2739130028897931,0.07067074803396393
1.2693444323047083,0.06749137324822707
1.2647758617196234,0.06443660354956612
1.2602072911345386,0.06150256785347153
1.2556387205494532,0.05868545466180778
1.2510701499643684,0.05598151673896023
1.2465015793792835,0.05338707518142535
1.2419330087941987,0.05089852286917188
1.2373644382091133,0.048512327300842276
1.2327958676240285,0.04622503282771016
1.2282272970389436,0.04403326231292388
1.2236587264538583,0.0419337182526801
1.2190901558687735,0.03992318340434064
1.2145215852836886,0.03799852097298603
1.2099530146986037,0.036156674412397775
1.2053844441135184,0.03439466689892967
1.2008158735284336,0.032709600537251554
1.1962473029433487,0.031098655355611602
1.1916787323582634,0.02955908814527955
1.1871101617731785,0.028088231194412318
1.1825415911880937,0.0266834909610199
1.1779730206030088,0.02534234672330628
1.1734044500179235,0.024062349238721803
1.1688358794328386,0.02284111943591335
1.1642673088477538,0.021676347156682912
1.159698738262669,0.020565789958334028
1.1551301676775836,0.019507271980618367
1.1505615970924987,0.018498682876083958
1.1459930265074139,0.017537976798091316
1.1414244559223286,0.0166231714372077
1.1368558853372437,0.015752347094125443
1.1322873147521588,0.014923645775687085
1.127718744167074,0.014135270299980289
1.1231501735819887,0.01338548339670143
1.1185816029969038,0.012672606789975822
1.114013032411819,0.011995020252421554
1.1094444618267336,0.011351160621321696
1.1048758912416488,0.010739520770163914
1.100307320656564,0.010158648531378609
1.095738750071479,0.009607145568715983
1.0911701794863937,0.009083666200218374
1.0866016089013089,0.008586916175060452
1.082033038316224,0.008115651409552154
1.0774644677311391,0.007668676689259102
1.0728958971460538,0.007244844345435427
1.068327326560969,0.0068430529147615595
1.063758755975884,0.00646224579171458
1.0591901853907988,0.006101409882789042
1.054621614805714,0.005759574271248715
1.050053044220629,0.005435808900174136
1.0454844736355442,0.005129223280334297
1.040915903050459,0.004838965227921466
1.0363473324653745,0.00456421963553245
1.0317787618802887,0.0043042072780428
1.0272101912952039,0.004058183653298476
1.022641620710119,0.0038254378559301875
1.0180730501250341,0.0036052914811743548
1.0135044795399493,0.003397097554431963
1.0089359089548644,0.0032002394814864272
1.0043673383697795,0.0030141300138769728
0.9997987677846938,0.0028382102239147603
0.9952301971996089,0.002671948484236712
0.9906616266145241,0.0025148394475928153
0.9860930560294392,0.0023664030237100686
0.9815244854443543,0.002226183351492968
0.9769559148592695,0.002093747766419116
0.9723873442741846,0.0019686857646596515
0.9678187736890989,0.001850607967088282
0.963250203104014,0.001739145087829327
0.9586816325189291,0.0016339469132352887
0.9541130619338443,0.0015346812980981353
0.9495444913487594,0.0014410331864252123
0.9449759207636745,0.0013527036642222781
0.9404073501785897,0.0012694090514178782
0.9358387795935039,0.0011908800393601955
0.9312702090084191,0.001116860879267656
0.9267016384233342,0.001047108625685091
0.9221330678382493,0.0009813924374703078
0.9175644972531645,0.0009194929371984397
0.9129959266680796,0.000861201628215877
0.9084273560829947,0.0008063203669873416
0.9038587854979099,0.0007546608869380161
0.8992902149128241,0.0007060443687640807
0.8947216443277393,0.0006603010512217932
0.8901530737426544,0.0006172698757429309
0.8855845031575695,0.0005767981578828711
0.8810159325724847,0.0005387412785878142
0.8764473619873998,0.0005029623885575436
0.871878791402315,0.00046933211955141655
0.8673102208172292,0.0004377282972991869
0.8627416502321443,0.0004080356516865145
0.8581730796470595,0.0003801455210327699
0.8536045090619746,0.00035395554850828185
0.8490359384768897,0.00032936936998959493
0.8444673678918049,0.00030629629386756565
0.83989879730672,0.0002846509744494084
0.8353302267216343,0.000264353081583285
0.8307616561365494,0.00024532696994056843
0.8261930855514645,0.0002275013519825359
0.8216245149663797,0.00021080897899106355
0.8170559443812948,0.0001951863346428453
0.8124873737962099,0.00018057334545225107
0.8079188032111251,0.00016691311200872953
0.8033502326260393,0.0001541516643126946
0.7987816620409545,0.00014223774370221285
0.7942130914558696,0.00013112261290454248
0.7896445208707847,0.00012075989469299095
0.7850759502856999,0.00011110543853695409
0.780507379700615,0.00010211721356092746
0.7759388091155301,9.375522513524492e-05
0.7713702385304444,8.598145156243941e-05
0.7668016679453595,7.875979664681436e-05
0.7622330973602747,7.205605347999447e-05
0.7576645267751898,6.583787456931738e-05
0.7530959561901049,6.00747434925034e-05
0.7485273856050201,5.4737943580299915e-05
0.7439588150199352,4.9800519692316644e-05
0.7393902444348504,4.5237229928749204e-05
0.7348216738497646,4.102448506688241e-05
0.7302531032646797,3.714027456923696e-05
0.7256845326795949,3.3564079114487455e-05
0.72111596209451,3.0276770683058908e-05
0.7165473915094251,2.7260502217125915e-05
0.7119788209243403,2.4498589705966602e-05
0.7074102503392554,2.197539016917746e-05
0.7028416797541697,1.9676179384289377e-05
0.6982731091690848,1.7587033312292702e-05
0.6937045385839999,1.56947170149193e-05
0.6891359679989151,1.3986584451507252e-05
0.6845673974138302,1.2450491928778978e-05
0.6799988268287454,1.107472720591764e-05
0.6754302562436605,9.847955390966405e-06
0.6708616856585747,8.75918186745437e-06
0.6662931150734899,7.797731624908733e-06
0.661724544488405,6.953243589216257e-06
0.6571559739033201,6.215677903475526e-06
0.6525874033182353,5.575333628416942e-06
0.6480188327331504,5.0228740306384255e-06
0.6434502621480656,4.549356509619908e-06
0.6388816915629798,4.146264270941076e-06
0.6343131209778949,3.805537063220866e-06
0.6297445503928101,3.5195986323967225e-06
0.6251759798077252,3.2813789768629923e-06
0.6206074092226403,3.084329976664103e-06
0.6160388386375555,2.922433485997175e-06
0.6114702680524706,2.790201489879332e-06
0.6069016974673849,2.6826684061406504e-06
0.6023331268823,2.5953760409804606e-06
0.5977645562972151,2.5243520635866933e-06
0.5931959857121303,2.466083141565852e-06
0.5886274151270454,2.4174840680710834e-06
0.5840588445419606,2.3758643120654004e-06
0.5794902739568757,2.3388934376128215e-06
0.5749217033717908,2.3045667722749512e-06
0.5703531327867051,2.271172567144952e-06
0.5657845622016202,2.237261692532846e-06
0.5612159916165353,2.201620666430976e-06
0.5566474210314505,2.163248531830269e-06
0.5520788504463656,2.121337799297767e-06
0.5475102798612808,2.0752593696636594e-06
0.5429417092761959,2.024551065632281e-06
0.5383731386911101,1.968909148157381e-06
0.5338045681060253,1.9081819902251815e-06
0.5292359975209404,1.8423649419884444e-06
0.5246674269358556,1.7715953583531223e-06
0.5200988563507707,1.6961467797565719e-06
0.5155302857656858,1.616421359691737e-06
0.510961715180601,1.5329398125319218e-06
0.5063931445955152,1.4463283995725911e-06
0.5018245740104303,1.3573027608851528e-06
0.4972560034253455,1.2666487116983783e-06
0.4926874328402606,1.1752004279631577e-06
0.48811886225517576,1.0838167196967865e-06
0.4835502916700909,9.933563083696272e-07
0.47898172108500603,9.046531668146773e-07
0.47441315049992006,8.184930348883075e-07
