5.038415164999822,5.490346414708626e-22
5.0338465944147375,6.483112553854941e-22
5.029278023829653,7.670597519993853e-22
5.024709453244568,9.089253475395894e-22
5.020140882659482,1.0779997382464134e-21
5.015572312074397,1.2788046605321008e-21
5.011003741489312,1.5162573836186843e-21
5.006435170904227,1.795616938767635e-21
5.0018666003191425,2.122410882657579e-21
4.997298029734058,2.5023436277209827e-21
4.992729459148973,2.9411888349809155e-21
4.988160888563887,3.444670034468009e-21
4.983592317978802,4.0183354932157614e-21
4.979023747393717,4.667435377278543e-21
4.9744551768086325,5.396811457343372e-21
4.969886606223548,6.210812026352065e-21
4.965318035638463,7.113247423561474e-21
4.960749465053378,8.10740475920145e-21
4.956180894468293,9.196144376209528e-21
4.951612323883207,1.03821056741514e-20
4.947043753298122,1.1668056732769223e-20
4.9424751827130375,1.3057431506235713e-20
4.937906612127953,1.4555111287983105e-20
4.933338041542868,1.616852508816045e-20
4.928769470957783,1.7909168366849578e-20
4.924200900372698,1.9794673600480055e-20
4.919632329787612,2.1851612453600466e-20
4.9150637592025275,2.4119271714647335e-20
4.910495188617443,2.6654728451828784e-20
4.905926618032358,2.9539660082332656e-20
4.901358047447273,3.288946972829342e-20
4.896789476862188,3.686549564995101e-20
4.892220906277103,4.169131715606177e-20
4.887652335692017,4.767448224710724e-20
4.8830837651069325,5.523538150461942e-20
4.878515194521848,6.494549924353264e-20
4.873946623936763,7.757791189424635e-20
4.869378053351678,9.41737052991069e-20
4.864809482766593,1.161289834056076e-19
4.860240912181508,1.4530838399782658e-19
4.8556723415964225,1.8419255398455552e-19
4.851103771011338,2.360689280230938e-19
4.846535200426253,3.052774712547458e-19
4.841966629841168,3.9752587322646397e-19
4.837398059256083,5.2029211313331e-19
4.832829488670998,6.833364695319339e-19
4.828260918085913,8.993500515762906e-19
4.8236923475008275,1.1847729344356136e-18
4.819123776915743,1.5608221618936128e-18
4.814555206330658,2.054778431868635e-18
4.809986635745573,2.7015904306189534e-18
4.805418065160488,3.545867783491635e-18
4.800849494575403,4.644347731663324e-18
4.796280923990318,6.0689372483205714e-18
4.791712353405233,7.910451735386835e-18
4.787143782820148,1.0283194095705546e-17
4.782575212235063,1.3330544302165109e-17
4.778006641649978,1.7231760078225046e-17
4.773438071064893,2.2210224507310103e-17
4.768869500479808,2.854341689798682e-17
4.764300929894723,3.657492970001046e-17
4.759732359309639,4.672890740429725e-17
4.755163788724553,5.952734394068444e-17
4.750595218139468,7.561074394925984e-17
4.746026647554383,9.576273135128983e-17
4.741458076969298,1.2093927686397373e-16
4.736889506384213,1.523033155466148e-16
4.7323209357991285,1.912656372728961e-16
4.727752365214044,2.395330584214669e-16
4.723183794628958,2.991650233854122e-16
4.718615224043873,3.7263994114235104e-16
4.714046653458788,4.629327366334651e-16
4.709478082873703,5.736052907229123e-16
4.704909512288618,7.089116578339602e-16
4.700340941703534,8.739201889116276e-16
4.695772371118449,1.0746549512322793e-15
4.691203800533363,1.3182591280320873e-15
4.686635229948278,1.6131834024176274e-15
4.682066659363193,1.9694026842301423e-15
4.677498088778108,2.398664928371862e-15
4.6729295181930235,2.9147762217541146e-15
4.668360947607939,3.533926786960803e-15
4.663792377022854,4.27506306773629e-15
4.659223806437769,5.1603116286525366e-15
4.654655235852683,6.215461223322726e-15
4.650086665267598,7.470510067262973e-15
4.645518094682513,8.960286098378736e-15
4.640949524097429,1.0725148825950605e-14
4.636380953512344,1.2811782264363755e-14
4.631812382927259,1.5274089427615767e-14
4.627243812342174,1.8174199932424942e-14
4.622675241757088,2.158360342970793e-14
4.618106671172003,2.558442286509558e-14
4.6135381005869185,3.027084296848714e-14
4.608969530001834,3.575071090046238e-14
4.604400959416749,4.2147327650553416e-14
4.599832388831664,4.9601450600310277e-14
4.595263818246579,5.827352964497657e-14
4.590695247661493,6.834620142424222e-14
4.586126677076408,8.002706855844e-14
4.581558106491324,9.355179333597571e-14
4.576989535906239,1.0918753806539625e-13
4.572420965321154,1.2723678730711857e-13
4.567852394736069,1.4804159045143387e-13
4.563283824150984,1.7198826662808548e-13
4.558715253565898,1.9951261773614253e-13
4.5541466829808135,2.31105699489513e-13
4.549578112395729,2.673202048028728e-13
4.545009541810644,3.087775186149558e-13
4.540440971225559,3.561755083831972e-13
4.535872400640474,4.1029712000785175e-13
4.531303830055389,4.720198548795438e-13
4.526735259470303,5.423262101177359e-13
4.5221666888852186,6.223151709066901e-13
4.517598118300134,7.132148511713186e-13
4.513029547715049,8.163963866997708e-13
4.508460977129964,9.333891932512263e-13
4.503892406544879,1.0658977112244762e-12
4.499323835959794,1.2158197681515573e-12
4.4947552653747085,1.3852667006697696e-12
4.490186694789624,1.5765853887699268e-12
4.485618124204539,1.7923823670811181e-12
4.481049553619454,2.03555019079774e-12
4.476480983034369,2.3092962476629944e-12
4.471912412449284,2.6171742222734563e-12
4.467343841864199,2.9631184349568985e-12
4.4627752712791136,3.3514812946997252e-12
4.458206700694029,3.787074124170738e-12
4.453638130108944,4.275211634927091e-12
4.449069559523859,4.821760352516721e-12
4.444500988938774,5.433191314557112e-12
4.439932418353689,6.1166373901067314e-12
4.435363847768604,6.879955595910836e-12
4.430795277183519,7.731794814551883e-12
4.426226706598434,8.681669351323709e-12
4.421658136013349,9.740038800946542e-12
4.417089565428264,1.091839473218889e-11
4.412520994843179,1.2229354738241128e-11
4.407952424258094,1.36867644434166e-11
4.403383853673009,1.5305808102593027e-11
4.398815283087925,1.710312847886813e-11
4.39424671250284,1.909695673729636e-11
4.389678141917754,2.1307253148399552e-11
4.385109571332669,2.3755859454469082e-11
4.380541000747584,2.6466663814588083e-11
4.375972430162499,2.9465779310807366e-11
4.3714038595774145,3.2781737068113086e-11
4.36683528899233,3.64456951147053e-11
4.362266718407245,4.049166418676084e-11
4.357698147822159,4.495675176330772e-11
4.353129577237074,4.9881425702195647e-11
4.348561006651989,5.530979893752294e-11
4.343992436066904,6.128993679239802e-11
4.33942386548182,6.787418855885681e-11
4.334855294896735,7.511954509931994e-11
4.33028672431165,8.308802433154449e-11
4.325718153726564,9.184708657200588e-11
4.321149583141479,1.0147008183148397e-10
4.316581012556394,1.1203673128197277e-10
4.3120124419713095,1.2363364524631468e-10
4.307443871386225,1.3635488020212246e-10
4.30287530080114,1.5030253744005693e-10
4.298306730216055,1.655874061743572e-10
4.293738159630969,1.8232965407137098e-10
4.289169589045884,2.0065956834064543e-10
4.284601018460799,2.207183507238973e-10
4.280032447875715,2.426589699206857e-10
4.27546387729063,2.6664707520740174e-10
4.270895306705545,2.9286197523918426e-10
4.26632673612046,3.214976862743823e-10
4.261758165535374,3.5276405432992906e-10
4.257189594950289,3.8688795606564596e-10
4.2526210243652045,4.241145835088423e-10
4.24805245378012,4.647088180700574e-10
4.243483883195035,5.089566996707552e-10
4.23891531260995,5.57166997207112e-10
4.234346742024865,6.096728870155937e-10
4.229778171439779,6.668337464898353e-10
4.225209600854694,7.290370705287515e-10
4.22064103026961,7.967005190775714e-10
4.216072459684525,8.702741046591352e-10
4.21150388909944,9.502425294871217e-10
4.206935318514355,1.0371276825061413e-09
4.20236674792927,1.1314913075180775e-09
4.197798177344184,1.2339378544282104e-09
4.1932296067590995,1.345117526576678e-09
4.188661036174015,1.4657295381072256e-09
4.18409246558893,1.5965255963593106e-09
4.179523895003845,1.7383136253466345e-09
4.17495532441876,1.8919617474950993e-09
4.170386753833675,2.058402541949024e-09
4.165818183248589,2.23863759890605e-09
4.161249612663505,2.4337423906013177e-09
4.15668104207842,2.6448714807217297e-09
4.152112471493335,2.8732640951838953e-09
4.14754390090825,3.1202500783513167e-09
4.142975330323165,3.3872562598897373e-09
4.13840675973808,3.6758132585595154e-09
4.1338381891529945,3.987562750312069e-09
4.12926961856791,4.324265229080536e-09
4.124701047982825,4.687808289613209e-09
4.12013247739774,5.080215462558438e-09
4.115563906812655,5.5036556327342966e-09
4.11099533622757,5.96045307204406e-09
4.106426765642485,6.4530981187651445e-09
4.1018581950574005,6.9842585348705e-09
4.097289624472315,7.556791572563178e-09
4.09272105388723,8.17375678025914e-09
4.088152483302145,8.838429576816469e-09
4.08358391271706,9.554315620896555e-09
4.079015342131975,1.0325166000068767e-08
4.07444677154689,1.1154993261814844e-08
4.0698782009618055,1.2048088306272057e-08
4.065309630376721,1.3009038158804475e-08
4.060741059791635,1.404274463985431e-08
4.05617248920655,1.5154443950659233e-08
4.051603918621465,1.6349727197022325e-08
4.04703534803638,1.7634561880093293e-08
4.0424667774512955,1.9015314393685627e-08
4.037898206866211,2.0498773582436697e-08
4.033329636281126,2.209217543427382e-08
4.02876106569604,2.380322900394535e-08
4.024192495110955,2.564014369110907e-08
4.01962392452587,2.7611658025448598e-08
4.015055353940785,2.972707014078925e-08
4.0104867833557005,3.199627014808986e-08
4.005918212770616,3.4429774641036406e-08
4.001349642185531,3.70387635852428e-08
3.9967810716004455,3.983511985042374e-08
3.99221250101536,4.283147164249719e-08
3.9876439304302753,4.604123807837894e-08
3.9830753598451905,4.947867812036265e-08
3.9785067892601056,5.315894305092218e-08
3.9739382186750207,5.709813262553596e-08
3.9693696480899354,6.13133549951828e-08
3.9648010775048506,6.582279044722527e-08
3.9602325069197652,7.064575898010493e-08
3.9556639363346804,7.580279171038433e-08
3.9510953657495955,8.131570611654953e-08
3.9465267951645107,8.720768515739804e-08
3.941958224579426,9.350336036643354e-08
3.9373896539943405,1.0022889911689516e-07
3.9328210834092556,1.0741209637073602e-07
3.9282525128241703,1.1508247136104969e-07
3.9236839422390855,1.2327136979944633e-07
3.9191153716540006,1.3201207233327377e-07
3.9145468010689157,1.4133991008589498e-07
3.909978230483831,1.5129238818025285e-07
3.9054096598987456,1.61909318156749e-07
3.9008410893136607,1.7323296014000008e-07
3.8962725187285754,1.8530817547962294e-07
3.8917039481434905,1.9818259038859967e-07
3.8871353775584057,2.119067708376959e-07
3.882566806973321,2.2653440865129484e-07
3.877998236388236,2.421225184115224e-07
3.873429665803151,2.5873164444057823e-07
3.8688610952180658,2.7642607682570127e-07
3.8642925246329805,2.952740752068802e-07
3.8597239540478956,3.1534809889121986e-07
3.8551553834628107,3.3672504181177905e-07
3.850586812877726,3.5948647092738165e-07
3.846018242292641,3.8371886687030794e-07
3.841449671707556,4.095138659889807e-07
3.836881101122471,4.3696850339342997e-07
3.832312530537386,4.6618545717592245e-07
3.8277439599523007,4.972732946263878e-07
3.823175389367216,5.303467219663203e-07
3.818606818782131,5.655268398584983e-07
3.814038248197046,6.029414076826675e-07
3.809469677611961,6.427251202689401e-07
3.804901107026876,6.850199014172917e-07
3.800332536441791,7.299752190683597e-07
3.7957639658567057,7.777484273892121e-07
3.791195395271621,8.285051412573273e-07
3.786626824686536,8.824196486247416e-07
3.782058254101451,9.39675365981776e-07
3.7774896835163663,1.0004653415814665e-06
3.772921112931281,1.0649928102092704e-06
3.768352542346196,1.1334718020838751e-06
3.763783971761111,1.206127806976249e-06
3.759215401176026,1.283198492889281e-06
3.754646830590941,1.3649344767400599e-06
3.750078260005856,1.4516001425568266e-06
3.7455096894207713,1.5434745009016187e-06
3.740941118835686,1.6408520817372329e-06
3.736372548250601,1.7440438519609657e-06
3.731803977665516,1.8533781485021394e-06
3.727235407080431,1.9692016183651308e-06
3.722666836495346,2.091880158379988e-06
3.7180982659102613,2.2217998497039486e-06
3.7135296953251764,2.3593678852220887e-06
3.7089611247400915,2.505013491748758e-06
3.7043925541550062,2.659188853077573e-06
3.699823983569921,2.8223700441402704e-06
3.695255412984836,2.9950579904518715e-06
3.690686842399751,3.1777794702752046e-06
3.6861182718146663,3.3710881792044892e-06
3.6815497012295815,3.575565877895388e-06
3.6769811306444966,3.7918236433123326e-06
3.6724125600594113,4.020503242111197e-06
3.6678439894743264,4.262278641746293e-06
3.663275418889241,4.5178576708356306e-06
3.6587068483041563,4.787983835584292e-06
3.6541382777190714,5.073438294075124e-06
3.6495697071339865,5.375041985421169e-06
3.6450011365489017,5.693657906557251e-06
3.6404325659638164,6.030193526170737e-06
3.6358639953787315,6.385603323182746e-06
3.631295424793646,6.7608914364101535e-06
3.6267268542085613,7.157114412548441e-06
3.6221582836234765,7.575384041276262e-06
3.6175897130383916,8.01687026883053e-06
3.6130211424533067,8.482804184505608e-06
3.6084525718682214,8.974481077795863e-06
3.6038840012831366,9.493263566943932e-06
3.5993154306980513,1.0040584802112455e-05
3.5947468601129664,1.0617951747986528e-05
3.5901782895278815,1.1226948551164866e-05
3.5856097189427967,1.1869239997164783e-05
3.581041148357712,1.2546575060369508e-05
3.5764725777726265,1.3260790548044977e-05
3.5719040071875416,1.4013814837054238e-05
3.5673354366024563,1.4807671699612837e-05
3.5627668660173715,1.564448421293391e-05
3.5581982954322866,1.652647874748904e-05
3.5536297248472017,1.7455989030359687e-05
3.549061154262117,1.843546028415081e-05
3.544492583677032,1.9467453448336383e-05
3.5399240130919467,2.0554649498589257e-05
3.535355442506862,2.1699853890232038e-05
3.5307868719217765,2.2906001163725174e-05
3.5262183013366917,2.417615976213438e-05
3.521649730751607,2.551353712167064e-05
3.517081160166522,2.6921485105418677e-05
3.512512589581437,2.8403505856096973e-05
3.5079440189963518,2.9963258145056032e-05
3.503375448411267,3.160456429096681e-05
3.4988068778261816,3.3331417712384955e-05
3.4942383072410967,3.514799116363596e-05
3.489669736656012,3.705864568380252e-05
3.485101166070927,3.906794026494238e-05
3.480532595485842,4.1180642219449504e-05
3.475964024900757,4.3401738199326814e-05
3.471395454315672,4.573644579395022e-05
3.4668268837305867,4.819022560955081e-05
3.462258313145502,5.0768793714911164e-05
3.457689742560417,5.347813432523488e-05
3.453121171975332,5.6324512590980503e-05
3.448552601390247,5.9314487361442105e-05
3.443984030805162,6.245492380427374e-05
3.439415460220077,6.575300578178044e-05
3.4348468896349917,6.921624791191178e-05
3.430278319049907,7.285250727534354e-05
3.425709748464822,7.666999476830428e-05
3.421141177879737,8.067728614207665e-05
3.4165726072946523,8.488333281242522e-05
3.4120040367095674,8.929747256352013e-05
3.407435466124482,9.392944030924814e-05
3.402866895539397,9.87893791082831e-05
3.398298324954312,0.00010388785165631187
3.393729754369227,0.00010923585249802669
3.389161183784142,0.00011484482121195953
3.3845926131990574,0.00012072665682230506
3.3800240426139725,0.00012689373368329884
3.375455472028887,0.000133358919063636
3.3708869014438023,0.00014013559263124318
3.366318330858717,0.00014723766800320127
3.361749760273632,0.00015467961648284328
3.3571811896885473,0.00016247649305725398
3.3526126191034624,0.00017064396467514426
3.3480440485183776,0.00017919834076911682
3.3434754779332923,0.0001881566059296478
3.3389069073482074,0.00019753645458277816
3.334338336763122,0.00020735632747185414
3.329769766178037,0.00021763544969784188
3.3252011955929524,0.0002283938700351386
3.3206326250078675,0.00023965250121226166
3.3160640544227826,0.0002514331608311543
3.3114954838376973,0.0002637586125962603
3.3069269132526125,0.00027665260753560625
3.302358342667527,0.00029013992492105584
3.2977897720824423,0.0003042464126326621
3.2932212014973574,0.0003189990267617693
3.2886526309122726,0.0003344258703067557
3.2840840603271877,0.0003505562308822363
3.2795154897421024,0.0003674206174341726
3.2749469191570175,0.00038505079602717176
3.270378348571932,0.000403479824843538
3.2658097779868474,0.00042274208860388994
3.2612412074017625,0.00044287333268428446
3.2566726368166776,0.0004639106972626321
3.2521040662315928,0.0004858927518764124
3.247535495646508,0.0005088595308126518
3.2429669250614226,0.0005328525697788131
3.2383983544763373,0.0005579149443184837
3.2338297838912524,0.0005840913104377995
3.2292612133061676,0.0006114279478965398
3.2246926427210827,0.0006399728065912911
3.220124072135998,0.0006697755564169034
3.215555501550913,0.0007008876409368256
3.2109869309658277,0.0007333623351235046
3.206418360380743,0.0007672548073484625
3.2018497897956575,0.0008026221857099711
3.1972812192105726,0.0008395236286872674
3.1927126486254878,0.0008780204000074681
3.188144078040403,0.0009181759475090502
3.183575507455318,0.0009600559856882334
3.1790069368702327,0.0010037285815266484
3.174438366285148,0.001049264243125407
3.1698697957000626,0.001096736010616231
3.1653012251149777,0.001146219548789296
3.160732654529893,0.001197793240873242
3.156164083944808,0.0012515382829282112
3.151595513359723,0.0013075387783692577
3.147026942774638,0.0013658818322253383
3.142458372189553,0.0014266576448569517
3.1378898016044676,0.0014899596050003984
3.1333212310193828,0.0015558843821730263
3.128752660434298,0.0016245320186561024
3.124184089849213,0.0016960060214597902
3.119615519264128,0.001770413454859774
3.115046948679043,0.0018478650342648405
3.110478378093958,0.0019284752223187
3.1059098075088727,0.002012362328245551
3.101341236923788,0.0020996486115076665
3.096772666338703,0.002190460390846575
3.092204095753618,0.002284928159720732
3.0876355251685332,0.0023831867090311574
3.0830669545834484,0.002485375257841575
3.078498383998363,0.0025916375925574774
3.0739298134132778,0.0027021222147367197
3.069361242828193,0.0028169824973746224
3.064792672243108,0.002936376849152861
3.060224101658023,0.003060468885780709
3.0556555310729383,0.0031894276072066945
3.0510869604878534,0.0033234275791563356
3.046518389902768,0.0034626491171768606
3.0419498193176833,0.003607278471158008
3.0373812487325984,0.003757508008166479
3.032812678147513,0.003913536391391203
3.0282441075624282,0.004075568753057559
3.0236755369773434,0.004243816859336161
3.019106966392258,0.004418499265543388
3.014538395807173,0.004599841460304474
3.0099698252220883,0.004788075997810632
3.0054012546370035,0.004983442617836007
3.000832684051918,0.0051861883537641235
2.9962641134668333,0.005396567629483477
2.9916955428817484,0.0056148423466190756
2.987126972296663,0.0058412819641407016
2.9825584017115783,0.006076163572902394
2.9779898311264934,0.006319771968092433
2.9734212605414085,0.006572399722885474
2.9688526899563232,0.006834347266770539
2.9642841193712384,0.00710592297206672
2.9597155487861535,0.007387443252027179
2.9551469782010686,0.007679232673672478
2.9505784076159833,0.007981624088095711
2.9460098370308985,0.008294958780460014
2.9414412664458136,0.00861958664128658
2.9368726958607283,0.008955866359935998
2.9323041252756434,0.009304165640448694
2.9277355546905586,0.009664861439169035
2.9231669841054737,0.010038340222858955
2.9185984135203884,0.010424998245351536
2.9140298429353035,0.010825241840223704
2.9094612723502187,0.011239487726506896
2.9048927017651334,0.011668163324114961
2.9003241311800485,0.012111707075462348
2.8957555605949636,0.012570568769666226
2.8911869900098788,0.013045209865764932
2.8866184194247935,0.013536103811528711
2.8820498488397086,0.014043736354662472
2.8774812782546237,0.014568605843484064
2.872912707669539,0.015111223514476054
2.8683441370844536,0.0156721137644396
2.8637755664993687,0.016251814405298957
2.859206995914284,0.016850876899907875
2.8546384253291985,0.017469866577483756
2.8500698547441137,0.01810936282754427
2.845501284159029,0.018769959271452905
2.840932713573944,0.01945226391089458
2.8363641429888586,0.02015689925283249
2.8317955724037738,0.020884502410738186
2.827227001818689,0.021635725182164046
2.8226584312336036,0.022411234103044856
2.8180898606485187,0.02321171047947491
2.813521290063434,0.02403785039810947
2.808952719478349,0.02489036471675892
2.8043841488932637,0.02576997903717824
2.799815578308179,0.02667743366245976
2.795247007723094,0.0276134835417894
2.790678437138009,0.02857889820559328
2.786109866552924,0.029574461694246212
2.781541295967839,0.030600972483507943
2.776972725382754,0.03165924340968156
2.7724041547976688,0.03275010159713138
2.767835584212584,0.033874388390253286
2.763267013627499,0.035032959291296
2.758698443042414,0.03622668390456222
2.754129872457329,0.037456445886582306
2.749561301872244,0.03872314290083484
2.744992731287159,0.04002768657460081
2.740424160702074,0.04137100245461101
2.735855590116989,0.042754029957372854
2.731287019531904,0.04417772230950132
2.7267184489468193,0.045643046473062464
2.722149878361734,0.04715098305096092
2.717581307776649,0.048702526167725385
2.713012737191564,0.05029868332173146
2.7084441666064794,0.051940475205883394
2.703875596021394,0.053628935495041316
2.699307025436309,0.055365110599953825
2.6947384548512243,0.05715005938906009
2.690169884266139,0.05898485288115224
2.685601313681054,0.06087057391346483
2.6810327430959693,0.06280831679115131
2.6764641725108844,0.06479918692523189
2.671895601925799,0.06684430046687267
2.6673270313407142,0.06894478394620263
2.6627584607556294,0.0711017739237439
2.6581898901705445,0.07331641666188753
2.653621319585459,0.07558986782272667
2.6490527490003744,0.07792329219692616
2.6444841784152895,0.08031786346627674
2.639915607830204,0.08277476400018445
2.6353470372451193,0.08529518468370409
2.6307784666600345,0.0878803247719463
2.6262098960749496,0.09053139176288856
2.6216413254898643,0.09324960127793953
2.6170727549047794,0.09603617693716819
2.6125041843196946,0.09889235021403121
2.6079356137346092,0.10181936025278793
2.6033670431495244,0.10481845363072011
2.5987984725644395,0.10789088404675806
2.5942299019793547,0.1110379119182249
2.5896613313942694,0.1142608038681377
2.5850927608091845,0.11756083208680779
2.5805241902240996,0.12093927355333192
2.5759556196390148,0.12439740910488084
2.5713870490539295,0.12793652234438518
2.5668184784688446,0.13155789838023768
2.5622499078837597,0.1352628223948333
2.5576813372986744,0.13905257804211132
2.5531127667135896,0.14292844567764593
2.5485441961285047,0.1468917004282066
2.54397562554342,0.1509436101109539
2.5394070549583345,0.1550854330156609
2.5348384843732497,0.15931841556630555
2.530269913788165,0.1636437898812714
2.5257013432030795,0.16806277125403568
2.5211327726179946,0.1725765555787085
2.5165642020329098,0.17718631674703134
2.511995631447825,0.1818932040454504
2.5074270608627396,0.18669833958260168
2.5028584902776547,0.1916028157788826
2.49828991969257,0.19660769295072728
2.493721349107485,0.20171399702254547
2.4891527785223997,0.2069227173990455
2.484584207937315,0.21223480502960895
2.48001563735223,0.21765117069448356
2.4754470667671447,0.2231726835396681
2.47087849618206,0.2288001698834569
2.466309925596975,0.2345344123125881
2.46174135501189,0.24037614907986737
2.4571727844268048,0.24632607380805044
2.45260421384172,0.25238483549677965
2.448035643256635,0.25855303882069613
2.4434670726715497,0.26483124469765673
2.438898502086465,0.27121997109666407
2.43432993150138,0.27771969404593283
2.429761360916295,0.2843308487927926
2.42519279033121,0.2910538310593594
2.420624219746125,0.2978889983312584
2.41605564916104,0.3048366711116823
2.4114870785759552,0.31189713406971403
2.40691850799087,0.3190706370106176
2.402349937405785,0.32635739559650534
2.3977813668207,0.333757591748656
2.393212796235615,0.34127137366748556
2.38864422565053,0.3488988554127494
2.384075655065445,0.35664011599449796
2.3795070844803603,0.36449519793439733
2.374938513895275,0.37246410526674834
2.37036994331019,0.380546800958538
2.3658013727251053,0.3887432037375785
2.36123280214002,0.39705318432698006
2.356664231554935,0.405476561092317
2.3520956609698502,0.41401309511490025
2.3475270903847654,0.42266248471005863
2.34295851979968,0.4314243594136476
2.338389949214595,0.440298273462822
2.3338213786295103,0.44928369879909247
2.3292528080444255,0.45838001762278624
2.32468423745934,0.4675865145290851
2.3201156668742553,0.47690236825705484
2.3155470962891704,0.4863266430852861
2.310978525704085,0.4958582799114387
2.3064099551190003,0.5054960870586919
2.3018413845339154,0.5152387308603651
2.2972728139488305,0.5250847260850383
2.2927042433637452,0.5350324262787363
2.2881356727786604,0.545080014117993
2.2835671021935755,0.5552254918878063
2.27899853160849,0.565466672220981
2.2744299610234053,0.5758011692598646
2.2698613904383205,0.586226390426507
2.2652928198532356,0.5967395290122469
2.2607242492681503,0.6073375578209159
2.2561556786830654,0.6180172241200591
2.2515871080979806,0.628775046169947
2.2470185375128957,0.6396073116093904
2.2424499669278104,0.6505100779786288
2.2378813963427255,0.6614791756514733
2.2333128257576407,0.6725102134303298
2.2287442551725554,0.6835985870272077
2.2241756845874705,0.6947394906113838
2.2196071140023856,0.7059279315490453
2.2150385434173008,0.7171587483927486
2.2104699728322155,0.7284266320992068
2.2059014022471306,0.7397261503643946
2.2013328316620457,0.7510517748665755
2.1967642610769604,0.7623979111033189
2.1921956904918756,0.773758930400637
2.1876271199067907,0.7851292035640081
2.183058549321706,0.7965031355366213
2.1784899787366205,0.8078752003329899
2.1739214081515357,0.819239975430971
2.169352837566451,0.8305921747361127
2.164784266981366,0.8419266791833787
2.1602156963962806,0.8532385640166726
2.1556471258111958,0.8645231217895101
2.151078555226111,0.8757758801633745
2.1465099846410256,0.886992613645576
2.1419414140559407,0.8981693485070309
2.137372843470856,0.9093023602515975
2.132804272885771,0.9203881631714596
2.1282357023006857,0.9314234917147819
2.123667131715601,0.9424052736085229
2.119098561130516,0.9533305949159895
2.1145299905454307,0.9641966574589872
2.109961419960346,0.9750007292910883
2.105392849375261,0.9857400891635237
2.100824278790176,0.9964119661692995
2.0962557082050908,1.0070134759757179
2.091687137620006,1.0175415552507423
2.087118567034921,1.0279928960461715
2.082549996449836,1.0383638820120165
2.077981425864751,1.0486505283750707
2.073412855279666,1.0588484276145387
2.068844284694581,1.0689527027059256
2.064275714109496,1.0789579696788592
2.059707143524411,1.0888583110461707
2.055138572939326,1.098647261413844
2.0505700023542413,1.1083178062789887
2.046001431769156,1.1178623946745518
2.041432861184071,1.1272729659338208
2.036864290598986,1.1365409904378612
2.0322957200139014,1.1456575237870001
2.027727149428816,1.154613273418442
2.023158578843731,1.163398676290955
2.0185900082586463,1.1720039858885656
2.014021437673561,1.1804193664736442
2.009452867088476,1.188634992257619
2.0048842965033913,1.1966411489665916
2.0003157259183064,1.2044283351676683
1.9957471553332211,1.2119873606956348
1.9911785847481362,1.2193094395816768
1.9866100141630514,1.2263862750345935
1.982041443577966,1.2332101342571373
1.9774728729928812,1.2397739111873969
1.9729043024077964,1.2460711756273761
1.9683357318227115,1.2520962076448854
1.9637671612376262,1.2578440165946423
1.9591985906525413,1.2633103445840048
1.9546300200674565,1.2684916546892013
1.9500614494823716,1.2733851046921978
1.9454928788972863,1.277988507538716
1.9409243083122014,1.2823002800989731
1.9363557377271166,1.2863193821303882
1.9317871671420312,1.29004524758531
1.9272185965569464,1.293477710569
1.9226500259718615,1.2966169283292563
1.9180814553867767,1.2994633036495793
1.9135128848016913,1.3020174089249728
1.9089443142166065,1.3042799140312569
1.9043757436315216,1.3062515198638915
1.8998071730464363,1.307932899134156
1.8952386024613515,1.3093246456825516
1.8906700318762666,1.3104272332174585
1.8861014612911817,1.3112409840267092
1.8815328907060964,1.3117660478565476
1.8769643201210116,1.3120023908203013
1.8723957495359267,1.3119497939005145
1.8678271789508418,1.3116078603533396
1.8632586083657565,1.310976031119769
1.8586900377806717,1.3100536071993147
1.8541214671955868,1.308839777848862
1.8495528966105015,1.3073336534311948
1.8449843260254166,1.3055343017492942
1.8404157554403318,1.3034407867574367
1.835847184855247,1.3010522086296592
1.8312786142701616,1.2983677442804478
1.8267100436850767,1.2953866875620412
1.8221414730999919,1.2921084884964191
1.8175729025149066,1.288532791029765
1.8130043319298217,1.28465946891436
1.8084357613447368,1.2804886594213776
1.803867190759652,1.2760207946642252
1.7992986201745667,1.2712566303632074
1.7947300495894818,1.266197271909672
1.790161479004397,1.2608441975925158
1.785592908419312,1.2551992788373125
1.7810243378342268,1.249264797282908
1.776455767249142,1.243043458489134
1.771887196664057,1.236538402039047
1.7673186260789717,1.229753207776377
1.7627500554938869,1.222691897910203
1.758181484908802,1.215358934728761
1.7536129143237171,1.2077592136969195
1.7490443437386318,1.1998980517684321
1.744475773153547,1.1917811708250359
1.739907202568462,1.1834146762574727
1.7353386319833768,1.1748050308252145
1.730770061398292,1.165959024066354
1.726201490813207,1.1568837376707126
1.7216329202281222,1.1475865073701872
1.717064349643037,1.138074882032885
1.712495779057952,1.1283565807647082
1.7079272084728672,1.1184394489159475
1.7033586378877823,1.1083314139561553
1.698790067302697,1.098040442212711
1.6942214967176121,1.0875744974648092
1.6896529261325273,1.0769415023435185
1.685084355547442,1.0661493034116196
1.680515784962357,1.0552056406858557
1.6759472143772722,1.0441181222244333
1.6713786437921874,1.0328942042389857
1.666810073207102,1.0215411770102802
1.6622415026220172,1.0100661566978684
1.6576729320369323,0.9984760829440308
1.653104361451847,0.9867777219890592
1.6485357908667622,0.9749776748459705
1.6439672202816773,0.963082389934301
1.6393986496965924,0.9510981794502861
1.6348300791115071,0.9390312386581839
1.6302615085264223,0.9268876672276941
1.6256929379413374,0.9146734917158668
1.6211243673562525,0.9023946882982954
1.6165557967711672,0.8900572048919981
1.6119872261860824,0.8776669818774318
1.6074186556009975,0.8652299707163017
1.6028500850159122,0.8527521498695034
1.5982815144308273,0.8402395375410261
1.5937129438457425,0.827698200903064
1.5891443732606576,0.8151342615897472
1.5845758026755723,0.802553897376878
1.5800072320904874,0.7899633400880077
1.5754386615054026,0.77736886987977
1.5708700909203173,0.764776806158169
1.5663015203352324,0.7521934954605743
1.5617329497501475,0.7396252967040962
1.5571643791650627,0.7270785642493417
1.5525958085799774,0.7145596292594513
1.5480272379948925,0.7020747798487718
1.5434586674098076,0.6896302405148077
1.5388900968247228,0.6772321513330516
1.5343215262396375,0.6648865473687197
1.5297529556545526,0.6525993387245569
1.5251843850694677,0.6403762916016615
1.5206158144843824,0.6282230107026567
1.5160472438992976,0.6161449232554302
1.5114786733142127,0.6041472648824896
1.5069101027291278,0.592235067487336
1.5023415321440425,0.5804131492760433
1.4977729615589577,0.5686861069807119
1.4932043909738728,0.5570583103020025
1.488635820388788,0.5455338985416003
1.4840672498037026,0.5341167793524074
1.4794986792186178,0.5228106294951517
1.474930108633533,0.5116188974553522
1.4703615380484476,0.5005448077444545
1.4657929674633627,0.4895913666840749
1.4612243968782779,0.4787613694526258
1.456655826293193,0.46805740815978303
1.4520872557081077,0.45748188070604834
1.4475186851230228,0.4470370001824524
1.442950114537938,0.4367248045689433
1.4383815439528527,0.42654716649916086
1.4338129733677678,0.4165058028736241
1.429244402782683,0.4066022841225775
1.424675832197598,0.3968380429430569
1.4201072616125128,0.3872143823615831
1.415538691027428,0.3777324830032967
1.410970120442343,0.36839340947956045
1.4064015498572582,0.3591981158380311
1.4018329792721729,0.3501474500510537
1.397264408687088,0.3412421575490507
1.3926958381020031,0.3324828838344999
1.3881272675169178,0.32387017623836517
1.383558696931833,0.315404484903748
1.3789901263467481,0.307086163100552
1.3744215557616632,0.29891546698970733
1.369852985176578,0.2908925549656411
1.365284414591493,0.283017486711262
1.3607158440064082,0.27529022210063825
1.356147273421323,0.2677106200813048
1.351578702836238,0.26027843766072517
1.3470101322511532,0.2529933291107661
1.3424415616660683,0.24585484549036024
1.337872991080983,0.23886243457062817
1.3333044204958981,0.2320154412293161
1.3287358499108133,0.22531310836302035
1.3241672793257284,0.21875457834719672
1.3195987087406431,0.21233889505584072
1.3150301381555582,0.20606500643567638
1.3104615675704734,0.1999317676141254
1.305892996985388,0.19393794450662627
1.3013244264003032,0.18808221787726687
1.2967558558152184,0.18236318779736402
1.2921872852301335,0.1767793784395648
1.2876187146450482,0.1713292431402513
1.2830501440599633,0.16601116966039553
1.2784815734748785,0.16082348557438508
1.2739130028897931,0.1557644637175573
1.2693444323047083,0.15083232762604565
1.2647758617196234,0.14602525690678356
1.2602072911345386,0.14134139248097513
1.2556387205494532,0.13677884165070683
1.2510701499643684,0.1323356829454345
1.2465015793792835,0.1280099707126108
1.2419330087941987,0.12379973942451589
1.2373644382091133,0.11970300768115372
1.2327958676240285,0.1157177818968229
1.2282272970389436,0.11184205966534425
1.2236587264538583,0.10807383280591357
1.2190901558687735,0.10441109009786782
1.2145215852836886,0.10085181971827498
1.2099530146986037,0.09739401140101331
1.2053844441135184,0.0940356583398305
1.2008158735284336,0.09077475886074383
1.1962473029433487,0.08760931789102493
1.1916787323582634,0.08453734825298657
1.1871101617731785,0.08155687181087948
1.1825415911880937,0.07866592049853831
1.1779730206030088,0.07586253725409156
1.1734044500179235,0.07314477688618919
1.1688358794328386,0.07051070689391421
1.1642673088477538,0.06795840825996903
1.159698738262669,0.06548597623396256
1.1551301676775836,0.06309152111974334
1.1505615970924987,0.06077316907783454
1.1459930265074139,0.058529062951147084
1.1414244559223286,0.05635736311933583
1.1368558853372437,0.05425624838440716
1.1322873147521588,0.052223916887516264
1.127718744167074,0.0502585870542843
1.1231501735819887,0.04835849856342965
1.1185816029969038,0.0465219133310584
1.114013032411819,0.04474711650060701
1.1094444618267336,0.04303241742623893
1.1048758912416488,0.04137615063549487
1.100307320656564,0.039776676755280564
1.095738750071479,0.038232383383922264
1.0911701794863937,0.036741685891121166
1.0866016089013089,0.035303028127293724
1.082033038316224,0.03391488302409033
1.0774644677311391,0.0325757530689219
1.0728958971460538,0.03128417063814725
1.068327326560969,0.030038698176222487
1.063758755975884,0.028837928211576866
1.0591901853907988,0.027680483204211886
1.054621614805714,0.02656501522492144
1.050053044220629,0.025490205471467922
1.0454844736355442,0.024454763632842037
1.040915903050459,0.023457427118657025
1.0363473324653745,0.022496960176552533
1.0317787618802887,0.02157215292593825
1.0272101912952039,0.020681820341245393
1.022641620710119,0.019824801221800047
1.0180730501250341,0.018999957188287033
1.0135044795399493,0.018206171747303712
1.0089359089548644,0.017442349465588067
1.0043673383697795,0.016707415294028072
0.9997987677846938,0.016000314078492044
0.9952301971996089,0.015320010289886998
0.9906616266145241,0.014665487999743904
0.9860930560294392,0.014035751120210955
0.9815244854443543,0.013429823918804047
0.9769559148592695,0.012846751808902577
0.9723873442741846,0.012285602407079967
0.9678187736890989,0.011745466838268595
0.963250203104014,0.011225461259836573
0.9586816325189291,0.010724728566261093
0.9541130619338443,0.010242440227589621
0.9495444913487594,0.0097777982076124
0.9449759207636745,0.009330036901945072
0.9404073501785897,0.00889842503228643
0.9358387795935039,0.00848226743117312
0.9312702090084191,0.008080906651725974
0.9267016384233342,0.007693724339217121
0.9221330678382493,0.0073201423057568694
0.9175644972531645,0.006959623255881108
0.9129959266680796,0.006611671119131019
0.9084273560829947,0.006275830955588787
0.9038587854979099,0.00595168841144622
0.8992902149128241,0.005638868713665622
0.8947216443277393,0.005337035205244777
0.8901530737426544,0.0050458874350984475
0.8855845031575695,0.004765158828707289
0.8810159325724847,0.0044946139770546244
0.8764473619873998,0.004234045591614172
0.871878791402315,0.0039832711819438255
0.8673102208172292,0.0037421295195232515
0.8627416502321443,0.0035104769566515464
0.8581730796470595,0.003288183672371287
0.8536045090619746,0.0030751299184604273
0.8490359384768897,0.0028712023375509826
0.8444673678918049,0.0026762904224884878
0.83989879730672,0.0024902831812875096
0.8353302267216343,0.00231306606567116
0.8307616561365494,0.002144518213454798
0.8261930855514645,0.001984510046223197
0.8216245149663797,0.0018329012541605484
0.8170559443812948,0.0016895391898295539
0.8124873737962099,0.00155425768247418
0.8079188032111251,0.0014268762743374131
0.8033502326260393,0.0013071998708228147
0.7987816620409545,0.0011950187873407518
0.7942130914558696,0.0010901091675869536
0.7896445208707847,0.0009922337409867625
0.7850759502856999,0.0009011428812399239
0.780507379700615,0.0008165759234167808
0.7759388091155301,0.0007382626939351987
0.7713702385304444,0.000665925205995805
0.7668016679453595,0.0005992794726349494
0.7622330973602747,0.0005380373903959092
0.7576645267751898,0.00048190864861244833
0.7530959561901049,0.0004306026223072884
0.7485273856050201,0.0003838302105745533
0.7439588150199352,0.0003413055868641078
0.7393902444348504,0.000302747832632802
0.7348216738497646,0.00026788243118479435
0.7302531032646797,0.00023644260400480533
0.7256845326795949,0.00020817047731730608
0.72111596209451,0.00018281807181906408
0.7165473915094251,0.00016014811338825504
0.7119788209243403,0.00013993466695210748
0.7074102503392554,0.00012196359950451873
0.7028416797541697,0.00010603288144360672
0.6982731091690848,9.195273791533164e-05
0.6937045385839999,7.95456637014953e-05
0.6891359679989151,6.864631640464869e-05
0.6845673974138302,5.910130330761191e-05
0.6799988268287454,5.0768877389525073e-05
0.6754302562436605,4.351855764369909e-05
0.6708616856585747,3.72306881520727e-05
0.6662931150734899,3.179594941461079e-05
0.661724544488405,2.711483429306952e-05
0.6571559739033201,2.3097099682775773e-05
0.6525874033182353,1.9661203737845466e-05
0.6480188327331504,1.6733737196997193e-05
0.6434502621480656,1.4248856128369246e-05
0.6388816915629798,1.2147722260335055e-05
0.6343131209778949,1.0377956008529497e-05
0.6297445503928101,8.893106355752719e-06
0.6251759798077252,7.652140893043864e-06
0.6206074092226403,6.618958584027683e-06
0.6160388386375555,5.7619271645824e-06
0.6114702680524706,5.053446528018351e-06
0.6069016974673849,4.469538963640785e-06
0.6023331268823,3.989466705059368e-06
0.5977645562972151,3.595376895517982e-06
0.5931959857121303,3.2719737830062596e-06
0.5886274151270454,3.00621771064617e-06
0.5840588445419606,2.7870502609603485e-06
0.5794902739568757,2.6051447395628293e-06
0.5749217033717908,2.4526810382830626e-06
0.5703531327867051,2.323143793752978e-06
0.5657845622016202,2.211142649558014e-06
0.5612159916165353,2.112253333500955e-06
0.5566474210314505,2.022878172941376e-06
0.5520788504463656,1.940124588874881e-06
0.5475102798612808,1.8617000338674137e-06
0.5429417092761959,1.7858217729626757e-06
0.5383731386911101,1.7111398552919702e-06
0.5338045681060253,1.6366715941902339e-06
0.5292359975209404,1.561745872979013e-06
0.5246674269358556,1.4859556298611398e-06
0.5200988563507707,1.409116954724795e-06
0.5155302857656858,1.3312333564094074e-06
0.510961715180601,1.2524639305695277e-06
0.5063931445955152,1.1730943705459622e-06
0.5018245740104303,1.0935100068225455e-06
0.4972560034253455,1.0141703208280764e-06
0.4926874328402606,9.355846392516486e-07
0.48811886225517576,8.582889576637671e-07
0.4835502916700909,7.828240497976955e-07
0.47898172108500603,7.097151767591097e-07
0.47441315049992006,6.394538085030781e-07
