5.038415164999822,6.88510539645191e-26
5.0338465944147375,8.32328773365653e-26
5.029278023829653,1.0072093499845194e-25
5.024709453244568,1.2192215880121481e-25
5.020140882659482,1.4752455664044717e-25
5.015572312074397,1.7829770305224927e-25
5.011003741489312,2.150908148905777e-25
5.006435170904227,2.588281631628037e-25
5.0018666003191425,3.1050170410084194e-25
4.997298029734058,3.711609880274487e-25
4.992729459148973,4.419006245484027e-25
4.988160888563887,5.238458470217531e-25
4.983592317978802,6.181370276515172e-25
4.979023747393717,7.259143470743713e-25
4.9744551768086325,8.48304221318954e-25
4.969886606223548,9.864095413405316e-25
4.965318035638463,1.1413063002338176e-24
4.960749465053378,1.3140497963047906e-24
4.956180894468293,1.505694348323796e-24
4.951612323883207,1.717331406905099e-24
4.947043753298122,1.9501521878494887e-24
4.9424751827130375,2.205542624428419e-24
4.937906612127953,2.485220723478221e-24
4.933338041542868,2.7914295703309598e-24
4.928769470957783,3.1272036030579246e-24
4.924200900372698,3.496731822334883e-24
4.919632329787612,3.905849917470108e-24
4.9150637592025275,4.362704651437003e-24
4.910495188617443,4.878649267868266e-24
4.905926618032358,5.469449461004783e-24
4.901358047447273,6.156907250795943e-24
4.896789476862188,6.971047052338581e-24
4.892220906277103,7.953057015047174e-24
4.887652335692017,9.159242735419203e-24
4.8830837651069325,1.0666334000096234e-23
4.878515194521848,1.2578593660406137e-23
4.873946623936763,1.5037317778348202e-23
4.869378053351678,1.8233496158220714e-23
4.864809482766593,2.242463263389052e-23
4.860240912181508,2.7957017812602805e-23
4.8556723415964225,3.5295119156209456e-23
4.851103771011338,4.506022370525131e-23
4.846535200426253,5.808106120668434e-23
4.841966629841168,7.545987898937972e-23
4.837398059256083,9.865837014983474e-23
4.832829488670998,1.2960901668642633e-22
4.828260918085913,1.7085885164168917e-22
4.8236923475008275,2.2575443266020562e-22
4.819123776915743,2.9867903047380843e-22
4.814555206330658,3.953557622880688e-22
4.809986635745573,5.23233753188932e-22
4.805418065160488,6.91978522003503e-22
4.800849494575403,9.140928211712696e-22
4.796280923990318,1.205700303522579e-21
4.791712353405233,1.5875318689367312e-21
4.787143782820148,2.0861636294291775e-21
4.782575212235063,2.7355664403767354e-21
4.778006641649978,3.579040253808954e-21
4.773438071064893,4.6716225991388755e-21
4.768869500479808,6.0830798067843185e-21
4.764300929894723,7.901612769598164e-21
4.759732359309639,1.0238436797719061e-20
4.755163788724553,1.3233428294936667e-20
4.750595218139468,1.7062070535979226e-20
4.746026647554383,2.1943977877967e-20
4.741458076969298,2.815333359867945e-20
4.736889506384213,3.603164272766353e-20
4.7323209357991285,4.600327946621699e-20
4.727752365214044,5.859440108899114e-20
4.723183794628958,7.445590889783986e-20
4.718615224043873,9.439126451832639e-20
4.714046653458788,1.1939011964530486e-19
4.709478082873703,1.5066889275665074e-19
4.704909512288618,1.89719631330759e-19
4.700340941703534,2.383687373037851e-19
4.695772371118449,2.988474121160286e-19
4.691203800533363,3.738760016861279e-19
4.686635229948278,4.667647978085155e-19
4.682066659363193,5.815342885223052e-19
4.677498088778108,7.23058354731205e-19
4.6729295181930235,8.972344937407574e-19
4.668360947607939,1.1111858237356007e-18
4.663792377022854,1.3735003993730139e-18
4.659223806437769,1.6945142621437832e-18
4.654655235852683,2.086645676380116e-18
4.650086665267598,2.564789181346402e-18
4.645518094682513,3.146779442708749e-18
4.640949524097429,3.8539364364987986e-18
4.636380953512344,4.711705272139949e-18
4.631812382927259,5.750405988198522e-18
4.627243812342174,7.00611096901646e-18
4.622675241757088,8.521670270181798e-18
4.618106671172003,1.0347908148418789e-17
4.6135381005869185,1.254501751457869e-17
4.608969530001834,1.518418292025794e-17
4.604400959416749,1.834946710874947e-17
4.599832388831664,2.2140001175956715e-17
4.595263818246579,2.6672524070629935e-17
4.590695247661493,3.208432359820611e-17
4.586126677076408,3.8536638370192293e-17
4.581558106491324,4.621858836309214e-17
4.576989535906239,5.53517110298753e-17
4.572420965321154,6.619519036778142e-17
4.567852394736069,7.905187812661532e-17
4.563283824150984,9.427521959409618e-17
4.558715253565898,1.122772112874318e-16
4.5541466829808135,1.3353753459859335e-16
4.549578112395729,1.5861402818938408e-16
4.545009541810644,1.8815468293629595e-16
4.540440971225559,2.229113667328931e-16
4.535872400640474,2.6375551274179345e-16
4.531303830055389,3.116960340502994e-16
4.526735259470303,3.6789976045447136e-16
4.5221666888852186,4.3371472964068395e-16
4.517598118300134,5.106967057537469e-16
4.513029547715049,6.006393436787026e-16
4.508460977129964,7.0560846780944925e-16
4.503892406544879,8.279809901691761e-16
4.499323835959794,9.704890550817125e-16
4.4947552653747085,1.1362700668264796e-15
4.490186694789624,1.328923333569803e-15
4.485618124204539,1.5525741461566986e-15
4.481049553619454,1.8119462049564613e-15
4.476480983034369,2.1124434128692175e-15
4.471912412449284,2.4602421689032478e-15
4.467343841864199,2.8623954256279457e-15
4.4627752712791136,3.3269499166231813e-15
4.458206700694029,3.8630781182468355e-15
4.453638130108944,4.481226685250092e-15
4.449069559523859,5.193283293756329e-15
4.444500988938774,6.012764039854564e-15
4.439932418353689,6.955023779679889e-15
4.435363847768604,8.037492059721551e-15
4.430795277183519,9.279937576785175e-15
4.426226706598434,1.0704764428340046e-14
4.421658136013349,1.2337343768965809e-14
4.417089565428264,1.4206384880561124e-14
4.412520994843179,1.6344350096502868e-14
4.407952424258094,1.878791849687921e-14
4.403383853673009,2.15785038174507e-14
4.398815283087925,2.4762832593584864e-14
4.39424671250284,2.8393589196870775e-14
4.389678141917754,3.2530135121603813e-14
4.385109571332669,3.7239310646354595e-14
4.380541000747584,4.259632783834251e-14
4.375972430162499,4.8685764791602864e-14
4.3714038595774145,5.5602672000869163e-14
4.36683528899233,6.345380287889776e-14
4.362266718407245,7.235898163356689e-14
4.357698147822159,8.245262304092654e-14
4.353129577237074,9.388542009059696e-14
4.348561006651989,1.0682621705045155e-13
4.343992436066904,1.2146408720892394e-13
4.33942386548182,1.3801063641738153e-13
4.334855294896735,1.5670255558415628e-13
4.33028672431165,1.7780444747983705e-13
4.325718153726564,2.0161195561505967e-13
4.321149583141479,2.2845522556337845e-13
4.316581012556394,2.58702731940454e-13
4.3120124419713095,2.9276550733535573e-13
4.307443871386225,3.311018128413869e-13
4.30287530080114,3.7422229347426967e-13
4.298306730216055,4.2269566571948345e-13
4.293738159630969,4.771549887444432e-13
4.289169589045884,5.383045754740904e-13
4.284601018460799,6.069276047926217e-13
4.280032447875715,6.838945016342503e-13
4.27546387729063,7.701721577025516e-13
4.270895306705545,8.668340720540806e-13
4.26632673612046,9.750714978477413e-13
4.261758165535374,1.0962056892521224e-12
4.257189594950289,1.2317013508812324e-12
4.2526210243652045,1.383181401265657e-12
4.24805245378012,1.5524431718380377e-12
4.243483883195035,1.7414761738083922e-12
4.23891531260995,1.9524815772202298e-12
4.234346742024865,2.1878935595181624e-12
4.229778171439779,2.4504026952351328e-12
4.225209600854694,2.7429815740414744e-12
4.22064103026961,3.068912851517956e-12
4.216072459684525,3.4318199557472717e-12
4.21150388909944,3.835700693304997e-12
4.206935318514355,4.2849640206011325e-12
4.20236674792927,4.784470270918902e-12
4.197798177344184,5.339575154052354e-12
4.1932296067590995,5.956177874292712e-12
4.188661036174015,6.640773743792599e-12
4.18409246558893,7.400511702170056e-12
4.179523895003845,8.243257189747604e-12
4.17495532441876,9.177660861178034e-12
4.170386753833675,1.0213233668539884e-11
4.165818183248589,1.1360428888435292e-11
4.161249612663505,1.2630731716357311e-11
4.15668104207842,1.403675710378716e-11
4.152112471493335,1.5592356569303623e-11
4.14754390090825,1.7312734774647297e-11
4.142975330323165,1.921457672033542e-11
4.13840675973808,2.1316186483240163e-11
4.1338381891529945,2.3637638490620514e-11
4.12926961856791,2.6200942401469026e-11
4.124701047982825,2.9030222746631407e-11
4.12013247739774,3.215191456373278e-11
4.115563906812655,3.5594976351194974e-11
4.11099533622757,3.939112175696943e-11
4.106426765642485,4.357507151145512e-11
4.1018581950574005,4.8184827209696234e-11
4.097289624472315,5.3261968644747264e-11
4.09272105388723,5.885197649166022e-11
4.088152483302145,6.500458223999393e-11
4.08358391271706,7.177414737280538e-11
4.079015342131975,7.922007389373557e-11
4.07444677154689,8.740724841405678e-11
4.0698782009618055,9.640652213321191e-11
4.065309630376721,1.0629522918577801e-10
4.060741059791635,1.171577459929268e-10
4.05617248920655,1.2908609445669068e-10
4.051603918621465,1.421805920809824e-10
4.04703534803638,1.5655055240445198e-10
4.0424667774512955,1.7231503949644492e-10
4.037898206866211,1.8960368070532432e-10
4.033329636281126,2.0855754236177868e-10
4.02876106569604,2.2933007372686271e-10
4.024192495110955,2.5208812512783433e-10
4.01962392452587,2.7701304693033616e-10
4.015055353940785,3.04301876732112e-10
4.0104867833557005,3.341686229054769e-10
4.005918212770616,3.668456533327673e-10
4.001349642185531,4.025851988408835e-10
3.9967810716004455,4.4166098142030605e-10
3.99221250101536,4.843699777914545e-10
3.9876439304302753,5.310343292503812e-10
3.9830753598451905,5.820034089971606e-10
3.9785067892601056,6.37656058355793e-10
3.9739382186750207,6.984030034880545e-10
3.9693696480899354,7.646894644620534e-10
3.9648010775048506,8.369979689537891e-10
3.9602325069197652,9.158513835435478e-10
3.9556639363346804,1.0018161766250997e-09
3.9510953657495955,1.0955059284719467e-09
3.9465267951645107,1.1975851060695741e-09
3.941958224579426,1.3087731229565632e-09
3.9373896539943405,1.429848707495508e-09
3.9328210834092556,1.5616546066302706e-09
3.9282525128241703,1.7051026561270154e-09
3.9236839422390855,1.8611792523273144e-09
3.9191153716540006,2.0309512643008922e-09
3.9145468010689157,2.215572428678624e-09
3.909978230483831,2.4162902720824577e-09
3.9054096598987456,2.6344536076843247e-09
3.9008410893136607,2.8715206528223963e-09
3.8962725187285754,3.1290678136779033e-09
3.8917039481434905,3.4087991807806936e-09
3.8871353775584057,3.7125567757153963e-09
3.882566806973321,4.042331585115651e-09
3.877998236388236,4.40027541326183e-09
3.873429665803151,4.788713579824578e-09
3.8688610952180658,5.210158485073947e-09
3.8642925246329805,5.667324061770305e-09
3.8597239540478956,6.163141131516995e-09
3.8551553834628107,6.700773684078993e-09
3.850586812877726,7.283636101466557e-09
3.846018242292641,7.91541135476448e-09
3.841449671707556,8.600070210962464e-09
3.836881101122471,9.341891499528631e-09
3.832312530537386,1.0145483504181182e-08
3.8277439599523007,1.1015806564190566e-08
3.823175389367216,1.1958196991411508e-08
3.818606818782131,1.2978392433839714e-08
3.814038248197046,1.4082558843357263e-08
3.809469677611961,1.527731923386505e-08
3.804901107026876,1.6569784445289094e-08
3.800332536441791,1.7967586157800216e-08
3.7957639658567057,1.9478912427468763e-08
3.791195395271621,2.1112546037622625e-08
3.786626824686536,2.287790597730722e-08
3.782058254101451,2.4785092367239525e-08
3.7774896835163663,2.6844935152463e-08
3.772921112931281,2.906904686787579e-08
3.768352542346196,3.1469879757051586e-08
3.763783971761111,3.406078748651531e-08
3.759215401176026,3.685609164849898e-08
3.754646830590941,3.987115318845287e-08
3.750078260005856,4.31224488340877e-08
3.7455096894207713,4.662765254688224e-08
3.740941118835686,5.0405721972248586e-08
3.736372548250601,5.4476989838796986e-08
3.731803977665516,5.886326025790415e-08
3.727235407080431,6.358790990818096e-08
3.722666836495346,6.86759941593866e-08
3.7180982659102613,7.415435829753962e-08
3.7135296953251764,8.005175415457663e-08
3.7089611247400915,8.639896261517008e-08
3.7043925541550062,9.322892265996053e-08
3.699823983569921,1.0057686779552764e-07
3.695255412984836,1.0848047090236253e-07
3.690686842399751,1.1697999868841528e-07
3.6861182718146663,1.2611847705459988e-07
3.6815497012295815,1.3594186875033925e-07
3.6769811306444966,1.464992647167309e-07
3.6724125600594113,1.5784309048236605e-07
3.6678439894743264,1.7002932889792517e-07
3.663275418889241,1.8311776038095753e-07
3.6587068483041563,1.9717222170600495e-07
3.6541382777190714,2.1226088423414622e-07
3.6495697071339865,2.2845655234660626e-07
3.6450011365489017,2.4583698274459294e-07
3.6404325659638164,2.644852252134698e-07
3.6358639953787315,2.8448998543060103e-07
3.631295424793646,3.0594601042430754e-07
3.6267268542085613,3.289544973617964e-07
3.6221582836234765,3.53623526448089e-07
3.6175897130383916,3.8006851884218364e-07
3.6130211424533067,4.0841272062631057e-07
3.6084525718682214,4.387877139829466e-07
3.6038840012831366,4.7133395682847517e-07
3.5993154306980513,5.062013522113083e-07
3.5947468601129664,5.43549848800366e-07
3.5901782895278815,5.83550073768804e-07
3.5856097189427967,6.263839993259629e-07
3.581041148357712,6.722456440846509e-07
3.5764725777726265,7.213418103943809e-07
3.5719040071875416,7.738928587537975e-07
3.5673354366024563,8.301335204700018e-07
3.5627668660173715,8.903137498920857e-07
3.5581982954322866,9.546996178416847e-07
3.5536297248472017,1.0235742483160998e-06
3.549061154262117,1.0972388011621542e-06
3.544492583677032,1.1760135042062535e-06
3.5399240130919467,1.260238739257229e-06
3.535355442506862,1.350276187433308e-06
3.5307868719217765,1.446510040345351e-06
3.5262183013366917,1.5493482847217851e-06
3.521649730751607,1.659224069005836e-06
3.517081160166522,1.7765971612040486e-06
3.512512589581437,1.9019555077373316e-06
3.5079440189963518,2.035816903169985e-06
3.503375448411267,2.1787307804195336e-06
3.4988068778261816,2.3312801303560627e-06
3.4942383072410967,2.494083558590402e-06
3.489669736656012,2.6677974857663977e-06
3.485101166070927,2.853118495882647e-06
3.480532595485842,3.0507858351767487e-06
3.475964024900757,3.2615840620319563e-06
3.471395454315672,3.486345846353521e-06
3.4668268837305867,3.7259549150582894e-06
3.462258313145502,3.9813491388711815e-06
3.457689742560417,4.253523754664679e-06
3.453121171975332,4.543534717226046e-06
3.448552601390247,4.85250217468545e-06
3.443984030805162,5.181614062942352e-06
3.439415460220077,5.532129816310117e-06
3.4348468896349917,5.905384194243602e-06
3.430278319049907,6.302791227360996e-06
3.425709748464822,6.7258482899313764e-06
3.421141177879737,7.176140310435912e-06
3.4165726072946523,7.655344136570391e-06
3.4120040367095674,8.165233075956246e-06
3.407435466124482,8.707681638665566e-06
3.402866895539397,9.28467051224773e-06
3.398298324954312,9.89829180406305e-06
3.393729754369227,1.0550754589200551e-05
3.389161183784142,1.1244390804915226e-05
3.3845926131990574,1.198166153422773e-05
3.3800240426139725,1.2765163721981055e-05
3.375455472028887,1.3597637366186178e-05
3.3708869014438023,1.4481973225880086e-05
3.366318330858717,1.5421221084000818e-05
3.361749760273632,1.64185985999992e-05
3.3571811896885473,1.747750078218979e-05
3.3526126191034624,1.8601510104314495e-05
3.3480440485183776,1.97944072846718e-05
3.3434754779332923,2.1060182739649904e-05
3.3389069073482074,2.2403048716870682e-05
3.334338336763122,2.3827452106681876e-05
3.329769766178037,2.5338087924707398e-05
3.3252011955929524,2.6939913452916552e-05
3.3206326250078675,2.8638163022450813e-05
3.3160640544227826,3.0438363418554855e-05
3.3114954838376973,3.234634988659896e-05
3.3069269132526125,3.43682827185307e-05
3.302358342667527,3.651066440126842e-05
3.2977897720824423,3.878035731255597e-05
3.2932212014973574,4.118460195563169e-05
3.2886526309122726,4.373103573155032e-05
3.2840840603271877,4.642771225701255e-05
3.2795154897421024,4.9283121245798946e-05
3.2749469191570175,5.2306208983118486e-05
3.270378348571932,5.550639943403534e-05
3.2658097779868474,5.8893616039249994e-05
3.2612412074017625,6.247830426358512e-05
3.2566726368166776,6.627145497409584e-05
3.2521040662315928,7.028462873551124e-05
3.247535495646508,7.452998112027039e-05
3.2429669250614226,7.902028913840765e-05
3.2383983544763373,8.376897889862729e-05
3.2338297838912524,8.879015461573865e-05
3.2292612133061676,9.409862908092768e-05
3.2246926427210827,9.970995570992235e-05
3.220124072135998,0.00010564046227981073
3.215555501550913,0.00011190728645809417
3.2109869309658277,0.00011852841321760468
3.206418360380743,0.00012552271421846086
3.2018497897956575,0.00013290998922370491
3.1972812192105726,0.0001407110095992183
3.1927126486254878,0.0001489475639317419
3.188144078040403,0.00015764250578212735
3.183575507455318,0.00016681980357531617
3.1790069368702327,0.00017650459261503242
3.174438366285148,0.0001867232292006622
3.1698697957000626,0.0001975033468174683
3.1653012251149777,0.00020887391436972617
3.160732654529893,0.00022086529643062085
3.156164083944808,0.00023350931549289208
3.151595513359723,0.00024683931622089355
3.147026942774638,0.00026089023172752807
3.142458372189553,0.0002756986519281814
3.1378898016044676,0.0002913028940574622
3.1333212310193828,0.0003077430754720218
3.128752660434298,0.00032506118890250515
3.124184089849213,0.0003433011803577597
3.119615519264128,0.0003625090299227329
3.115046948679043,0.0003827328357255316
3.110478378093958,0.00040402290137653415
3.1059098075088727,0.0004264318272008716
3.101341236923788,0.00045001460559277676
3.096772666338703,0.00047482872081474074
3.092204095753618,0.0005009342535445782
3.0876355251685332,0.0005283939904392516
3.0830669545834484,0.0005572735389354823
3.078498383998363,0.0005876414474451966
3.0739298134132778,0.000619569331030161
3.069361242828193,0.0006531320025578559
3.064792672243108,0.0006884076092525409
3.060224101658023,0.0007254777744657531
3.0556555310729383,0.0007644277444033605
3.0510869604878534,0.0008053465394663619
3.046518389902768,0.0008483271097942552
3.0419498193176833,0.0008934664945476744
3.0373812487325984,0.0009408659844351129
3.032812678147513,0.0009906312869800225
3.0282441075624282,0.0010428726940422991
3.0236755369773434,0.001097705251153596
3.019106966392258,0.001155248928298548
3.014538395807173,0.001215628791873863
3.0099698252220883,0.001278975177680635
3.0054012546370035,0.0013454238649484296
3.000832684051918,0.0014151162515480817
2.9962641134668333,0.0014881995307161413
2.9916955428817484,0.0015648268697817395
2.987126972296663,0.0016451575915477433
2.9825584017115783,0.0017293573591256432
2.9779898311264934,0.0018175983651503122
2.9734212605414085,0.0019100595263999054
2.9688526899563232,0.0020069266849129653
2.9642841193712384,0.00210839281672507
2.9597155487861535,0.002214658249338702
2.9551469782010686,0.002325930888991859
2.9505784076159833,0.0024424264587049626
2.9460098370308985,0.002564368747963499
2.9414412664458136,0.002691989874741801
2.9368726958607283,0.002825530560395088
2.9323041252756434,0.00296524041775124
2.9277355546905586,0.0031113782525267345
2.9231669841054737,0.003264212377980902
2.9185984135203884,0.003424020942516662
2.9140298429353035,0.003591092269740747
2.9094612723502187,0.0037657252103181554
2.9048927017651334,0.003948229504798206
2.9003241311800485,0.004138926156456724
2.8957555605949636,0.004338147813092658
2.8911869900098788,0.004546239156636566
2.8866184194247935,0.0047635572993743516
2.8820498488397086,0.00499047218555865
2.8774812782546237,0.005227366997172421
2.872912707669539,0.005474638562618852
2.8683441370844536,0.00573269776714091
2.8637755664993687,0.006001969963815808
2.859206995914284,0.00628289538402792
2.8546384253291985,0.006575929546392435
2.8500698547441137,0.006881543663186356
2.845501284159029,0.007200225043439409
2.840932713573944,0.007532477491947816
2.8363641429888586,0.00787882170359856
2.8317955724037738,0.008239795652530328
2.827227001818689,0.00861595497580879
2.8226584312336036,0.009007873351454213
2.8180898606485187,0.009416142870827229
2.813521290063434,0.009841374405544244
2.808952719478349,0.0102841979692526
2.8043841488932637,0.010745263074734869
2.799815578308179,0.011225239086927337
2.795247007723094,0.01172481557251237
2.790678437138009,0.012244702646773388
2.786109866552924,0.012785631318378649
2.781541295967839,0.01334835383267371
2.776972725382754,0.013933644013918674
2.7724041547976688,0.014542297606697797
2.767835584212584,0.01517513261647099
2.763267013627499,0.01583298964893068
2.758698443042414,0.01651673224748968
2.754129872457329,0.017227247227877898
2.749561301872244,0.017965445008481896
2.744992731287159,0.018732259934747347
2.740424160702074,0.019528650595702864
2.735855590116989,0.020355600130476072
2.731287019531904,0.021214116522583103
2.7267184489468193,0.022105232879784588
2.722149878361734,0.023030007697449326
2.717581307776649,0.02398952510361968
2.713012737191564,0.024984895084367804
2.7084441666064794,0.026017253688514045
2.703875596021394,0.027087763211364645
2.699307025436309,0.028197612357757185
2.6947384548512243,0.029348016385370452
2.690169884266139,0.030540217229892738
2.685601313681054,0.031775483614236814
2.6810327430959693,0.03305511114447585
2.6764641725108844,0.0343804223955182
2.671895601925799,0.03575276698971763
2.6673270313407142,0.037173521671569995
2.6627584607556294,0.03864409038139343
2.6581898901705445,0.0401659043303777
2.653621319585459,0.0417404220786512
2.6490527490003744,0.04336912961703287
2.6444841784152895,0.04505354045196239
2.639915607830204,0.04679519569173342
2.6353470372451193,0.048595664130671
2.6307784666600345,0.05045654232631894
2.6262098960749496,0.05237945466309799
2.6216413254898643,0.054366053394339246
2.6170727549047794,0.05641801865311884
2.6125041843196946,0.05853705842101268
2.6079356137346092,0.06072490844277452
2.6033670431495244,0.06298333207409462
2.5987984725644395,0.06531412004903954
2.5942299019793547,0.06771909015353494
2.5896613313942694,0.07020008679137058
2.5850927608091845,0.07275898042966462
2.5805241902240996,0.07539766691154277
2.5759556196390148,0.0781180666249472
2.5713870490539295,0.08092212351797182
2.5668184784688446,0.08381180395292254
2.5622499078837597,0.08678909539336578
2.5576813372986744,0.08985600492074411
2.5531127667135896,0.09301455757966369
2.5485441961285047,0.0962667945536715
2.54397562554342,0.09961477117614786
2.5394070549583345,0.10306055478389346
2.5348384843732497,0.10660622242392924
2.530269913788165,0.11025385842701288
2.5257013432030795,0.11400555186426674
2.5211327726179946,0.11786339390610319
2.5165642020329098,0.12182947510523955
2.511995631447825,0.12590588262792912
2.5074270608627396,0.13009469745955662
2.5028584902776547,0.13439799161231095
2.49828991969257,0.1388178253637351
2.493721349107485,0.14335624455540896
2.4891527785223997,0.1480152779808003
2.484584207937315,0.1527969348903269
2.48001563735223,0.15770320263986795
2.4754470667671447,0.16273604450625684
2.47087849618206,0.1678973976896995
2.466309925596975,0.17318917151862698
2.46174135501189,0.17861324586714486
2.4571727844268048,0.18417146978920615
2.45260421384172,0.18986566036689895
2.448035643256635,0.1956976017630453
2.4434670726715497,0.20166904446075276
2.438898502086465,0.20778170466491042
2.43432993150138,0.21403726383310973
2.429761360916295,0.2204373682962296
2.42519279033121,0.22698362892233157
2.420624219746125,0.23367762077167392
2.41605564916104,0.24052088268581165
2.4114870785759552,0.24751491675005433
2.40691850799087,0.25466118756614714
2.402349937405785,0.261961121270941
2.3977813668207,0.2694161042370828
2.393212796235615,0.2770274813933717
2.38864422565053,0.28479655410516896
2.384075655065445,0.2927245775591976
2.3795070844803603,0.30081275760184073
2.374938513895275,0.30906224698557866
2.37036994331019,0.31747414098426935
2.3658013727251053,0.32604947234433507
2.36123280214002,0.33478920554542047
2.356664231554935,0.3436942303506965
2.3520956609698502,0.3527653546334081
2.3475270903847654,0.36200329647273294
2.34295851979968,0.3714086755184252
2.338389949214595,0.3809820036302783
2.3338213786295103,0.3907236748053213
2.3292528080444255,0.4006339544131325
2.32468423745934,0.4107129677680904
2.3201156668742553,0.4209606880769787
2.3155470962891704,0.4313769238116304
2.310978525704085,0.44196130556940094
2.3064099551190003,0.4527132724995389
2.3018413845339154,0.46363205839110494
2.2972728139488305,0.47471667753801583
2.2927042433637452,0.48596591051889715
2.2881356727786604,0.4973782900535727
2.2835671021935755,0.5089520871235018
2.27899853160849,0.5206852975697993
2.2744299610234053,0.5325756294085946
2.2698613904383205,0.5446204911285923
2.2652928198532356,0.5568169812580364
2.2607242492681503,0.5691618795071651
2.2561556786830654,0.5816516398054796
2.2515871080979806,0.5942823855598499
2.2470185375128957,0.6070499074575679
2.2424499669278104,0.6199496641270018
2.2378813963427255,0.6329767859459124
2.2333128257576407,0.6461260822528835
2.2287442551725554,0.6593920521699642
2.2241756845874705,0.6727688991841854
2.2196071140023856,0.6862505495623498
2.2150385434173008,0.6998306745878088
2.2104699728322155,0.7135027165114363
2.2059014022471306,0.7272599180030538
2.2013328316620457,0.7410953547767751
2.1967642610769604,0.7550019709468748
2.1921956904918756,0.7689726165532187
2.1876271199067907,0.7830000865808556
2.183058549321706,0.7970771606911407
2.1784899787366205,0.811196642786113
2.1739214081515357,0.8253513994483488
2.169352837566451,0.8395343962392996
2.164784266981366,0.8537387308046606
2.1602156963962806,0.8679576617290984
2.1556471258111958,0.8821846321079783
2.151078555226111,0.8964132868626964
2.1465099846410256,0.9106374829203445
2.1419414140559407,0.9248512915077597
2.137372843470856,0.9390489919736149
2.132804272885771,0.9532250567476663
2.1282357023006857,0.9673741272700175
2.123667131715601,0.9814909809703332
2.119098561130516,0.9955704896411456
2.1145299905454307,1.0096075698234979
2.109961419960346,1.0235971260989374
2.105392849375261,1.0375339884502914
2.100824278790176,1.0514128451055238
2.0962557082050908,1.065228172504236
2.091687137620006,1.0789741642163693
2.087118567034921,1.0926446607880305
2.082549996449836,1.1062330825826308
2.077981425864751,1.1197323677203421
2.073412855279666,1.133134917190498
2.068844284694581,1.1464325491171656
2.064275714109496,1.1596164639976512
2.059707143524411,1.1726772225086093
2.055138572939326,1.185604737189357
2.0505700023542413,1.198388278973324
2.046001431769156,1.2110164991553987
2.041432861184071,1.2234774669660289
2.036864290598986,1.2357587224850417
2.0322957200139014,1.2478473441828601
2.027727149428816,1.2597300299393206
2.023158578843731,1.2713931899754425
2.0185900082586463,1.282823049755805
2.014021437673561,1.2940057605932151
2.009452867088476,1.3049275154247038
2.0048842965033913,1.3155746670396327
2.0003157259183064,1.325933845934429
1.9957471553332211,1.335992074949124
1.9911785847481362,1.3457368779108672
1.9866100141630514,1.355156379666961
1.982041443577966,1.3642393951306115
1.9774728729928812,1.3729755052786925
1.9729043024077964,1.381355118421525
1.9683357318227115,1.3893695154976193
1.9637671612376262,1.3970108786156152
1.9591985906525413,1.4042723025557642
1.9546300200674565,1.4111477894364874
1.9500614494823716,1.4176322272308945
1.9454928788972863,1.4237213532670192
1.9409243083122014,1.4294117042489345
1.9363557377271166,1.4347005546801899
1.9317871671420312,1.4395858458460766
1.9272185965569464,1.4440661077083614
1.9226500259718615,1.4481403761817915
1.9180814553867767,1.4518081082935053
1.9135128848016913,1.4550690976772376
1.9089443142166065,1.4579233927286916
1.9043757436315216,1.4603712195546177
1.8998071730464363,1.4624129115963815
1.8952386024613515,1.464048847511286
1.8906700318762666,1.4652793985645554
1.8861014612911817,1.4661048864364414
1.8815328907060964,1.4665255519951315
1.8769643201210116,1.466541535241112
1.8723957495359267,1.4661528663035315
1.8678271789508418,1.465359467074662
1.8632586083657565,1.4641611628120625
1.8586900377806717,1.4625577028261574
1.8541214671955868,1.460548789205931
1.8495528966105015,1.458134112418902
1.8449843260254166,1.4553133925516335
1.8404157554403318,1.4520864249305017
1.835847184855247,1.4484531288740883
1.8312786142701616,1.444413598372501
1.8267100436850767,1.439968153557767
1.8221414730999919,1.435117391916152
1.8175729025149066,1.4298622382911965
1.8130043319298217,1.4242039928283585
1.8084357613447368,1.4181443761135608
1.803867190759652,1.4116855708541167
1.7992986201745667,1.4048302595386835
1.7947300495894818,1.3975816575914575
1.790161479004397,1.3899435416046515
1.785592908419312,1.381920272293567
1.7810243378342268,1.3735168118722503
1.776455767249142,1.3647387355976381
1.771887196664057,1.3555922372795992
1.7673186260789717,1.3460841286064957
1.7627500554938869,1.3362218321941
1.758181484908802,1.3260133683319963
1.7536129143237171,1.3154673354781485
1.7490443437386318,1.304592884639159
1.744475773153547,1.2933996878709897
1.739907202568462,1.2818979012403027
1.7353386319833768,1.2700981226980939
1.730770061398292,1.258011345430868
1.726201490813207,1.2456489073656363
1.7216329202281222,1.2330224376096366
1.717064349643037,1.2201438006973706
1.712495779057952,1.2070250395926818
1.7079272084728672,1.19367831844671
1.7033586378877823,1.1801158661402005
1.698790067302697,1.1663499216378654
1.6942214967176121,1.1523926821514663
1.6896529261325273,1.138256255046613
1.685084355547442,1.123952614336953
1.680515784962357,1.1094935624905988
1.6759472143772722,1.0948906981308226
1.6713786437921874,1.0801553900509548
1.666810073207102,1.0652987577875035
1.6622415026220172,1.050331658811857
1.6576729320369323,1.035264682216181
1.653104361451847,1.020108148589717
1.6485357908667622,1.0048721156140954
1.6439672202816773,0.989566388756135
1.6393986496965924,0.9742005363092661
1.6348300791115071,0.9587839079338271
1.6302615085264223,0.9433256557755578
1.6256929379413374,0.9278347572019328
1.6211243673562525,0.9123200381882877
1.6165557967711672,0.8967901964092715
1.6119872261860824,0.881253823143945
1.6074186556009975,0.8657194231821035
1.6028500850159122,0.8501954320213716
1.5982815144308273,0.834690229764515
1.5937129438457425,0.8192121512598906
1.5891443732606576,0.8037694921694607
1.5845758026755723,0.7883705107932003
1.5800072320904874,0.7730234256213723
1.5754386615054026,0.7577364087220356
1.5708700909203173,0.7425175751964648
1.5663015203352324,0.727374969046319
1.5617329497501475,0.7123165458907447
1.5571643791650627,0.6973501530471542
1.5525958085799774,0.6824835075452239
1.5480272379948925,0.667724172679037
1.5434586674098076,0.6530795337179934
1.5388900968247228,0.6385567733938408
1.5343215262396375,0.6241628477605228
1.5297529556545526,0.6099044629875224
1.5251843850694677,0.5957880535979786
1.5206158144843824,0.5818197626029039
1.5160472438992976,0.568005423914402
1.5114786733142127,0.5543505473467318
1.5069101027291278,0.5408603064368053
1.5023415321440425,0.5275395292373382
1.4977729615589577,0.5143926921588393
1.4932043909738728,0.5014239168624283
1.488635820388788,0.48863697013620105
1.4840672498037026,0.47603526662432455
1.4794986792186178,0.4636218742219343
1.474930108633533,0.45139952190069177
1.4703615380484476,0.43937060969039005
1.4657929674633627,0.42753722051161486
1.4612243968782779,0.4159011335333457
1.456655826293193,0.40446383871750047
1.4520872557081077,0.39322655220944625
1.4475186851230228,0.3821902322390493
1.442950114537938,0.3713555952101196
1.4383815439528527,0.36072313167652037
1.4338129733677678,0.35029312192959405
1.429244402782683,0.3400656509531141
1.424675832197598,0.33004062253748506
1.4201072616125128,0.320217772383297
1.415538691027428,0.3105966800644919
1.410970120442343,0.3011767797621654
1.4064015498572582,0.29195736972037606
1.4018329792721729,0.28293762041425624
1.397264408687088,0.2741165814572678
1.3926958381020031,0.26549318730785265
1.3881272675169178,0.25706626186533466
1.383558696931833,0.2488345220700018
1.3789901263467481,0.24079658064261286
1.3744215557616632,0.23295094811365938
1.369852985176578,0.22529603430249634
1.365284414591493,0.21783014941089315
1.3607158440064082,0.21055150489480468
1.356147273421323,0.2034582142725393
1.351578702836238,0.1965482940173451
1.3470101322511532,0.18981966466836905
1.3424415616660683,0.183270152276606
1.337872991080983,0.17689749028246213
1.3333044204958981,0.1706993218998496
1.3287358499108133,0.16467320305893046
1.3241672793257284,0.15881660593668173
1.3195987087406431,0.15312692308202108
1.3150301381555582,0.14760147212104646
1.3104615675704734,0.1422375010086172
1.305892996985388,0.13703219377552558
1.3013244264003032,0.13198267670619845
1.2967558558152184,0.12708602487054146
1.2921872852301335,0.12233926892525604
1.2876187146450482,0.11773940209473402
1.2830501440599633,0.11328338723940146
1.2784815734748785,0.10896816391993162
1.2739130028897931,0.1047906553688942
1.2693444323047083,0.10074777528679407
1.2647758617196234,0.09683643438681039
1.2602072911345386,0.09305354662149282
1.2556387205494532,0.08939603503482009
1.2510701499643684,0.08586083719403512
1.2465015793792835,0.08244491016714812
1.2419330087941987,0.07914523502361764
1.2373644382091133,0.07595882084712408
1.2327958676240285,0.07288270826027833
1.2282272970389436,0.06991397247124251
1.2236587264538583,0.06704972586139002
1.2190901558687735,0.06428712014104256
1.2145215852836886,0.06162334810686314
1.2099530146986037,0.05905564503954176
1.2053844441135184,0.05658128978388355
1.2008158735284336,0.05419760555535201
1.1962473029433487,0.051901960517517734
1.1916787323582634,0.049691768173879686
1.1871101617731785,0.04756448761526687
1.1825415911880937,0.04551762366070515
1.1779730206030088,0.04354872692546579
1.1734044500179235,0.0416553938452088
1.1688358794328386,0.039835266679961304
1.1642673088477538,0.038086033516328166
1.159698738262669,0.03640542828106757
1.1551301676775836,0.03479123077413473
1.1505615970924987,0.033241266724696635
1.1459930265074139,0.03175340786954906
1.1414244559223286,0.030325572049946587
1.1368558853372437,0.028955723320107974
1.1322873147521588,0.027641872058637294
1.127718744167074,0.02638207507277772
1.1231501735819887,0.02517443568475488
1.1185816029969038,0.02401710378942368
1.114013032411819,0.022908275872914077
1.1094444618267336,0.02184619498290911
1.1048758912416488,0.020829150642471022
1.100307320656564,0.01985547870086946
1.095738750071479,0.01892356111657382
1.0911701794863937,0.018031825669339
1.0866016089013089,0.01717874560008591
1.082033038316224,0.016362839178964212
1.0774644677311391,0.015582669203547573
1.0728958971460538,0.014836842430483353
1.068327326560969,0.014124008945090014
1.063758755975884,0.013442861474321137
1.0591901853907988,0.012792134649204522
1.054621614805714,0.012170604223299469
1.050053044220629,0.01157708625391711
1.0454844736355442,0.011010436252831123
1.040915903050459,0.010469548312994714
1.0363473324653745,0.00995335421741299
1.0317787618802887,0.00946082253583144
1.0272101912952039,0.008990957714344147
1.022641620710119,0.008542799162426529
1.0180730501250341,0.008115420341324769
1.0135044795399493,0.007707927857200553
1.0089359089548644,0.0073194605619902086
1.0043673383697795,0.006949188664602732
0.9997987677846938,0.006596312854869914
0.9952301971996089,0.006260063442572731
0.9906616266145241,0.005939699513884202
0.9860930560294392,0.00563450810766707
0.9815244854443543,0.00534380341419664
0.9769559148592695,0.005066925999001875
0.9723873442741846,0.004803242054573747
0.9678187736890989,0.004552142682625022
0.963250203104014,0.0043130432093557375
0.9586816325189291,0.004085382535744829
0.9541130619338443,0.0038686225242383623
0.9495444913487594,0.003662247422332341
0.9449759207636745,0.003465763322482278
0.9404073501785897,0.0032786976565494065
0.9358387795935039,0.00310059872167524
0.9312702090084191,0.0029310352331336107
0.9267016384233342,0.0027695958984193096
0.9221330678382493,0.00261588900567896
0.9175644972531645,0.0024695420186445654
0.9129959266680796,0.0023302011695642095
0.9084273560829947,0.002197531041288848
0.9038587854979099,0.0020712141297058585
0.8992902149128241,0.0019509503781267729
0.8947216443277393,0.0018364566760357083
0.8901530737426544,0.001727466315764653
0.8855845031575695,0.0016237284021434991
0.8810159325724847,0.0015250072119191438
0.8764473619873998,0.001431081501683866
0.871878791402315,0.001341743765120079
0.8673102208172292,0.0012567994424756035
0.8627416502321443,0.0011760660872476123
0.8581730796470595,0.00109937249699353
0.8536045090619746,0.0010265578169300158
0.8490359384768897,0.0009574706264587118
0.8444673678918049,0.0008919680199163248
0.83989879730672,0.0008299146936426897
0.8353302267216343,0.0007711820518646544
0.8307616561365494,0.000715647343890357
0.8261930855514645,0.0006631928446959539
0.8216245149663797,0.0006137050901788027
0.8170559443812948,0.0005670741771724781
0.8124873737962099,0.0005231931368107157
0.8079188032111251,0.00048195738804000506
0.8033502326260393,0.0004432642760763461
0.7987816620409545,0.0004070126984511969
0.7942130914558696,0.00037310281907105956
0.7896445208707847,0.0003414358685049435
0.7850759502856999,0.00031191402659283096
0.780507379700615,0.00028444038151375804
0.7759388091155301,0.0002589189577335129
0.7713702385304444,0.00023525480382990282
0.7668016679453595,0.0002133541301163431
0.7622330973602747,0.0001931244852859182
0.7576645267751898,0.00017447496099659934
0.7530959561901049,0.00015731641341468157
0.7485273856050201,0.00014156169121254234
0.7439588150199352,0.00012712586034570062
0.7393902444348504,0.00011392641706504628
0.7348216738497646,0.00010188348199149031
0.7302531032646797,9.091996961990519e-05
0.7256845326795949,8.096172924767155e-05
0.72111596209451,7.193765495843516e-05
0.7165473915094251,6.37797638534284e-05
0.7119788209243403,5.6423243138107465e-05
0.7074102503392554,4.980646787928052e-05
0.7028416797541697,4.387099220174022e-05
0.6982731091690848,3.856151736640977e-05
0.6937045385839999,3.38258405567247e-05
0.6891359679989151,2.9614788308527333e-05
0.6845673974138302,2.5882138380466066e-05
0.6799988268287454,2.2584533520317327e-05
0.6754302562436605,1.9681390090541714e-05
0.6708616856585747,1.7134803931035396e-05
0.6662931150734899,1.4909455215071732e-05
0.661724544488405,1.2972513447380679e-05
0.6571559739033201,1.1293543204197452e-05
0.6525874033182353,9.844410755952995e-06
0.6480188327331504,8.599191364350554e-06
0.6434502621480656,7.534076815369105e-06
0.6388816915629798,6.627282636329348e-06
0.6343131209778949,5.858954438028413e-06
0.6297445503928101,5.21107290527809e-06
0.6251759798077252,4.667357110260028e-06
0.6206074092226403,4.213166020519242e-06
0.6160388386375555,3.835398295015801e-06
0.6114702680524706,3.5223906870147974e-06
0.6069016974673849,3.263815584107543e-06
0.6023331268823,3.0505783991300417e-06
0.5977645562972151,2.8747156706449615e-06
0.5931959857121303,2.729294831029411e-06
0.5886274151270454,2.6083166503612288e-06
0.5840588445419606,2.506621364326636e-06
0.5794902739568757,2.419799445650835e-06
0.5749217033717908,2.3441078842408144e-06
0.5703531327867051,2.2763927058841093e-06
0.5657845622016202,2.214018288690492e-06
0.5612159916165353,2.154803837309166e-06
0.5566474210314505,2.0969671552647236e-06
0.5520788504463656,2.0390756247566776e-06
0.5475102798612808,1.98000407152729e-06
0.5429417092761959,1.918898971735496e-06
0.5383731386911101,1.8551482609015685e-06
0.5338045681060253,1.7883558448595606e-06
0.5292359975209404,1.7183198014645943e-06
0.5246674269358556,1.6450132097451915e-06
0.5200988563507707,1.5685665571252783e-06
0.5155302857656858,1.489250757558589e-06
0.510961715180601,1.4074599607308752e-06
0.5063931445955152,1.3236935358441777e-06
0.5018245740104303,1.2385368582809028e-06
0.4972560034253455,1.1526407944683588e-06
0.4926874328402606,1.0667000474468765e-06
0.48811886225517576,9.814307701615021e-07
0.4835502916700909,8.975480541639976e-07
0.47898172108500603,8.157440409721449e-07
0.47441315049992006,7.36667470360948e-07
