5.47229996207426,9.667094331150899e-52
5.467230292480518,1.278012454511825e-51
5.462160622886775,1.6877423538884255e-51
5.457090953293033,2.226649272074212e-51
5.452021283699291,2.9350224155852845e-51
5.446951614105549,3.86563629378944e-51
5.441881944511806,5.087603606706067e-51
5.436812274918064,6.691412660142305e-51
5.431742605324322,8.795511963448298e-51
5.426672935730579,1.1554915188226796e-50
5.421603266136837,1.5172443715973584e-50
5.416533596543095,1.9913411702659265e-50
5.411463926949352,2.6124803105529274e-50
5.40639425735561,3.4260308572184575e-50
5.401324587761868,4.491300473923959e-50
5.396254918168126,5.885799824968378e-50
5.391185248574383,7.71080592518073e-50
5.386115578980641,1.0098618309756746e-49
5.381045909386899,1.322202077977661e-49
5.3759762397931565,1.7306616080149374e-49
5.3709065701994145,2.2646901864821463e-49
5.3658369006056725,2.962721755726484e-49
5.3607672310119305,3.8749031199533516e-49
5.355697561418188,5.0666476414963035e-49
5.350627891824446,6.623262241616648e-49
5.345558222230704,8.655970375417415e-49
5.340488552636961,1.1309750200241279e-48
5.335418883043219,1.477353245840296e-48
5.330349213449477,1.929346516857528e-48
5.325279543855734,2.5190163098302488e-48
5.320209874261992,3.2881133455271896e-48
5.31514020466825,4.290992377124764e-48
5.310070535074508,5.598399747584542e-48
5.305000865480765,7.302393810361161e-48
5.299931195887023,9.522735445292751e-48
5.294861526293281,1.241518580409616e-47
5.289791856699538,1.6182277772580746e-47
5.284722187105796,2.1087295077830388e-47
5.279652517512054,2.7472409657410056e-47
5.274582847918312,3.5782208256200826e-47
5.269513178324569,4.659420183308395e-47
5.264443508730827,6.065838026410537e-47
5.259373839137085,7.89484810180205e-47
5.254304169543342,1.0272842394425432e-46
5.2492344999496,1.3363837663147301e-46
5.244164830355858,1.7380622247550564e-46
5.2390951607621155,2.2599189237442556e-46
5.2340254911683735,2.937742013402918e-46
5.2289558215746315,3.817926456432215e-46
5.2238861519808895,4.960602477561689e-46
5.218816482387147,6.443682214826606e-46
5.213746812793405,8.368092722171518e-46
5.208677143199663,1.0864541385600567e-45
5.20360747360592,1.410226024899664e-45
5.198537804012178,1.830030517645112e-45
5.193468134418436,2.3742152533031154e-45
5.188398464824694,3.0794550851550255e-45
5.183328795230951,3.993186152973212e-45
5.178259125637209,5.176747865152688e-45
5.173189456043467,6.709437626166221e-45
5.168119786449724,8.693742101279266e-45
5.163050116855982,1.1262084649968515e-44
5.15798044726224,1.4585526086228737e-44
5.152910777668497,1.8884981305811037e-44
5.147841108074755,2.4445675469727444e-44
5.142771438481013,3.1635770497283587e-44
5.137701768887271,4.093035861022538e-44
5.132632099293528,5.294236125772936e-44
5.127562429699786,6.846231030749203e-44
5.122492760106044,8.850955128402795e-44
5.117423090512301,1.1439813072710356e-43
5.112353420918559,1.4782155631402995e-43
5.107283751324817,1.909618066877186e-43
5.102214081731075,2.4662949146925048e-43
5.097144412137332,3.1844401474939502e-43
5.09207474254359,4.110650977138689e-43
5.087005072949848,5.304902217278109e-43
5.0819354033561055,6.844366587229602e-43
5.0768657337623635,8.828320122375063e-43
5.0717960641686215,1.1384439207732313e-42
5.066726394574879,1.467688184975057e-42
5.061656724981137,1.8916655946106815e-42
5.056587055387395,2.437491818110912e-42
5.051517385793652,3.140002728493145e-42
5.04644771619991,4.043940561662092e-42
5.041378046606168,5.206755722389613e-42
5.036308377012426,6.702196636814588e-42
5.031238707418683,8.624908050397413e-42
5.026169037824941,1.1096319456823992e-41
5.021099368231199,1.4272183572280502e-41
5.016029698637456,1.8352224596510394e-41
5.010960029043714,2.3592483354509535e-41
5.005890359449972,3.0321108834730575e-41
5.00082068985623,3.895855273038699e-41
4.995751020262487,5.004338756043846e-41
4.990681350668745,6.426530532370726e-41
4.985611681075003,8.250728216385008e-41
4.98054201148126,1.0589944028315089e-40
4.975472341887518,1.3588783321635932e-40
4.970402672293776,1.743222650517188e-40
4.965333002700033,2.235683796794258e-40
4.960263333106291,2.8665068792669736e-40
4.955193663512549,3.674350213334789e-40
4.950123993918807,4.708612164199384e-40
4.945054324325064,6.03239775881146e-40
4.939984654731322,7.72629992211637e-40
4.93491498513758,9.893217690303277e-40
4.929845315543838,1.2664494072953126e-39
4.9247756459500955,1.6207732815530484e-39
4.9197059763563535,2.0736750508588226e-39
4.9146363067626115,2.6524243814158482e-39
4.909566637168869,3.3917908011709914e-39
4.904496967575127,4.336094143598881e-39
4.899427297981385,5.5418121856517766e-39
4.894357628387642,7.080895955782399e-39
4.8892879587939,9.04498356763353e-39
4.884218289200158,1.1550754579998435e-38
4.879148619606415,1.4746731644950435e-38
4.874078950012673,1.882191818450033e-38
4.869009280418931,2.401676457836543e-38
4.863939610825189,3.063708659041552e-38
4.858869941231446,3.9071725751128946e-38
4.853800271637704,4.981495128357421e-38
4.848730602043962,6.34948684323332e-38
4.843660932450219,8.090943325335691e-38
4.838591262856477,1.0307209735488347e-37
4.833521593262735,1.3126964081099088e-37
4.828451923668993,1.6713542655334164e-37
4.82338225407525,2.1274216156767348e-37
4.818312584481508,2.707193252323056e-37
4.813242914887766,3.4440178109244823e-37
4.808173245294023,4.380177981781947e-37
4.803103575700281,5.569268633487868e-37
4.798033906106539,7.079203823804083e-37
4.7929642365127965,8.996017895351602e-37
4.7878945669190545,1.1428668952675637e-36
4.7828248973253125,1.4515107283092594e-36
4.7777552277315705,1.842993958910729e-36
4.772685558137828,2.3394105851860386e-36
4.767615888544086,2.9687093769518196e-36
4.762546218950344,3.766235169094795e-36
4.757476549356601,4.776673191626942e-36
4.752406879762859,6.056501109286955e-36
4.747337210169117,7.677080439211974e-36
4.742267540575375,9.728552923416843e-36
4.737197870981632,1.2324750010458294e-35
4.73212820138789,1.560937704759213e-35
4.727058531794148,1.976380085474284e-35
4.721988862200405,2.5016853490647236e-35
4.716919192606663,3.165717054055386e-35
4.711849523012921,4.004871454510002e-35
4.706779853419178,5.065029999174252e-35
4.701710183825436,6.404014402797501e-35
4.696640514231694,8.094672725583255e-35
4.691570844637952,1.0228757477839537e-34
4.686501175044209,1.2921797551053925e-34
4.681431505450467,1.6319216813454058e-34
4.676361835856725,2.060401605555732e-34
4.671292166262982,2.6006414820279685e-34
4.66622249666924,3.281594948254867e-34
4.661152827075498,4.13966487164141e-34
4.656083157481756,5.220606338650505e-34
4.651013487888013,6.5819122628644e-34
4.645943818294271,8.295803103492126e-34
4.640874148700529,1.0452972537540359e-33
4.6358044791067865,1.3167278803624962e-33
4.6307348095130445,1.658161868261706e-33
4.6256651399193025,2.0875280000088576e-33
4.62059547032556,2.6273141987630528e-33
4.615525800731818,3.3057184379172085e-33
4.610456131138076,4.158088016111093e-33
4.605386461544334,5.22871889275625e-33
4.600316791950591,6.573104462699932e-33
4.595247122356849,8.260745158063113e-33
4.590177452763107,1.0378657650067153e-32
4.585107783169364,1.3035756485656103e-32
4.580038113575622,1.6368323347418197e-32
4.57496844398188,2.0546831772123647e-32
4.569898774388138,2.578446058339247e-32
4.564829104794395,3.2347710560287084e-32
4.559759435200653,4.0569639781076485e-32
4.554689765606911,5.08663583607877e-32
4.549620096013168,6.375757877195865e-32
4.544550426419426,7.989221081226449e-32
4.539480756825684,1.0008022947925285e-31
4.534411087231941,1.253323405572971e-31
4.529341417638199,1.5690933624180897e-31
4.524271748044457,1.9638348845508543e-31
4.519202078450714,2.4571489143693603e-31
4.514132408856972,3.0734636338855334e-31
4.50906273926323,3.843213810850629e-31
4.503993069669488,4.804305905273685e-31
4.498923400075745,6.00393759068185e-31
4.493853730482003,7.500856694264406e-31
4.488784060888261,9.368164768083707e-31
4.483714391294519,1.1696795471646474e-30
4.4786447217007765,1.4599828784920166e-30
4.4735750521070345,1.8217840147517135e-30
4.4685053825132925,2.2725530616887708e-30
4.46343571291955,2.833994212609094e-30
4.458366043325808,3.533063344651603e-30
4.453296373732066,4.403228065426946e-30
4.448226704138323,5.486027461099173e-30
4.443157034544581,6.833002193373543e-30
4.438087364950839,8.50808209613154e-30
4.433017695357096,1.0590538747434502e-29
4.427948025763354,1.3178635517499963e-29
4.422878356169612,1.6394138396615942e-29
4.41780868657587,2.0387888813065314e-29
4.412739016982127,2.5346686285296767e-29
4.407669347388385,3.1501786108442836e-29
4.402599677794643,3.913938779708886e-29
4.397530008200901,4.8613576688337815e-29
4.392460338607158,6.03622876177688e-29
4.387390669013416,7.49269904003281e-29
4.382320999419674,9.297695746038667e-29
4.377251329825931,1.1533917105557942e-28
4.372181660232189,1.4303516930075832e-28
4.367111990638447,1.7732642659212327e-28
4.362042321044704,2.197702272166665e-28
4.356972651450962,2.722884357344288e-28
4.35190298185722,3.372521122163616e-28
4.3468333122634775,4.175855866502042e-28
4.3417636426697355,5.168944216755335e-28
4.3366939730759935,6.396226890778435e-28
4.3316243034822515,7.912462031904408e-28
4.326554633888509,9.785098423873991e-28
4.321484964294767,1.2097189078437288e-27
4.316415294701025,1.4950966894801523e-27
4.311345625107283,1.847223121278914e-27
4.30627595551354,2.2815727201690947e-27
4.301206285919798,2.8171740461961862e-27
4.296136616326056,3.477417856993219e-27
4.291066946732313,4.291047151393764e-27
4.285997277138571,5.293369641767263e-27
4.280927607544829,6.527742149024995e-27
4.275857937951086,8.0473873258297e-27
4.270788268357344,9.917616403709453e-27
4.265718598763602,1.221854783939635e-26
4.260648929169859,1.5048431424508315e-26
4.255579259576117,1.8527711372979616e-26
4.250509589982375,2.2803991026192115e-26
4.245439920388633,2.805809722698802e-26
4.24037025079489,3.451148546024391e-26
4.235300581201148,4.243527917880492e-26
4.230230911607406,5.216130031896247e-26
4.225161242013664,6.409552526993804e-26
4.220091572419921,7.873449441227504e-26
4.215021902826179,9.668531729719448e-26
4.209952233232437,1.1869005383511283e-25
4.204882563638694,1.4565541957768767e-25
4.199812894044952,1.7868896640370056e-25
4.19474322445121,2.1914313594350255e-25
4.1896735548574675,2.686688806207379e-25
4.1846038852637255,3.2928090669534527e-25
4.1795342156699835,4.0343702767791316e-25
4.174464546076241,4.941346399982803e-25
4.169394876482499,6.050279639864343e-25
4.164325206888757,7.405704539840691e-25
4.159255537295014,9.061876983289312e-25
4.154185867701272,1.1084872353394094e-24
4.14911619810753,1.3555130445731346e-24
4.144046528513788,1.6570540813799084e-24
4.138976858920046,2.0250181653113374e-24
4.133907189326303,2.473884879937466e-24
4.128837519732561,3.0212539785990236e-24
4.123767850138819,3.688509220794962e-24
4.118698180545076,4.501621711257162e-24
4.113628510951334,5.492121826640311e-24
4.108558841357592,6.698274869839125e-24
4.103489171763849,8.166502898866544e-24
4.098419502170107,9.953103983882928e-24
4.093349832576365,1.2126330744753504e-23
4.088280162982622,1.4768902756850666e-23
4.08321049338888,1.7981042690429075e-23
4.078140823795138,2.1884144347206293e-23
4.073071154201395,2.66252026424208e-23
4.068001484607653,3.2382161722860684e-23
4.062931815013911,3.937036861112626e-23
4.057862145420169,4.7850356981710894e-23
4.052792475826427,5.813723005812122e-23
4.047722806232684,7.061196456464147e-23
4.042653136638942,8.573502085901101e-23
4.0375834670452,1.0406271986199426e-22
4.0325137974514575,1.262669376747536e-22
4.0274441278577156,1.5315877685486788e-22
4.0223744582639736,1.8571700286253062e-22
4.017304788670231,2.2512218960156104e-22
4.012235119076489,2.7279770456747212e-22
4.007165449482747,3.3045888821805605e-22
4.002095779889004,4.0017205134716466e-22
3.997026110295262,4.844252374067902e-22
3.99195644070152,5.862130844187557e-22
3.9868867711077773,7.09138585708866e-22
3.981817101514035,8.575351046508239e-22
3.976747431920293,1.0366126628130936e-21
3.971677762326551,1.2526333130601846e-21
3.9666080927328085,1.513121352257889e-21
3.961538423139066,1.827115249136809e-21
3.956468753545324,2.2054694930667553e-21
3.9513990839515816,2.6612161460182478e-21
3.946329414357839,3.2099977465638928e-21
3.941259744764097,3.870585423239704e-21
3.936190075170355,4.665498686608199e-21
3.9311204055766122,5.621746458499393e-21
3.9260507359828702,6.771712551039858e-21
3.9209810663891282,8.154213132283329e-21
3.915911396795386,9.81575883505091e-21
3.9108417272016434,1.1812060230751519e-20
3.9057720576079014,1.4209822578721133e-20
3.900702388014159,1.7088884285586582e-20
3.8956327184204165,2.0544763618715645e-20
3.8905630488266745,2.4691690208422133e-20
3.8854933792329325,2.9666212092867875e-20
3.88042370963919,3.563148591565297e-20
3.8753540400454476,4.278237785708572e-20
3.8702843704517056,5.135152652564499e-20
3.865214700857963,6.161654701053026e-20
3.8601450312642207,7.390858836446804e-20
3.8550753616704787,8.86224958426998e-20
3.8500056920767363,1.0622887531583869e-19
3.844936022482994,1.2728841162625791e-19
3.839866352889252,1.5246885670524586e-19
3.83479668329551,1.8256517869368658e-19
3.8297270137017674,2.1852345208583476e-19
3.824657344108025,2.6146917335876953e-19
3.819587674514283,3.1274080937512815e-19
3.8145180049205405,3.739295302397025e-19
3.809448335326798,4.469262479871424e-19
3.804378665733056,5.339772818571458e-19
3.799308996139314,6.377502051026865e-19
3.7942393265455716,7.614117032781296e-19
3.789169656951829,9.08719596785533e-19
3.784099987358087,1.0841315593192219e-18
3.7790303177643447,1.2929335083145097e-18
3.7739606481706023,1.541391164744857e-18
3.7688909785768603,1.836928890644269e-18
3.763821308983118,2.1883406287276083e-18
3.7587516393893754,2.6060386071065817e-18
3.7536819697956334,3.1023464539162374e-18
3.7486123002018914,3.691844515594411e-18
3.743542630608149,4.391776516418166e-18
3.7384729610144065,5.222528268040324e-18
3.7334032914206645,6.208190973775641e-18
3.728333621826922,7.377223816932721e-18
3.7232639522331796,8.763233026293334e-18
3.7181942826394376,1.0405887533795855e-17
3.7131246130456956,1.2351994747910296e-17
3.7080549434519527,1.4656763940376228e-17
3.7029852738582107,1.7385289375823187e-17
3.6979156042644687,2.0614290709843656e-17
3.6928459346707263,2.4434154464719993e-17
3.687776265076984,2.895132770615231e-17
3.682706595483242,3.429112355433377e-17
3.6776369258894994,4.0601008059880685e-17
3.672567256295757,4.8054449480625356e-17
3.667497586702015,5.685542436475116e-17
3.662427917108273,6.724369037438918e-17
3.6573582475145305,7.950095381252873e-17
3.652288577920788,9.39580807382765e-17
3.647218908327046,1.1100352482486609e-16
3.6421492387333037,1.3109317325449324e-16
3.637079569139561,1.5476184455684204e-16
3.632009899545819,1.8263671007856325e-16
3.626940229952077,2.1545295451823058e-16
3.6218705603583343,2.5407204159559013e-16
3.6168008907645923,2.995030095033473e-16
3.6117312211708503,3.5292728853112896e-16
3.606661551577108,4.1572761155225456e-16
3.6015918819833654,4.895216785312551e-16
3.5965222123896234,5.762013406867003e-16
3.591452542795881,6.779781905459994e-16
3.5863828732021386,7.974365832829259e-16
3.5813132036083966,9.375952752173668e-16
3.5762435340146546,1.1019790503673346e-15
3.571173864420912,1.294701919127758e-15
3.5661041948271697,1.5205637186887632e-15
3.5610345252334277,1.785162227481135e-15
3.5559648556396852,2.095023231218204e-15
3.550895186045943,2.457751352245081e-15
3.545825516452201,2.882204884053248e-15
3.540755846858459,3.378698367128714e-15
3.535686177264716,3.959237210090451e-15
3.530616507670974,4.6377893119677355e-15
3.525546838077232,5.430599389580161e-15
3.5204771684834895,6.356552572126478e-15
3.515407498889747,7.437594809003292e-15
3.510337829296005,8.699218764468527e-15
3.5052681597022626,1.0171025164431599e-14
3.50019849010852,1.1887371039585645e-14
3.495128820514778,1.3888118001675661e-14
3.490059150921036,1.6219495625876315e-14
3.4849894813272937,1.8935097226088298e-14
3.4799198117335512,2.2097027840092707e-14
3.4748501421398093,2.5777227131782268e-14
3.469780472546067,3.005899321785059e-14
3.4647108029523244,3.503873719273716e-14
3.4596411333585824,4.082800242220026e-14
3.45457146376484,4.7555787574916794e-14
3.449501794171098,5.5371217944887416e-14
3.4444321245773555,6.4446615977804e-14
3.439362454983613,7.498102915656398e-14
3.434292785389871,8.720428164327179e-14
3.4292231157961286,1.0138162545092608e-13
3.4241534462023866,1.178190775785581e-13
3.419083776608644,1.36869541659218e-13
3.414014107014902,1.5893982643282124e-13
3.4089444374211597,1.8449868898229705e-13
3.4038747678274173,2.1408604840526973e-13
3.3988050982336753,2.4832353570983905e-13
3.393735428639933,2.8792656853065583e-13
3.388665759046191,3.3371816510843754e-13
3.3835960894524484,3.866447412534993e-13
3.378526419858706,4.477941671607143e-13
3.373456750264964,5.184163984537922e-13
3.3683870806712215,5.999470382641751e-13
3.3633174110774795,6.940342351161352e-13
3.358247741483737,8.025693755919782e-13
3.3531780718899946,9.277220919698914e-13
3.3481084022962526,1.0719801741382448e-12
3.34303873270251,1.2381950530724017e-12
3.337969063108768,1.429633611109914e-12
3.3328993935150257,1.650037173404111e-12
3.3278297239212833,1.9036886466425417e-12
3.3227600543275413,2.195488896919218e-12
3.317690384733799,2.5310436002543816e-12
3.312620715140057,2.91676195857132e-12
3.3075510455463144,3.3599688530948417e-12
3.3024813759525724,3.869032208497754e-12
3.29741170635883,4.453507567337851e-12
3.2923420367650875,5.124302128332782e-12
3.2872723671713455,5.893860787095599e-12
3.282202697577603,6.7763770377328055e-12
3.277133027983861,7.78803195224216e-12
3.2720633583901186,8.947264856437174e-12
3.266993688796376,1.0275079771154487e-11
3.261924019202634,1.1795392191323672e-11
3.2568543496088918,1.3535421339229615e-11
3.2517846800151498,1.5526133658796322e-11
3.2467150104214073,1.780274402251969e-11
3.241645340827665,2.0405281910116917e-11
3.236575671233923,2.3379230697317107e-11
3.2315060016401804,2.6776249174695285e-11
3.2264363320464384,3.065498551136704e-11
3.221366662452696,3.5081995099224015e-11
3.216296992858954,4.01327750739404e-11
3.2112273232652115,4.589292982451292e-11
3.206157653671469,5.245948349029815e-11
3.201087984077727,5.994235732197598e-11
3.1960183144839847,6.846603187088239e-11
3.1909486448902427,7.817141629218938e-11
3.1858789752965,8.921794962615829e-11
3.1808093057027578,1.0178596178518683e-10
3.1757396361090158,1.1607932515257061e-10
3.1706699665152733,1.3232843122437344e-10
3.1656002969215313,1.5079353063459568e-10
3.160530627327789,1.7176847923534503e-10
3.1554609577340464,1.955849377010073e-10
3.1503912881403044,2.2261707743606727e-10
3.145321618546562,2.5328685144174354e-10
3.14025194895282,2.8806989529389393e-10
3.1351822793590776,3.2750213056565597e-10
3.130112609765335,3.721871509605415e-10
3.125042940171593,4.2280448017957313e-10
3.1199732705778507,4.801188002097974e-10
3.1149036009841087,5.449902593794811e-10
3.1098339313903662,6.183859812735507e-10
3.1047642617966242,7.013929085453098e-10
3.099694592202882,7.952321299120558e-10
3.0946249226091394,9.012748543052749e-10
3.0895552530153974,1.0210602133967726e-09
3.084485583421655,1.156315092685301e-09
3.079415913827913,1.308976212163383e-09
3.0743462442341705,1.481214700463746e-09
3.069276574640428,1.6754634314944185e-09
3.064206905046686,1.894447420115489e-09
3.0591372354529436,2.14121760360611e-09
3.0540675658592016,2.419188368755023e-09
3.048997896265459,2.7321792206399816e-09
3.0439282266717167,3.0844610288133885e-09
3.0388585570779747,3.4808073299883934e-09
3.0337888874842323,3.9265512137381426e-09
3.0287192178904903,4.42764836953256e-09
3.023649548296748,4.990746930016678e-09
3.018579878703006,5.623264807181043e-09
3.0135102091092634,6.3334752854302885e-09
3.008440539515521,7.130601708976193e-09
3.003370869921779,8.024922180980235e-09
2.9983012003280365,9.027885278973477e-09
2.9932315307342945,1.0152237885873464e-08
2.988161861140552,1.141216633901787e-08
2.9830921915468096,1.2823452211694288e-08
2.9780225219530676,1.4403644163391685e-08
2.972952852359325,1.617224742717106e-08
2.967883182765583,1.8150932645969004e-08
2.9628135131718407,2.0363765925180724e-08
2.9577438435780983,2.283746213741379e-08
2.9526741739843563,2.5601663697879612e-08
2.947604504390614,2.8689247226504666e-08
2.942534834796872,3.213666072663457e-08
2.9374651652031294,3.598429414135052e-08
2.932395495609387,4.027688639815139e-08
2.927325826015645,4.506397232244812e-08
2.9222561564219025,5.0400373091339385e-08
2.9171864868281605,5.634673421299881e-08
2.912116817234418,6.297011535531671e-08
2.907047147640676,7.034463671179081e-08
2.9019774780469336,7.855218698493368e-08
2.896907808453191,8.768319848938184e-08
2.891838138859449,9.78374953305579e-08
2.8867684692657067,1.0912522110208477e-07
2.8816987996719647,1.216678530684294e-07
2.8766291300782223,1.355993103607486e-07
2.87155946048448,1.5106716431590996e-07
2.866489790890738,1.68233959733835e-07
2.8614201212969954,1.8727865651911837e-07
2.8563504517032534,2.0839820191213495e-07
2.851280782109511,2.3180924430548682e-07
2.8462111125157685,2.5775000048641946e-07
2.8411414429220265,2.8648228904817415e-07
2.836071773328284,3.182937436760796e-07
2.831002103734542,3.535002210409958e-07
2.8259324341407996,3.9244841912712597e-07
2.8208627645470576,4.355187229863895e-07
2.815793094953315,4.831282961518249e-07
2.8107234253595728,5.357344372609886e-07
2.8056537557658308,5.938382228417536e-07
2.8005840861720883,6.579884587006078e-07
2.7955144165783463,7.287859639322072e-07
2.790444746984604,8.068882132427231e-07
2.7853750773908614,8.930143650523428e-07
2.7803054077971194,9.879507047195213e-07
2.775235738203377,1.0925565342146009e-06
2.770166068609635,1.2077705416687461e-06
2.7650963990158925,1.3346176864401686e-06
2.76002672942215,1.4742166376773698e-06
2.754957059828408,1.627787806824711e-06
2.7498873902346657,1.7966620171121468e-06
2.7448177206409237,1.9822898558041187e-06
2.739748051047181,2.1862517578575505e-06
2.734678381453439,2.4102688726580614e-06
2.729608711859697,2.656214768674835e-06
2.7245390422659543,2.926128034199212e-06
2.7194693726722123,3.222225835816084e-06
2.71439970307847,3.5469184999059498e-06
2.709330033484728,3.902825186288506e-06
2.7042603638909855,4.292790727106838e-06
2.699190694297243,4.719903708209973e-06
2.694121024703501,5.187515874631707e-06
2.6890513551097586,5.699262946282777e-06
2.6839816855160166,6.259086934675603e-06
2.678912015922274,6.8712600563916415e-06
2.6738423463285317,7.5404103440749e-06
2.6687726767347897,8.271549061002646e-06
2.6637030071410472,9.070100030736811e-06
2.6586333375473052,9.941930999002797e-06
2.653563667953563,1.0893387150777302e-05
2.6484939983598204,1.1931326911582833e-05
2.6434243287660784,1.3063160168195732e-05
2.638354659172336,1.4296889050360278e-05
2.633284989578594,1.564115142166728e-05
2.6282153199848515,1.7105267234499845e-05
2.6231456503911095,1.869928791085178e-05
2.618075980797367,2.04340489179007e-05
2.6130063112036246,2.2321225714433308e-05
2.6079366416098826,2.4373393251593133e-05
2.60286697201614,2.6604089218915857e-05
2.597797302422398,2.9027881234235142e-05
2.5927276328286557,3.16604381837757e-05
2.5876579632349133,3.451860592655563e-05
2.5825882936411713,3.762048758512182e-05
2.577518624047429,4.098552865258309e-05
2.572448954453687,4.463460715388242e-05
2.5673792848599444,4.8590129107250783e-05
2.562309615266202,5.287612953974685e-05
2.55723994567246,5.751837931873567e-05
2.5521702760787175,6.254449806901407e-05
2.5471006064849755,6.798407345304353e-05
2.542030936891233,7.386878709939135e-05
2.5369612672974906,8.023254747188965e-05
2.5318915977037486,8.711162997928368e-05
2.526821928110006,9.454482463207428e-05
2.521752258516264,0.00010257359155992307
2.5166825889225217,0.00011124222470930553
2.5116129193287797,0.00012059802404694411
2.5065432497350373,0.00013069147660003128
2.501473580141295,0.00014157644666908494
2.496403910547553,0.00015331037555365245
2.4913342409538104,0.00016595449113468617
2.4862645713600684,0.00017957402766036892
2.481194901766326,0.00019423845608432732
2.4761252321725835,0.00021002172530639276
2.4710555625788415,0.00022700251466647078
2.465985892985099,0.000245264498041333
2.460916223391357,0.00026489661989234625
2.4558465537976146,0.00028599338360921786
2.450776884203872,0.00030865515249049486
2.44570721461013,0.0003329884636959967
2.4406375450163877,0.0003591063554992728
2.4355678754226457,0.00038712870815951506
2.4304982058289033,0.0004171825987222737
2.4254285362351613,0.0004494026700462171
2.420358866641419,0.00048393151433966027
2.4152891970476764,0.0005209200714748598
2.4102195274539344,0.0005605280423306955
2.405149857860192,0.0006029243173947933
2.40008018826645,0.0006482874208345508
2.3950105186727075,0.0006968059702229664
2.389940849078965,0.0007486791520790953
2.384871179485223,0.0008041172133551249
2.3798015098914806,0.0008633419689716025
2.3747318402977386,0.0009265873254697822
2.369662170703996,0.0009940998208154109
2.3645925011102538,0.0010661391803509182
2.3595228315165118,0.0011429788888539503
2.3544531619227693,0.00122490677861851
2.3493834923290273,0.0013122256334312363
2.344313822735285,0.0014052538082698555
2.3392441531415424,0.0015043258645026682
2.3341744835478004,0.0016097932203185548
2.329104813954058,0.0017220248160651865
2.324035144360316,0.0018414077941197992
2.3189654747665736,0.0019683481928622045
2.3138958051728316,0.00210327165426289
2.308826135579089,0.0022466241445417054
2.3037564659853467,0.002398872687293098
2.2986867963916047,0.0025605061084143055
2.2936171267978622,0.002732035792111226
2.2885474572041202,0.0029139964471949125
2.283477787610378,0.003106946882819281
2.2784081180166353,0.003311470792746286
2.2733384484228933,0.003528177547161803
2.268268778829151,0.0037577029910003594
2.263199109235409,0.004000710247671526
2.2581294396416665,0.004257890527016025
2.253059770047924,0.00452996393625218
2.247990100454182,0.004817680292607648
2.2429204308604396,0.005121819936262762
2.2378507612666976,0.005443194542163378
2.232781091672955,0.005782647929191622
2.2277114220792127,0.006141056865111148
2.2226417524854707,0.006519331865630603
2.2175720828917282,0.0069184179858543275
2.2125024132979862,0.0073392956023107195
2.207432743704244,0.007782981183670101
2.202363074110502,0.00825052804817789
2.1972934045167594,0.008743027105744374
2.192223734923017,0.009261607582538287
2.187154065329275,0.00980743772583757
2.1820843957355325,0.01038172548678913
2.1770147261417905,0.010985719178622287
2.171945056548048,0.011620708107751863
2.1668753869543056,0.012288023175085695
2.1618057173605636,0.012989037444732126
2.156736047766821,0.013725166677171809
2.151666378173079,0.014497869823823862
2.1465967085793367,0.015308649479799067
2.1415270389855943,0.016159052291485378
2.1364573693918523,0.017050669315466876
2.13138769979811,0.01798513632512459
2.126318030204368,0.018964134061115835
2.1212483606106254,0.019989388421780815
2.1161786910168834,0.021062670589371422
2.111109021423141,0.022185797087859567
2.1060393518293985,0.0233606297679389
2.1009696822356565,0.02458907571471499
2.095900012641914,0.025873087073460553
2.090830343048172,0.027214660788718842
2.0857606734544296,0.028615838251965956
2.080691003860687,0.03007870485298719
2.075621334266945,0.03160538943010493
2.0705516646732027,0.03319806361440497
2.0654819950794607,0.034858941063149775
2.0604123254857183,0.03659027657766196
2.055342655891976,0.03839436510107729
2.050272986298234,0.04027354059155331
2.0452033167044914,0.04223017476673018
2.0401336471107494,0.04426667571551674
2.035063977517007,0.04638548637359834
2.0299943079232645,0.04858908285942487
2.0249246383295225,0.05087997266787089
2.01985496873578,0.0532606927192201
2.014785299142038,0.05573380726163954
2.0097156295482956,0.05830190562587428
2.0046459599545536,0.0609675998314717
1.9995762903608112,0.06373352204448288
1.9945066207670687,0.06660232188722214
1.9894369511733268,0.06957666360135106
1.9843672815795843,0.07265922306621546
1.9792976119858423,0.07585268467505446
1.9742279423920999,0.07915973807237349
1.9691582727983574,0.08258307475643402
1.9640886032046154,0.08612538455145057
1.959018933610873,0.08978935195469685
1.953949264017131,0.09357765236427881
1.9488795944233885,0.09749294819386628
1.943809924829646,0.1015378848811193
1.938740255235904,0.10571508679696215
1.9336705856421617,0.11002715306317278
1.9286009160484197,0.11447665328600905
1.9235312464546772,0.11906612321377637
1.9184615768609352,0.12379806032630336
1.9133919072671928,0.12867491936430908
1.9083222376734503,0.1336991078065272
1.9032525680797083,0.1388729813022784
1.8981828984859659,0.1441988390668876
1.8931132288922239,0.14967891924697452
1.8880435592984814,0.15531539426219115
1.882973889704739,0.16111036612943141
1.877904220110997,0.16706586177495295
1.8728345505172546,0.17318382833917434
1.8677648809235126,0.17946612847820378
1.8626952113297701,0.18591453566545185
1.8576255417360277,0.19253072949591457
1.8525558721422857,0.19931629099502432
1.8474862025485432,0.2062726979332783
1.8424165329548012,0.21340132014724295
1.8373468633610588,0.22070341486703926
1.8322771937673163,0.22818012204996296
1.8272075241735743,0.235832459719703
1.822137854579832,0.2436613193104607
1.81706818498609,0.2516674610153795
1.8119985153923475,0.25985150913898436
1.8069288457986055,0.26821394745377997
1.801859176204863,0.2767551145618855
1.7967895066111206,0.2854751992634552
1.7917198370173786,0.29437423593477735
1.7866501674236361,0.3034520999202426
1.7815804978298941,0.3127085029438563
1.7765108282361517,0.3221429885476795
1.7714411586424093,0.33175492756632724
1.7663714890486673,0.3415435136486506
1.7613018194549248,0.35150775883969093
1.7562321498611828,0.36164648923809106
1.7511624802674404,0.3719583407462507
1.746092810673698,0.3824417549325383
1.741023141079956,0.393094975026904
1.7359534714862135,0.40391604207310844
1.7308838018924715,0.41490279126246504
1.725814132298729,0.42605284847554636
1.720744462704987,0.4373636270594723
1.7156747931112446,0.44883232486938074
1.7106051235175022,0.46045592160319015
1.7055354539237602,0.4722311764590033
1.7004657843300177,0.4841546261442594
1.6953961147362757,0.49622258326506763
1.6903264451425333,0.5084311351231585
1.6852567755487908,0.5207761429463221
1.6801871059550488,0.5332532415763968
1.6751174363613064,0.5458578396365338
1.6700477667675644,0.5585851201969344
1.664978097173822,0.5714300419552881
1.6599084275800795,0.5843873409449529
1.6548387579863375,0.597451532780548
1.649769088392595,0.6106169154469419
1.644699418798853,0.6238775726338395
1.6396297492051106,0.6372273776143478
1.6345600796113682,0.6506599976617636
1.6294904100176262,0.6641688989949353
1.6244207404238837,0.6777473522384818
1.6193510708301417,0.6913884383801664
1.6142814012363993,0.7050850552040122
1.6092117316426573,0.7188299241740629
1.6041420620489149,0.7326155977404026
1.5990723924551724,0.7464344670360619
1.5940027228614304,0.7602787699308657
1.588933053267688,0.7741405994062701
1.583863383673946,0.7880119122135393
1.5787937140802035,0.8018845377768699
1.573724044486461,0.815750187302486
1.568654374892719,0.8296004630551052
1.5635847052989766,0.8434268677639756
1.5585150357052346,0.857220814122072
1.5534453661114922,0.870973634344052
1.5483756965177498,0.8846765897509711
1.5433060269240078,0.8983208803527495
1.5382363573302653,0.9118976544025985
1.5331666877365233,0.9253980179013374
1.5280970181427809,0.9388130440334445
1.5230273485490389,0.9521337825207563
1.5179576789552964,0.9653512688841778
1.512888009361554,0.978456533607913
1.507818339767812,0.9914406112053236
1.5027486701740695,1.0042945491896158
1.4976790005803275,1.0170094169567716
1.492609330986585,1.0295763145918873
1.4875396613928427,1.0419863816135453
1.4824699917991007,1.0542308056737737
1.4774003222053582,1.0663008312334603
1.4723306526116162,1.078187768234708
1.4672609830178738,1.0898830007925298
1.4621913134241318,1.101377995928124
1.457121643830389,1.1126643123653246
1.452051974236647,1.1237336094097292
1.446982304642905,1.1345776559277199
1.441912635049163,1.1451883394388434
1.43684296545542,1.1555576753311194
1.431773295861678,1.165677816204018
1.426703626267936,1.1755410613388193
1.4216339566741931,1.1851398662906025
1.4165642870804511,1.194466852590661
1.4114946174867091,1.2035148175427923
1.4064249478929662,1.2122767440915079
1.4013552782992242,1.2207458107354292
1.3962856087054822,1.2289154014545123
1.3912159391117402,1.236779115615572
1.3861462695179974,1.2443307778170591
1.3810765999242554,1.2515644476307257
1.3760069303305134,1.2584744291951715
1.3709372607367705,1.265055280613974
1.3658675911430285,1.2713018231092463
1.3607979215492865,1.27720914988019
1.3557282519555445,1.2827726346151855
1.3506585823618016,1.2879879396056921
1.3455889127680596,1.2928510234102963
1.3405192431743176,1.2973581480181793
1.3354495735805747,1.3015058854626158
1.3303799039868327,1.305291123837467
1.3253102343930907,1.3087110726726054
1.3202405647993478,1.3117632676279662
1.3151708952056058,1.31444557447057
1.3101012256118638,1.3167561923042297
1.3050315560181218,1.3186936560275073
1.299961886424379,1.3202568380021849
1.294892216830637,1.3214449489215057
1.289822547236895,1.3222575378746353
1.284752877643152,1.3226944916114527
1.27968320804941,1.3227560330191759
1.274613538455668,1.3224427188297496
1.269543868861926,1.3217554365840873
1.2644741992681832,1.3206954008860115
1.2594045296744412,1.3192641489850105
1.2543348600806992,1.317463535732611
1.2492651904869563,1.3152957279620607
1.2441955208932143,1.3127631983452996
1.2391258512994723,1.3098687187842772
1.2340561817057294,1.3066153533961753
1.2289865121119874,1.3030064511531827
1.2239168425182454,1.2990456382377802
1.2188471729245034,1.2947368101736243
1.2137775033307605,1.2900841237899725
1.2087078337370185,1.2850919890747934
1.2036381641432765,1.279765060967431
1.1985684945495336,1.274108231136938
1.1934988249557916,1.2681266197863112
1.1884291553620496,1.261825567516585
1.1833594857683067,1.2552106272778842
1.1782898161745647,1.2482875564273688
1.1732201465808227,1.2410623089067379
1.1681504769870807,1.2335410275448966
1.1630808073933379,1.225730036484368
1.1580111377995959,1.2176358337236766
1.1529414682058539,1.2092650837619723
1.147871798612111,1.2006246103270688
1.142802129018369,1.1917213891636755
1.137732459424627,1.1825625408551292
1.132662789830885,1.1731553236495216
1.127593120237142,1.1635071262594203
1.1225234506434,1.1536254606038896
1.117453781049658,1.143517954461824
1.1123841114559152,1.1331923440068319
1.1073144418621732,1.1226564661959848
1.1022447722684312,1.1119182509876022
1.0971751026746883,1.1009857133666676
1.0921054330809463,1.089866945160767
1.0870357634872043,1.078570106633832
1.0819660938934623,1.067103417850293
1.0768964242997194,1.0554751498074275
1.0718267547059774,1.0436936153394076
1.0667570851122354,1.031767159802318
1.0616874155184925,1.019704151555203
1.0566177459247506,1.0075129722579328
1.0515480763310086,0.9952020070122614
1.0464784067372666,0.9827796343777927
1.0414087371435237,0.9702542162994116
1.0363390675497817,0.9576340879871927
1.0312693979560397,0.9449275477935529
1.0261997283622968,0.9321428471355749
1.0211300587685548,0.919288180512575
1.0160603891748128,0.906371675670449
1.01099071958107,0.8934013839647195
1.005921049987328,0.880385270973609
1.000851380393586,0.8673312074108909
0.9957817107998439,0.854246960385744
0.990712041206101,0.8411401850533132
0.985642371612359,0.8280184166954256
0.980572702018617,0.8148890632657798
0.9755030324248741,0.8017593984284678
0.9704333628311321,0.7886365551125445
0.9653636932373901,0.7755275195990884
0.9602940236436481,0.7624391261509538
0.9552243540499052,0.7493780521890003
0.9501546844561632,0.7363508140126516
0.9450850148624212,0.7233637630569116
0.9400153452686784,0.7104230826728085
0.9349456756749364,0.6975347854135661
0.9298760060811944,0.6847047108047261
0.9248063364874515,0.6719385235730655
0.9197366668937095,0.6592417123062781
0.9146669972999675,0.6466195885131407
0.9095973277062255,0.6340772860522768
0.9045276581124826,0.6216197608963604
0.8994579885187406,0.609251791198019
0.8943883189249986,0.5969779776233336
0.8893186493312557,0.5848027439191169
0.8842489797375137,0.5727303376806808
0.8791793101437717,0.5607648312877921
0.8741096405500297,0.5489101229780154
0.8690399709562868,0.537169938028441
0.8639703013625448,0.5255478300191971
0.8589006317688028,0.5140471821548236
0.8538309621750599,0.5026712086229316
0.8487612925813179,0.49142295597308694
0.8436916229875759,0.480305304502822
0.838621953393833,0.469320969641966
0.833552283800091,0.4584725033306915
0.828482614206349,0.4477622953910804
0.8234129446126071,0.43719257489621305
0.8183432750188642,0.4267654115446284
0.8132736054251222,0.4164827170515459
0.8082039358313802,0.4063462465711062
0.8031342662376373,0.39635760016624294
0.7980645966438953,0.3865182243443233
0.7929949270501533,0.3768294136775148
0.7879252574564104,0.36729231252694255
0.7828555878626684,0.3579079168889777
0.7777859182689264,0.34867707638064666
0.7727162486751844,0.33960049637915957
0.7676465790814415,0.3306787403279703
0.7625769094876995,0.32191223221869936
0.7575072398939575,0.3133012592547147
0.7524375703002146,0.30484597469823194
0.7473679007064726,0.29654640089842554
0.7422982311127306,0.28840243249327124
0.7372285615189886,0.28041383977265283
0.7321588919252457,0.27258027218457515
0.7270892223315037,0.26490126196008046
0.7220195527377617,0.2573762278256758
0.7169498831440189,0.2500044787646725
0.7118802135502769,0.24278521778083223
0.7068105439565349,0.23571754560917618
0.701740874362792,0.2288004643099771
0.69667120476905,0.22203288067292035
0.691601535175308,0.2154136093496733
0.686531865581566,0.20894137562510978
0.6814621959878231,0.20261481773076365
0.6763925263940811,0.1964324885995573
0.6713228568003391,0.1903928569592999
0.6662531872065962,0.18449430766493569
0.6611835176128542,0.1787351411769916
0.6561138480191122,0.17311357210730405
0.6510441784253702,0.1676277267739565
0.6459745088316273,0.16227563973625278
0.6409048392378853,0.15705524931837006
0.6358351696441433,0.15196439217738508
0.6307655000504004,0.1470007970277693
0.6256958304566584,0.1421620776995906
0.6206261608629164,0.1374457257804748
0.6155564912691736,0.13284910317001478
0.6104868216754316,0.12836943495705636
0.6054171520816896,0.12400380311175106
0.6003474824879476,0.1197491415612088
0.5952778128942047,0.11560223328498712
0.5902081433004627,0.11155971011910394
0.5851384737067207,0.107618055988821
0.5800688041129778,0.10377361429528316
0.5749991345192358,0.10002260015353849
0.5699294649254938,0.09636111811462646
0.5648597953317518,0.09278518589856759
0.5597901257380089,0.0892907645159268
0.5547204561442669,0.08587379496306381
0.5496507865505249,0.08253024144230557
0.544581116956782,0.07925614078795643
0.53951144736304,0.07604765747982646
0.534441777769298,0.07290114330824536
0.5293721081755551,0.06981320043132215
0.5243024385818131,0.06678074625167987
0.5192327689880711,0.06380107825295336
0.5141630993943291,0.0608719366937153
0.5090934298005863,0.05799156287583891
0.5040237602068443,0.055158750602235275
0.49895409061310225,0.05237288842969397
0.49388442101935937,0.04963399041722782
0.48881475142561737,0.04694271327536687
0.48374508183187537,0.04430035813861001
0.47867541223813337,0.04170885560709321
0.4736057426443905,0.0391707332236069
0.4685360730506485,0.03668906515145002
0.4634664034569065,0.034267404474483364
0.4583967338631636,0.031909699225615665
0.4533270642694216,0.02962019393255046
0.4482573946756796,0.027403319116673236
0.4431877250819367,0.02526357175886177
0.4381180554881947,0.023205390222773393
0.4330483858944527,0.021233027473506985
0.4279787163007107,0.019350426624625185
0.42290904670696783,0.017561102873629147
0.41783937711322583,0.015868035737886425
0.41276970751948383,0.01427357518163664
0.4077000379257406,0.01277936474151881
