5.47229996207426,7.452177041648266e-30
5.467230292480518,9.138101470736695e-30
5.462160622886775,1.1166025225025704e-29
5.457090953293033,1.3597802711209497e-29
5.452021283699291,1.6505364568932036e-29
5.446951614105549,1.9972273246242366e-29
5.441881944511806,2.409553008107126e-29
5.436812274918064,2.898767856168372e-29
5.431742605324322,3.4779256207715565e-29
5.426672935730579,4.1621656402448276e-29
5.421603266136837,4.969047165246663e-29
5.416533596543095,5.918940131351582e-29
5.411463926949352,7.035481999366057e-29
5.40639425735561,8.34611178589788e-29
5.401324587761868,9.882694120368422e-29
5.396254918168126,1.1682248124499807e-28
5.391185248574383,1.3787798157209478e-28
5.386115578980641,1.6249366050718605e-28
5.381045909386899,1.912512744079259e-28
5.3759762397931565,2.248275823415448e-28
5.3709065701994145,2.6401001240009563e-28
5.3658369006056725,3.0971487614326834e-28
5.3607672310119305,3.6300853133927544e-28
5.355697561418188,4.251319555803396e-28
5.350627891824446,4.975292659146189e-28
5.345558222230704,5.818808040054e-28
5.340488552636961,6.801415043737065e-28
5.335418883043219,7.945853771375308e-28
5.330349213449477,9.27857068759345e-28
5.325279543855734,1.0830316174226595e-27
5.320209874261992,1.2636836969413427e-27
5.31514020466825,1.4739678481767783e-27
5.310070535074508,1.7187114339403856e-27
5.305000865480765,2.0035223270548287e-27
5.299931195887023,2.3349136571090575e-27
5.294861526293281,2.7204483057868206e-27
5.289791856699538,3.168906260754337e-27
5.284722187105796,3.6904784223789544e-27
5.279652517512054,4.296991015730889e-27
5.274582847918312,5.002165403618229e-27
5.269513178324569,5.821918837791326e-27
5.264443508730827,6.77471253987472e-27
5.259373839137085,7.88195448830262e-27
5.254304169543342,9.168465422405528e-27
5.2492344999496,1.0663017882712337e-26
5.244164830355858,1.2398959613795545e-26
5.2390951607621155,1.441493439282763e-26
5.2340254911683735,1.675571534818948e-26
5.2289558215746315,1.9473168137836056e-26
5.2238861519808895,2.2627364012432296e-26
5.218816482387147,2.62878658460656e-26
5.213746812793405,3.053521373780426e-26
5.208677143199663,3.546264083965006e-26
5.20360747360592,4.1178054729711803e-26
5.198537804012178,4.780632501468054e-26
5.193468134418436,5.549192401714159e-26
5.188398464824694,6.440197450045227e-26
5.183328795230951,7.472976654410572e-26
5.178259125637209,8.669881506279875e-26
5.173189456043467,1.0056754024328932e-25
5.168119786449724,1.1663466556104422e-25
5.163050116855982,1.352454422707458e-25
5.15798044726224,1.5679882561221864e-25
5.152910777668497,1.8175574674710382e-25
5.147841108074755,2.106486459979826e-25
5.142771438481013,2.4409245770820094e-25
5.137701768887271,2.8279726544394906e-25
5.132632099293528,3.275828788548997e-25
5.127562429699786,3.7939562090651906e-25
5.122492760106044,4.393276570959833e-25
5.117423090512301,5.086392474634863e-25
5.112353420918559,5.887843586271809e-25
5.107283751324817,6.814401377483684e-25
5.102214081731075,7.885408244688899e-25
5.097144412137332,9.123167618227768e-25
5.09207474254359,1.0553392644687768e-24
5.087005072949848,1.2205722141051574e-24
5.0819354033561055,1.4114313796487398e-24
5.0768657337623635,1.6318526060162163e-24
5.0717960641686215,1.8863701827931983e-24
5.066726394574879,2.1802068957476895e-24
5.061656724981137,2.519377483504837e-24
5.056587055387395,2.910807472698047e-24
5.051517385793652,3.3624696520528325e-24
5.04644771619991,3.883540774290764e-24
5.041378046606168,4.4845814503209224e-24
5.036308377012426,5.1777426295981545e-24
5.031238707418683,5.977002551400354e-24
5.026169037824941,6.898438612786072e-24
5.021099368231199,7.960539240050004e-24
5.016029698637456,9.18456158285908e-24
5.010960029043714,1.0594941686793747e-23
5.005890359449972,1.2219764755356343e-23
5.00082068985623,1.4091304203306336e-23
4.995751020262487,1.6246639448431215e-23
4.990681350668745,1.872836381013816e-23
4.985611681075003,2.158539550517063e-23
4.98054201148126,2.4873906581253134e-23
4.975472341887518,2.865838674042106e-23
4.970402672293776,3.301286141137876e-23
4.965333002700033,3.802228617560111e-23
4.960263333106291,4.378414278190675e-23
4.955193663512549,5.041026555205435e-23
4.950123993918807,5.802893104595378e-23
4.945054324325064,6.678724848811258e-23
4.939984654731322,7.685389373480095e-23
4.93491498513758,8.84222355727726e-23
4.929845315543838,1.0171390998553519e-22
4.9247756459500955,1.1698290581631975e-22
4.9197059763563535,1.3452023412715502e-22
4.9146363067626115,1.5465926364767942e-22
4.909566637168869,1.7778181619149743e-22
4.904496967575127,2.0432512898084437e-22
4.899427297981385,2.3478980567540673e-22
4.894357628387642,2.6974889479039053e-22
4.8892879587939,3.0985825338688673e-22
4.884218289200158,3.558683757347552e-22
4.879148619606415,4.086378914364052e-22
4.874078950012673,4.691489656582566e-22
4.869009280418931,5.385248660964892e-22
4.863939610825189,6.1804999761599335e-22
4.858869941231446,7.0919274672647805e-22
4.853800271637704,8.136315248517503e-22
4.848730602043962,9.332844524511763e-22
4.843660932450219,1.0703431863048326e-21
4.838591262856477,1.2273114606287543e-21
4.833521593262735,1.4070489902188196e-21
4.828451923668993,1.6128214717475986e-21
4.82338225407525,1.848357519036144e-21
4.818312584481508,2.1179134811451256e-21
4.813242914887766,2.426347220237241e-21
4.808173245294023,2.7792020713370438e-21
4.803103575700281,3.182802370601541e-21
4.798033906106539,3.644362125043285e-21
4.7929642365127965,4.172108607671298e-21
4.7878945669190545,4.77542290096324e-21
4.7828248973253125,5.464999682087833e-21
4.7777552277315705,6.2530288494598125e-21
4.772685558137828,7.15340193667333e-21
4.767615888544086,8.181946651834306e-21
4.762546218950344,9.356693323710812e-21
4.757476549356601,1.0698177537581442e-20
4.752406879762859,1.2229783810711744e-20
4.747337210169117,1.3978135798489384e-20
4.742267540575375,1.5973539246942658e-20
4.737197870981632,1.8250484726439525e-20
4.73212820138789,2.084821810689853e-20
4.727058531794148,2.3811387780495192e-20
4.721988862200405,2.7190778818881236e-20
4.716919192606663,3.104414558556512e-20
4.711849523012921,3.543715582956465e-20
4.706779853419178,4.044446098527499e-20
4.701710183825436,4.615090931992565e-20
4.696640514231694,5.265292073103958e-20
4.691570844637952,6.006004443227418e-20
4.686501175044209,6.8496723511058e-20
4.681431505450467,7.810429343367455e-20
4.676361835856725,8.904324505611911e-20
4.671292166262982,1.0149578662057034e-19
4.66622249666924,1.1566874363275873e-19
4.661152827075498,1.3179684048677182e-19
4.656083157481756,1.5014641330100731e-19
4.651013487888013,1.710196097315136e-19
4.645943818294271,1.947591386259896e-19
4.640874148700529,2.2175364037424823e-19
4.6358044791067865,2.524437578116517e-19
4.6307348095130445,2.873289976680027e-19
4.6256651399193025,3.269754839667218e-19
4.62059547032556,3.7202471762511034e-19
4.615525800731818,4.2320347096161785e-19
4.610456131138076,4.813349620739788e-19
4.605386461544334,5.473514723281795e-19
4.600316791950591,6.223085907322723e-19
4.595247122356849,7.074012920259759e-19
4.590177452763107,8.039820811942013e-19
4.585107783169364,9.135814661396192e-19
4.580038113575622,1.0379310527989992e-18
4.57496844398188,1.1789895934753806e-18
4.569898774388138,1.3389723600521025e-18
4.564829104794395,1.5203842595849891e-18
4.559759435200653,1.726057161128549e-18
4.554689765606911,1.959191960213756e-18
4.549620096013168,2.2234059719095836e-18
4.544550426419426,2.5227863157179863e-18
4.539480756825684,2.8619500366180246e-18
4.534411087231941,3.2461117974468535e-18
4.529341417638199,3.6811600796679414e-18
4.524271748044457,4.173742943739786e-18
4.519202078450714,4.7313645282172885e-18
4.514132408856972,5.362493610016593e-18
4.50906273926323,6.076685708740399e-18
4.503993069669488,6.88472039758141e-18
4.498923400075745,7.798755684311915e-18
4.493853730482003,8.83250155066797e-18
4.488784060888261,1.0001414989784398e-17
4.483714391294519,1.1322919162252093e-17
4.4786447217007765,1.2816649605253637e-17
4.4735750521070345,1.450473077983464e-17
4.4685053825132925,1.6412086632910423e-17
4.46343571291955,1.8566789287749218e-17
4.458366043325808,2.1000450464655104e-17
4.453296373732066,2.3748660778186315e-17
4.448226704138323,2.6851482664933823e-17
4.443157034544581,3.035400337387024e-17
4.438087364950839,3.430695520754644e-17
4.433017695357096,3.876741104588715e-17
4.427948025763354,4.3799564125071735e-17
4.422878356169612,4.94756020932052e-17
4.41780868657587,5.58766865348338e-17
4.412739016982127,6.3094050462283e-17
4.407669347388385,7.123022772942832e-17
4.402599677794643,8.040042995138594e-17
4.397530008200901,9.073408833235231e-17
4.392460338607158,1.023765798369527e-16
4.387390669013416,1.154911594137157e-16
4.382320999419674,1.3026112252133868e-16
4.377251329825931,1.4689222504985345e-16
4.372181660232189,1.656153909025511e-16
4.367111990638447,1.8668974104447327e-16
4.362042321044704,2.1040598176388898e-16
4.356972651450962,2.370901942691583e-16
4.35190298185722,2.6710807258815167e-16
4.3468333122634775,3.0086966208343875e-16
4.3417636426697355,3.3883465677619924e-16
4.3366939730759935,3.815183201177584e-16
4.3316243034822515,4.2949810089607723e-16
4.326554633888509,4.834210236602574e-16
4.321484964294767,5.440119414466444e-16
4.316415294701025,6.120827477757917e-16
4.311345625107283,6.885426549694726e-16
4.30627595551354,7.744096569614082e-16
4.301206285919798,8.708233071396739e-16
4.296136616326056,9.790589556131865e-16
4.291066946732313,1.100543605940228e-15
4.285997277138571,1.2368735691453472e-15
4.280927607544829,1.3898341131653734e-15
4.275857937951086,1.5614213291012922e-15
4.270788268357344,1.7538664621905392e-15
4.265718598763602,1.9696629855786354e-15
4.260648929169859,2.211596728997898e-15
4.255579259576117,2.482779412479349e-15
4.250509589982375,2.7866859772220278e-15
4.245439920388633,3.1271961515897306e-15
4.24037025079489,3.5086407396879787e-15
4.235300581201148,3.935853172857603e-15
4.230230911607406,4.414226920571645e-15
4.225161242013664,4.949779416706086e-15
4.220091572419921,5.549223220408605e-15
4.215021902826179,6.22004519870441e-15
4.209952233232437,6.970594592017733e-15
4.204882563638694,7.810180905965403e-15
4.199812894044952,8.74918266561182e-15
4.19474322445121,9.799168174662906e-15
4.1896735548574675,1.0973029544627542e-14
4.1846038852637255,1.2285131400254018e-14
4.1795342156699835,1.3751475829246736e-14
4.174464546076241,1.5389885326963303e-14
4.169394876482499,1.72202056897571e-14
4.164325206888757,1.9264531031737802e-14
4.159255537295014,2.1547453335770552e-14
4.154185867701272,2.4096339196822316e-14
4.14911619810753,2.6941636670953474e-14
4.144046528513788,3.011721540450802e-14
4.138976858920046,3.366074348639252e-14
4.133907189326303,3.761410474659777e-14
4.128837519732561,4.202386052610611e-14
4.123767850138819,4.6941760281972466e-14
4.118698180545076,5.242530578644356e-14
4.113628510951334,5.853837415401782e-14
4.108558841357592,6.535190551044547e-14
4.103489171763849,7.294466182678254e-14
4.098419502170107,8.140406429955709e-14
4.093349832576365,9.082711767679869e-14
4.088280162982622,1.0132143111060978e-13
4.08321049338888,1.1300634644897692e-13
4.078140823795138,1.2601418633803773e-13
4.073071154201395,1.4049163605393443e-13
4.068001484607653,1.5660127457430954e-13
4.062931815013911,1.7452327198176041e-13
4.057862145420169,1.9445727181488108e-13
4.052792475826427,2.1662447840561968e-13
4.047722806232684,2.4126997053915867e-13
4.042653136638942,2.6866526394338195e-13
4.0375834670452,2.99111146188233e-13
4.0325137974514575,3.329408086139682e-13
4.0274441278577156,3.70523301011251e-13
4.0223744582639736,4.1226733607880975e-13
4.017304788670231,4.586254723487887e-13
4.012235119076489,5.100987064807038e-13
4.007165449482747,5.672415087746146e-13
4.002095779889004,6.306673396308896e-13
3.997026110295262,7.010546896556437e-13
3.99195644070152,7.791536923071368e-13
3.9868867711077773,8.657933654759714e-13
3.981817101514035,9.618895472031327e-13
3.976747431920293,1.0684536007994172e-12
3.971677762326551,1.186601975794457e-12
3.9666080927328085,1.3175667231926378e-12
3.961538423139066,1.4627070761584734e-12
3.956468753545324,1.6235222201578798e-12
3.9513990839515816,1.8016653893810789e-12
3.946329414357839,1.9989594386116846e-12
3.941259744764097,2.217414051272659e-12
3.936190075170355,2.459244754941371e-12
3.9311204055766122,2.726893925075826e-12
3.9260507359828702,3.0230539660805934e-12
3.9209810663891282,3.3506928664014133e-12
3.915911396795386,3.713082331511331e-12
3.9108417272016434,4.11382870609713e-12
3.9057720576079014,4.556906905324725e-12
3.900702388014159,5.0466975857864575e-12
3.8956327184204165,5.588027800768019e-12
3.8905630488266745,6.186215403042583e-12
3.8854933792329325,6.84711748270773e-12
3.88042370963919,7.577183158745048e-12
3.8753540400454476,8.383511081922393e-12
3.8702843704517056,9.273912054030608e-12
3.865214700857963,1.0256977224554926e-11
3.8601450312642207,1.1342152390643262e-11
3.8550753616704787,1.2539818999150164e-11
3.8500056920767363,1.386138252968658e-11
3.844936022482994,1.5319369023734955e-11
3.839866352889252,1.6927530615452014e-11
3.83479668329551,1.8700961013075156e-11
3.8297270137017674,2.0656221974175075e-11
3.824657344108025,2.2811481911799727e-11
3.819587674514283,2.51866678606169e-11
3.8145180049205405,2.7803632121737056e-11
3.809448335326798,3.068633499190649e-11
3.804378665733056,3.386104506785035e-11
3.799308996139314,3.73565587011776e-11
3.7942393265455716,4.120444026573859e-11
3.789169656951829,4.54392849907309e-11
3.784099987358087,5.00990062128981e-11
3.7790303177643447,5.522514901411086e-11
3.7739606481706023,6.086323234094068e-11
3.7688909785768603,6.706312185508989e-11
3.763821308983118,7.387943594194625e-11
3.7587516393893754,8.137198751285983e-11
3.7536819697956334,8.960626447800805e-11
3.7486123002018914,9.865395204294817e-11
3.743542630608149,1.0859350029422615e-10
3.7384729610144065,1.1951074088771376e-10
3.7334032914206645,1.314995570367248e-10
3.728333621826922,1.446626114136155e-10
3.7232639522331796,1.591121370262667e-10
3.7181942826394376,1.7497079660706864e-10
3.7131246130456956,1.923726165543366e-10
3.7080549434519527,2.1146400199267837e-10
3.7029852738582107,2.3240484006867584e-10
3.6979156042644687,2.5536969917149215e-10
3.6928459346707263,2.805491323660356e-10
3.687776265076984,3.08151093952409e-10
3.682706595483242,3.384024787238966e-10
3.6776369258894994,3.7155079419284517e-10
3.672567256295757,4.078659767968191e-10
3.667497586702015,4.476423638948727e-10
3.662427917108273,4.912008342244917e-10
3.6573582475145305,5.388911304233675e-10
3.652288577920788,5.910943782358028e-10
3.647218908327046,6.48225818130329e-10
3.6421492387333037,7.107377662607018e-10
3.637079569139561,7.791228230147505e-10
3.632009899545819,8.539173488203641e-10
3.626940229952077,9.357052284207231e-10
3.6218705603583343,1.0251219464962208e-09
3.6168008907645923,1.1228589993028932e-09
3.6117312211708503,1.2296686689201929e-09
3.606661551577108,1.346369188759114e-09
3.6015918819833654,1.4738503311804983e-09
3.5965222123896234,1.6130794504190516e-09
3.591452542795881,1.765108016508419e-09
3.5863828732021386,1.9310786785669665e-09
3.5813132036083966,2.1122328986437364e-09
3.5762435340146546,2.309919200352094e-09
3.571173864420912,2.525602079750264e-09
3.5661041948271697,2.760871629379796e-09
3.5610345252334277,3.0174539300620945e-09
3.5559648556396852,3.297222268998689e-09
3.550895186045943,3.6022092469414545e-09
3.545825516452201,3.9346198417163955e-09
3.540755846858459,4.296845500215546e-09
3.535686177264716,4.691479336139005e-09
3.530616507670974,5.121332516292478e-09
3.525546838077232,5.589451924145647e-09
3.5204771684834895,6.09913919565138e-09
3.515407498889747,6.653971229043148e-09
3.510337829296005,7.257822277483594e-09
3.5052681597022626,7.914887741059309e-09
3.50019849010852,8.629709782729991e-09
3.495128820514778,9.407204901473745e-09
3.490059150921036,1.0252693605051854e-08
3.4849894813272937,1.1171932334582012e-08
3.4799198117335512,1.2171147803492384e-08
3.4748501421398093,1.3257073924471016e-08
3.469780472546067,1.4436991509761475e-08
3.4647108029523244,1.571877094263511e-08
3.4596411333585824,1.7110918031138318e-08
3.45457146376484,1.862262326930707e-08
3.449501794171098,2.0263814746024605e-08
3.4444321245773555,2.204521495761132e-08
3.439362454983613,2.3978401797128512e-08
3.434292785389871,2.607587401131977e-08
3.4292231157961286,2.8351121435137335e-08
3.4241534462023866,3.081870033398153e-08
3.419083776608644,3.3494314205178355e-08
3.414014107014902,3.63949004128769e-08
3.4089444374211597,3.95387230545692e-08
3.4038747678274173,4.2945472482836993e-08
3.3988050982336753,4.663637193284719e-08
3.393735428639933,5.063429173457316e-08
3.388665759046191,5.4963871618825275e-08
3.3835960894524484,5.965165165802645e-08
3.378526419858706,6.472621241630623e-08
3.373456750264964,7.021832491908231e-08
3.3683870806712215,7.616111108987515e-08
3.3633174110774795,8.259021534180687e-08
3.358247741483737,8.954398805317353e-08
3.3531780718899946,9.706368170072736e-08
3.3481084022962526,1.0519366047103073e-07
3.34303873270251,1.1398162421950956e-07
3.337969063108768,1.2347884769877978e-07
3.3328993935150257,1.3374043603263178e-07
3.3278297239212833,1.4482559746970748e-07
3.3227600543275413,1.5679793451175353e-07
3.317690384733799,1.6972575457529252e-07
3.312620715140057,1.8368240141291116e-07
3.3075510455463144,1.9874660859126267e-07
3.3024813759525724,2.1500287639735518e-07
3.29741170635883,2.3254187362311082e-07
3.2923420367650875,2.514608657604539e-07
3.2872723671713455,2.718641712257549e-07
3.282202697577603,2.938636473232879e-07
3.277133027983861,3.1757920775269116e-07
3.2720633583901186,3.4313937356562673e-07
3.266993688796376,3.7068185958170766e-07
3.261924019202634,4.0035419838401037e-07
3.2568543496088918,4.32314404129851e-07
3.2517846800151498,4.667316785334656e-07
3.2467150104214073,5.037871615040446e-07
3.241645340827665,5.436747290550638e-07
3.236575671233923,5.86601841239875e-07
3.2315060016401804,6.327904430136955e-07
3.2264363320464384,6.824779210739726e-07
3.221366662452696,7.359181198900909e-07
3.216296992858954,7.933824202990077e-07
3.2112273232652115,8.551608842170043e-07
3.206157653671469,9.215634691983346e-07
3.201087984077727,9.929213167606037e-07
3.1960183144839847,1.069588118593532e-06
3.1909486448902427,1.1519415649729655e-06
3.1858789752965,1.240384879916385e-06
3.1808093057027578,1.3353484478386234e-06
3.1757396361090158,1.4372915366991855e-06
3.1706699665152733,1.5467041228738897e-06
3.1656002969215313,1.6641088232350104e-06
3.160530627327789,1.7900629401859104e-06
3.1554609577340464,1.9251606256673574e-06
3.1503912881403044,2.07003517043564e-06
3.145321618546562,2.2253614252055296e-06
3.14025194895282,2.39185836055514e-06
3.1351822793590776,2.5702917728064245e-06
3.130112609765335,2.7614771434207907e-06
3.125042940171593,2.9662826597901976e-06
3.1199732705778507,3.1856324056541286e-06
3.1149036009841087,3.420509729736965e-06
3.1098339313903662,3.671960801576845e-06
3.1047642617966242,3.941098363905488e-06
3.099694592202882,4.229105691341443e-06
3.0946249226091394,4.537240765573584e-06
3.0895552530153974,4.866840677641636e-06
3.084485583421655,5.219326268362282e-06
3.079415913827913,5.596207018405419e-06
3.0743462442341705,5.999086199997091e-06
3.069276574640428,6.429666302707723e-06
3.064206905046686,6.889754746285562e-06
3.0591372354529436,7.38126989400728e-06
3.0540675658592016,7.906247380544907e-06
3.048997896265459,8.466846768893464e-06
3.0439282266717167,9.065358551456782e-06
3.0388585570779747,9.704211510965318e-06
3.0337888874842323,1.0385980457482336e-05
3.0287192178904903,1.1113394358357398e-05
3.023649548296748,1.188934487860226e-05
3.018579878703006,1.2716895349789625e-05
3.0135102091092634,1.3599290186223442e-05
3.008440539515521,1.453996476777977e-05
3.003370869921779,1.5542555809491193e-05
2.9983012003280365,1.6610912238627352e-05
2.9932315307342945,1.7749106600717534e-05
2.988161861140552,1.896144701667057e-05
2.9830921915468096,2.025248971385923e-05
2.9780225219530676,2.1627052154771212e-05
2.972952852359325,2.309022678756306e-05
2.967883182765583,2.4647395443602407e-05
2.9628135131718407,2.6304244407849595e-05
2.9577438435780983,2.806678018868724e-05
2.9526741739843563,2.994134601459326e-05
2.947604504390614,3.1934639085832624e-05
2.942534834796872,3.4053728610130624e-05
2.9374651652031294,3.6306074652098435e-05
2.932395495609387,3.869954782696978e-05
2.927325826015645,4.124244987002201e-05
2.9222561564219025,4.394353511386023e-05
2.9171864868281605,4.6812032906536516e-05
2.912116817234418,4.985767100430272e-05
2.907047147640676,5.309069997357058e-05
2.9019774780469336,5.652191863746844e-05
2.896907808453191,6.0162700603153153e-05
2.891838138859449,6.402502190682784e-05
2.8867684692657067,6.812148981417504e-05
2.8816987996719647,7.24653728146599e-05
2.8766291300782223,7.707063184891705e-05
2.87155946048448,8.195195280912956e-05
2.866489790890738,8.712478035302562e-05
2.8614201212969954,9.260535307279255e-05
2.8563504517032534,9.841074006085333e-05
2.851280782109511,0.00010455887891509748
2.8462111125157685,0.00011106861522672817
2.8411414429220265,0.00011795974359447821
2.836071773328284,0.00012525305020946113
2.831002103734542,0.0001329703570554072
2.8259324341407996,0.00014113456776951156
2.8208627645470576,0.000149769715209474
2.815793094953315,0.00015890101077271478
2.8107234253595728,0.00016855489551400433
2.8056537557658308,0.00017875909310801271
2.8005840861720883,0.00018954266470346022
2.7955144165783463,0.0002009360657156481
2.790444746984604,0.00021297120460422284
2.7853750773908614,0.00022568150368296763
2.7803054077971194,0.00023910196200834833
2.775235738203377,0.0002532692203933129
2.770166068609635,0.00026822162859259244
2.7650963990158925,0.0002839993147054086
2.76002672942215,0.0003006442568409697
2.754957059828408,0.00031820035709165674
2.7498873902346657,0.00033671351785808734
2.7448177206409237,0.00035623172056945424
2.739748051047181,0.0003768051068417418
2.734678381453439,0.0003984860621152694
2.729608711859697,0.0004213293018120193
2.7245390422659543,0.0004453919600518719
2.7194693726722123,0.00047073368096543945
2.71439970307847,0.0004974167126397857
2.709330033484728,0.0005255060037314508
2.7042603638909855,0.0005550693027795662
2.699190694297243,0.0005861772602496668
2.694121024703501,0.0006189035333368244
2.6890513551097586,0.0006533248935543239
2.6839816855160166,0.0006895213371316074
2.678912015922274,0.0007275761982426626
2.6738423463285317,0.0007675762650830562
2.6687726767347897,0.000809611898810902
2.6637030071410472,0.0008537771553638478
2.6586333375473052,0.0009001699101606367
2.653563667953563,0.0009488919856924527
2.6484939983598204,0.0010000492820051567
2.6434243287660784,0.0010537519100698588
2.638354659172336,0.0011101143280348228
2.633284989578594,0.00116925548034732
2.6282153199848515,0.0012312989397297155
2.6231456503911095,0.0012963730519886837
2.618075980797367,0.0013646110836320689
2.6130063112036246,0.0014361513722620154
2.6079366416098826,0.0015111374797079748
2.60286697201614,0.0015897183478572286
2.597797302422398,0.0016720484571346474
2.5927276328286557,0.001758287987577494
2.5876579632349133,0.0018486029824442724
2.5825882936411713,0.0019431655142904997
2.577518624047429,0.0020421538534371965
2.572448954453687,0.002145752638750783
2.5673792848599444,0.002254153050646145
2.562309615266202,0.0023675529862167933
2.55723994567246,0.0024861572363886995
2.5521702760787175,0.0026101776649863303
2.5471006064849755,0.0027398333895911494
2.542030936891233,0.00287535096406513
2.5369612672974906,0.0030169645626026156
2.5318915977037486,0.0031649161651656744
2.526821928110006,0.0033194557441492646
2.521752258516264,0.0034808414521127567
2.5166825889225217,0.003649339810406379
2.5116129193287797,0.0038252258985102447
2.5065432497350373,0.004008783543895539
2.501473580141295,0.004200305512206206
2.496403910547553,0.004400093697551058
2.4913342409538104,0.00460845931268503
2.4862645713600684,0.004825723078848545
2.481194901766326,0.005052215415024106
2.4761252321725835,0.005288276626357824
2.4710555625788415,0.005534257091484003
2.465985892985099,0.005790517448479974
2.460916223391357,0.006057428779166953
2.4558465537976146,0.006335372791463532
2.450776884203872,0.006624741999485529
2.44570721461013,0.006925939901076902
2.4406375450163877,0.007239381152444128
2.4355678754226457,0.007565491739555797
2.4304982058289033,0.007904709145959204
2.4254285362351613,0.008257482516652558
2.420358866641419,0.008624272817642779
2.4152891970476764,0.009005552990805972
2.4102195274539344,0.009401808103658437
2.405149857860192,0.00981353549363334
2.40008018826645,0.010241244906448963
2.3950105186727075,0.010685458628143392
2.389940849078965,0.011146711610339113
2.384871179485223,0.0116255515882916
2.3798015098914806,0.012122539191266388
2.3747318402977386,0.012638248044776387
2.369662170703996,0.013173264864205607
2.3645925011102538,0.013728189539332804
2.3595228315165118,0.01430363520926093
2.3544531619227693,0.014900228327250761
2.3493834923290273,0.01551860871494647
2.344313822735285,0.01615942960547697
2.3392441531415424,0.01682335767490641
2.3341744835478004,0.017511073061505122
2.329104813954058,0.018223269372304035
2.324035144360316,0.01896065367639338
2.3189654747665736,0.01972394648442374
2.3138958051728316,0.020513881713763796
2.308826135579089,0.021331206638773165
2.3037564659853467,0.022176681825645608
2.2986867963916047,0.023051081051284342
2.2936171267978622,0.023955191205675908
2.2885474572041202,0.02488981217723534
2.283477787610378,0.025855756720607668
2.2784081180166353,0.026853850306419534
2.2733384484228933,0.027884930952494027
2.268268778829151,0.02894984903605631
2.263199109235409,0.030049467086477998
2.2581294396416665,0.031184659558135933
2.253059770047924,0.032356312582980155
2.247990100454182,0.03356532370244297
2.2429204308604396,0.03481260157834554
2.2378507612666976,0.036099065682496
2.232781091672955,0.037425645964710964
2.2277114220792127,0.03879328249902405
2.2226417524854707,0.04020292510789031
2.2175720828917282,0.04165553296423441
2.2125024132979862,0.043152074171224436
2.207432743704244,0.044693525319702554
2.202363074110502,0.0462808710232341
2.1972934045167594,0.04791510343077784
2.192223734923017,0.049597221717011794
2.187154065329275,0.05132823155038085
2.1820843957355325,0.05310914453895946
2.1770147261417905,0.05494097765424142
2.171945056548048,0.05682475263298894
2.1668753869543056,0.05876149535727794
2.1618057173605636,0.0607522352128857
2.156736047766821,0.06279800442615854
2.151666378173079,0.0648998373794865
2.1465967085793367,0.06705876990549899
2.1415270389855943,0.06927583856005545
2.1364573693918523,0.07155207987409631
2.13138769979811,0.07388852958435248
2.126318030204368,0.07628622184288274
2.1212483606106254,0.07874618840536075
2.1161786910168834,0.08126945779796202
2.111109021423141,0.08385705446266505
2.1060393518293985,0.08650999788070099
2.1009696822356565,0.0892293016738502
2.095900012641914,0.09201597268321153
2.090830343048172,0.09487101002502124
2.0857606734544296,0.09779540412306499
2.080691003860687,0.10079013571717328
2.075621334266945,0.10385617484727137
2.0705516646732027,0.10699447981244242
2.0654819950794607,0.11020599610445334
2.0604123254857183,0.11349165531522155
2.055342655891976,0.11685237401772092
2.050272986298234,0.12028905261989796
2.0452033167044914,0.12380257419123034
2.0401336471107494,0.12739380326167218
2.035063977517007,0.13106358459285805
2.0299943079232645,0.1348127419215809
2.0249246383295225,0.1386420766757594
2.01985496873578,0.1425523666633007
2.014785299142038,0.14654436473452034
2.0097156295482956,0.15061879741903952
2.0046459599545536,0.1547763635383774
1.9995762903608112,0.15901773279577913
1.9945066207670687,0.1633435443451704
1.9894369511733268,0.16775440534148825
1.9843672815795843,0.17225088947503586
1.9792976119858423,0.17683353549288983
1.9742279423920999,0.18150284571081957
1.9691582727983574,0.18625928451955387
1.9640886032046154,0.19110327688965784
1.959018933610873,0.19603520687964285
1.953949264017131,0.20105541615229802
1.9488795944233885,0.2061642025045623
1.943809924829646,0.21136181841651525
1.938740255235904,0.21664846962528658
1.9336705856421617,0.2220243137298608
1.9286009160484197,0.2274894588327802
1.9235312464546772,0.23304396222479493
1.9184615768609352,0.23868782911834904
1.9133919072671928,0.244421011435626
1.9083222376734503,0.2502434066565487
1.9032525680797083,0.2561548567316947
1.8981828984859659,0.26215514706460685
1.8931132288922239,0.2682440055672851
1.8880435592984814,0.2744211017919885
1.882973889704739,0.2806860461415911
1.877904220110997,0.2870383891598985
1.8728345505172546,0.29347762090233215
1.8677648809235126,0.3000031703863974
1.8626952113297701,0.30661440512034427
1.8576255417360277,0.3133106307073327
1.8525558721422857,0.3200910905214558
1.8474862025485432,0.32695496545094377
1.8424165329548012,0.3339013737029684
1.8373468633610588,0.3409293706636285
1.8322771937673163,0.3480379488059568
1.8272075241735743,0.35522603763821525
1.822137854579832,0.3624925036842582
1.81706818498609,0.36983615048749174
1.8119985153923475,0.37725571862986435
1.8069288457986055,0.3847498857573732
1.801859176204863,0.39231726660394967
1.7967895066111206,0.39995641300603113
1.7917198370173786,0.407665813900905
1.7866501674236361,0.41544389530281395
1.7815804978298941,0.42328902025195836
1.7765108282361517,0.4311994887328742
1.7714411586424093,0.43917353756011174
1.7663714890486673,0.4472093402308129
1.7613018194549248,0.4553050067455437
1.7562321498611828,0.4634585834005061
1.7511624802674404,0.47166805255623967
1.746092810673698,0.4799313323896868
1.741023141079956,0.48824627663845155
1.7359534714862135,0.49661067434778117
1.7308838018924715,0.505022249632456
1.725814132298729,0.5134786614672845
1.720744462704987,0.5219775035211556
1.7156747931112446,0.5305163040506311
1.7106051235175022,0.5390925258698829
1.7055354539237602,0.5477035664142095
1.7004657843300177,0.5563467579145969
1.6953961147362757,0.5650193677005724
1.6903264451425333,0.5737185986482032
1.6852567755487908,0.5824415897892049
1.6801871059550488,0.5911854170960602
1.6751174363613064,0.5999470944565436
1.6700477667675644,0.6087235748493314
1.664978097173822,0.6175117517303683
1.6599084275800795,0.626308460637307
1.6548387579863375,0.6351104810169133
1.649769088392595,0.6439145382775819
1.644699418798853,0.6527173060661934
1.6396297492051106,0.6615154087657029
1.6345600796113682,0.6703054242066163
1.6294904100176262,0.6790838865826152
1.6244207404238837,0.6878472895574573
1.6193510708301417,0.6965920895473936
1.6142814012363993,0.7053147091606058
1.6092117316426573,0.7140115407725792
1.6041420620489149,0.7226789502142004
1.5990723924551724,0.7313132805473457
1.5940027228614304,0.7399108559014091
1.588933053267688,0.7484679853430883
1.583863383673946,0.7569809667512677
1.5787937140802035,0.7654460906688105
1.573724044486461,0.7738596441035747
1.568654374892719,0.7822179142519585
1.5635847052989766,0.7905171921198142
1.5585150357052346,0.7987537760175346
1.5534453661114922,0.8069239749085729
1.5483756965177498,0.8150241115933773
1.5433060269240078,0.8230505257139447
1.5382363573302653,0.830999576567608
1.5331666877365233,0.8388676457222899
1.5280970181427809,0.8466511394293316
1.5230273485490389,0.8543464908338785
1.5179576789552964,0.8619501619868323
1.512888009361554,0.86945864566627
1.507818339767812,0.8768684670200821
1.5027486701740695,0.8841761850452913
1.4976790005803275,0.8913783939228506
1.492609330986585,0.8984717242298802
1.4875396613928427,0.9054528440539328
1.4824699917991007,0.9123184600360635
1.4774003222053582,0.9190653183710924
1.4723306526116162,0.9256902057944629
1.4672609830178738,0.932189950585348
1.4621913134241318,0.9385614236153151
1.457121643830389,0.9448015394707
1.452051974236647,0.950907257674974
1.446982304642905,0.9568755840350106
1.441912635049163,0.9627035721318297
1.43684296545542,0.9683883249730134
1.431773295861678,0.9739269968197821
1.426703626267936,0.9793167951974914
1.4216339566741931,0.9845549830937874
1.4165642870804511,0.9896388813442046
1.4114946174867091,0.9945658712005603
1.4064249478929662,0.9993333970732604
1.4013552782992242,1.0039389694347616
1.3962856087054822,1.0083801678677935
1.3912159391117402,1.0126546442387028
1.3861462695179974,1.01676012597359
1.3810765999242554,1.0206944194122456
1.3760069303305134,1.024455413213092
1.3709372607367705,1.0280410817804526
1.3658675911430285,1.0314494886841734
1.3607979215492865,1.0346787900406427
1.3557282519555445,1.037727237823604
1.3506585823618016,1.0405931830727635
1.3455889127680596,1.0432750789683984
1.3405192431743176,1.0457714837405858
1.3354495735805747,1.0480810633827846
1.3303799039868327,1.0502025941407662
1.3253102343930907,1.0521349647501124
1.3202405647993478,1.0538771783977408
1.3151708952056058,1.05542835438607
1.3101012256118638,1.0567877294818844
1.3050315560181218,1.0579546589356554
1.299961886424379,1.0589286171614491
1.294892216830637,1.0597091980718734
1.289822547236895,1.0602961150671275
1.284752877643152,1.060689200681975
1.27968320804941,1.0608884058988801
1.274613538455668,1.0608937991403313
1.269543868861926,1.060705564957428
1.2644741992681832,1.0603240024360416
1.2594045296744412,1.0597495233454257
1.2543348600806992,1.058982650057494
1.2492651904869563,1.0580240132677203
1.2441955208932143,1.0568743495510335
1.2391258512994723,1.0555344987876047
1.2340561817057294,1.0540054014946063
1.2289865121119874,1.0522880961004757
1.2239168425182454,1.0503837161978211
1.2188471729245034,1.048293487810239
1.2137775033307605,1.0460187267064749
1.2087078337370185,1.0435608357931814
1.2036381641432765,1.040921302614232
1.1985684945495336,1.0381016969811772
1.1934988249557916,1.0351036687550057
1.1884291553620496,1.03192894579507
1.1833594857683067,1.0285793320859606
1.1782898161745647,1.0250567060481321
1.1732201465808227,1.0213630190329395
1.1681504769870807,1.0175002939976932
1.1630808073933379,1.013470624351425
1.1580111377995959,1.0092761729575677
1.1529414682058539,1.0049191712754486
1.147871798612111,1.0004019186189923
1.142802129018369,0.9957267815077686
1.137732459424627,0.9908961930830539
1.132662789830885,0.9859126525597659
1.127593120237142,0.9807787246838277
1.1225234506434,0.9754970391640444
1.117453781049658,0.9700702900476204
1.1123841114559152,0.9645012350092144
1.1073144418621732,0.9587926945246892
1.1022447722684312,0.9529475509026204
1.0971751026746883,0.9469687471489563
1.0921054330809463,0.9408592856431183
1.0870357634872043,0.9346222266070118
1.0819660938934623,0.9282606863520592
1.0768964242997194,0.9217778352932738
1.0718267547059774,0.9151768957235329
1.0667570851122354,0.9084611393454923
1.0616874155184925,0.9016338845630634
1.0566177459247506,0.8946984935387681
1.0515480763310086,0.8876583690276469
1.0464784067372666,0.8805169510027024
1.0414087371435237,0.8732777130907807
1.0363390675497817,0.8659441588414813
1.0312693979560397,0.8585198178549744
1.0261997283622968,0.8510082417973167
1.0211300587685548,0.8434130003340731
1.0160603891748128,0.8357376770145714
1.01099071958107,0.8279858651400784
1.005921049987328,0.8201611636492794
1.000851380393586,0.8122671730539632
0.9957817107998439,0.8043074914566356
0.990712041206101,0.7962857106798755
0.985642371612359,0.788205412534827
0.980572702018617,0.7800701652532868
0.9755030324248741,0.7718835201044434
0.9704333628311321,0.7636490082136694
0.9653636932373901,0.755370137596838
0.9602940236436481,0.7470503904196912
0.9552243540499052,0.7386932204877757
0.9501546844561632,0.7303020509685507
0.9450850148624212,0.7218802723435799
0.9400153452686784,0.7134312405852482
0.9349456756749364,0.7049582755492052
0.9298760060811944,0.6964646595708945
0.9248063364874515,0.6879536362519637
0.9197366668937095,0.6794284094201748
0.9146669972999675,0.6708921422445023
0.9095973277062255,0.6623479564856932
0.9045276581124826,0.6537989318612939
0.8994579885187406,0.6452481055034
0.8943883189249986,0.6366984714868423
0.8893186493312557,0.6281529804055542
0.8842489797375137,0.619614538975078
0.8791793101437717,0.6110860096399438
0.8741096405500297,0.6025702101658286
0.8690399709562868,0.594069913197938
0.8639703013625448,0.5855878457689894
0.8589006317688028,0.5771266887424682
0.8538309621750599,0.5686890761793103
0.8487612925813179,0.5602775946187613
0.8436916229875759,0.5518947822667926
0.838621953393833,0.5435431280879011
0.833552283800091,0.5352250707983425
0.828482614206349,0.5269429977606713
0.8234129446126071,0.5186992437809865
0.8183432750188642,0.5104960898113151
0.8132736054251222,0.5023357615604848
0.8082039358313802,0.49422042801751753
0.8031342662376373,0.4861521998925052
0.7980645966438953,0.47813312798114366
0.7929949270501533,0.4701652014609444
0.7879252574564104,0.4622503461298252
0.7828555878626684,0.45439042260116347
0.7777859182689264,0.44658722447347204
0.7727162486751844,0.43884247649712216
0.7676465790814415,0.4311578327642109
0.7625769094876995,0.42353487494972236
0.7575072398939575,0.41597511063107423
0.7524375703002146,0.4084799717073908
0.7473679007064726,0.40105081292741346
0.7422982311127306,0.39368891051406013
0.7372285615189886,0.38639546084271764
0.7321588919252457,0.3791715790880387
0.7270892223315037,0.37201829770014966
0.7220195527377617,0.36493656450622286
0.7169498831440189,0.35792724015957694
0.7118802135502769,0.35099109457914707
0.7068105439565349,0.34412880194274126
0.701740874362792,0.33734093372483104
0.69667120476905,0.3306279492119988
0.691601535175308,0.32399018289619397
0.686531865581566,0.317427828147855
0.6814621959878231,0.3109409166176061
0.6763925263940811,0.3045292929160293
0.6713228568003391,0.29819258428312534
0.6662531872065962,0.2919301651870461
0.6611835176128542,0.28574111708618993
0.6561138480191122,0.2796241839458863
0.6510441784253702,0.2735777245115586
0.6459745088316273,0.26759966278957814
0.6409048392378853,0.26168743865474575
0.6358351696441433,0.2558379609639071
0.6307655000504004,0.25004756597885186
0.6256958304566584,0.24431198425558723
0.6206261608629164,0.2386263194074533
0.6155564912691736,0.2329850422634607
0.6104868216754316,0.22738200389093813
0.6054171520816896,0.2218104707093738
0.6003474824879476,0.2162631844745483
0.5952778128942047,0.21073244925318158
0.5902081433004627,0.20521024664505005
0.5851384737067207,0.19968837946122422
0.5800688041129778,0.19415864286649914
0.5749991345192358,0.18861302068644267
0.5699294649254938,0.18304390322119735
0.5648597953317518,0.17744432156442094
0.5597901257380089,0.17180819216723237
0.5547204561442669,0.16613056428654543
0.5496507865505249,0.1604078620850707
0.544581116956782,0.1546381125704386
0.53951144736304,0.14882115032623366
0.534441777769298,0.1429587901364623
0.5293721081755551,0.13705495915739446
0.5243024385818131,0.13111578124660686
0.5192327689880711,0.12514960739696976
0.5141630993943291,0.11916698790025454
0.5090934298005863,0.11318058381792537
0.5040237602068443,0.10720501748538647
0.49895409061310225,0.10125666402670415
0.49388442101935937,0.09535338810754808
0.48881475142561737,0.08951423229943647
0.48374508183187537,0.08375906536596098
0.47867541223813337,0.0781082004175615
0.4736057426443905,0.07258199413539859
0.4685360730506485,0.06720043907528633
0.4634664034569065,0.06198276138944666
0.4583967338631636,0.05694703613125957
0.4533270642694216,0.0521098316451148
0.4482573946756796,0.04748589342328634
0.4431877250819367,0.04308787629003663
0.4381180554881947,0.03892613192443872
0.4330483858944527,0.03500855664708654
0.4279787163007107,0.03134050217086933
0.42290904670696783,0.027924749755275244
0.41783937711322583,0.02476154600878618
0.41276970751948383,0.021848696549226696
0.4077000379257406,0.01918171194022138
