5.47229996207426,4.250357392322106e-27
5.467230292480518,5.17947883096633e-27
5.462160622886775,6.287636786405949e-27
5.457090953293033,7.604718618455516e-27
5.452021283699291,9.16490637832773e-27
5.446951614105549,1.10072354358599e-26
5.441881944511806,1.317623213508499e-26
5.436812274918064,1.5722644444108083e-26
5.431742605324322,1.8704281952261207e-26
5.426672935730579,2.2186984212111525e-26
5.421603266136837,2.624573933407287e-26
5.416533596543095,3.0965977928408866e-26
5.411463926949352,3.644507097050374e-26
5.40639425735561,4.2794063966449524e-26
5.401324587761868,5.0139683955107023e-26
5.396254918168126,5.862666045289259e-26
5.391185248574383,6.842040650025396e-26
5.386115578980641,7.971011159707707e-26
5.381045909386899,9.271230463565541e-26
5.3759762397931565,1.0767495209820918e-25
5.3709065701994145,1.2488216495388283e-25
5.3658369006056725,1.446595970694648e-25
5.3607672310119305,1.6738062877059333e-25
5.355697561418188,1.934734417180755e-25
5.350627891824446,2.2342910578822077e-25
5.345558222230704,2.5781081548763983e-25
5.340488552636961,2.9726443294053217e-25
5.335418883043219,3.425305170390267e-25
5.330349213449477,3.9445804435324326e-25
5.325279543855734,4.54020057299747e-25
5.320209874261992,5.223315093464831e-25
5.31514020466825,6.006696162153421e-25
5.310070535074508,6.904970667119815e-25
5.305000865480765,7.9348849761773e-25
5.299931195887023,9.115606947525296e-25
5.294861526293281,1.0469070476978001e-24
5.289791856699538,1.2020368597096423e-24
5.284722187105796,1.3798201981614963e-24
5.279652517512054,1.5835390657044787e-24
5.274582847918312,1.8169457796951003e-24
5.269513178324569,2.0843295690169223e-24
5.264443508730827,2.390592535169259e-24
5.259373839137085,2.7413362806637488e-24
5.254304169543342,3.1429606849249246e-24
5.2492344999496,3.6027765089694276e-24
5.244164830355858,4.129133738465129e-24
5.2390951607621155,4.731567834112183e-24
5.2340254911683735,5.42096635290514e-24
5.2289558215746315,6.209758738520932e-24
5.2238861519808895,7.112132459230406e-24
5.218816482387147,8.144279103438884e-24
5.213746812793405,9.324674533048887e-24
5.208677143199663,1.0674397751018911e-23
5.20360747360592,1.2217493770419823e-23
5.198537804012178,1.3981386487764192e-23
5.193468134418436,1.5997348374428496e-23
5.188398464824694,1.830103471905771e-23
5.183328795230951,2.0933091195055192e-23
5.178259125637209,2.3939844706507566e-23
5.173189456043467,2.737408880122897e-23
5.168119786449724,3.129597645135439e-23
5.163050116855982,3.5774034713150265e-23
5.15798044726224,4.0886317714449527e-23
5.152910777668497,4.6721716609734576e-23
5.147841108074755,5.338144762267239e-23
5.142771438481013,6.098074210127398e-23
5.137701768887271,6.965076568407538e-23
5.132632099293528,7.954079726461038e-23
5.127562429699786,9.082070249958354e-23
5.122492760106044,1.0368374119430903e-22
5.117423090512301,1.1834975308523473e-22
5.112353420918559,1.3506877240084427e-22
5.107283751324817,1.541251282054609e-22
5.102214081731075,1.7584209501295656e-22
5.097144412137332,2.0058716660931298e-22
5.09207474254359,2.2877803556780654e-22
5.087005072949848,2.6088937171807176e-22
5.0819354033561055,2.9746050499691e-22
5.0768657337623635,3.3910413184165476e-22
5.0717960641686215,3.8651617978467837e-22
5.066726394574879,4.4048698239385065e-22
5.061656724981137,5.019139364306666e-22
5.056587055387395,5.71815835348116e-22
5.051517385793652,6.5134909834218875e-22
5.04644771619991,7.418261424630155e-22
5.041378046606168,8.447361771855552e-22
5.036308377012426,9.617687367872223e-22
5.031238707418683,1.094840306390055e-21
5.026169037824941,1.2461244431667093e-21
5.021099368231199,1.4180858456254333e-21
5.016029698637456,1.6135188817965391e-21
5.010960029043714,1.8355911523524667e-21
5.005890359449972,2.0878927381113203e-21
5.00082068985623,2.374491864017324e-21
4.995751020262487,2.6999978047081975e-21
4.990681350668745,3.069631961448637e-21
4.985611681075003,3.489308157975701e-21
4.98054201148126,3.9657233352778436e-21
4.975472341887518,4.506459974334032e-21
4.970402672293776,5.120101743404289e-21
4.965333002700033,5.816364054866529e-21
4.960263333106291,6.606241428401824e-21
4.955193663512549,7.502173795401883e-21
4.950123993918807,8.518234147016093e-21
4.945054324325064,9.67034022887787e-21
4.939984654731322,1.0976493323261313e-20
4.93491498513758,1.2457047538738737e-20
4.929845315543838,1.4135013453353946e-20
4.9247756459500955,1.603640043555433e-20
4.9197059763563535,1.8190602503904122e-20
4.9146363067626115,2.063083318899377e-20
4.909566637168869,2.3394615536792358e-20
4.904496967575127,2.6524334150775605e-20
4.899427297981385,3.006785702028322e-20
4.894357628387642,3.4079235835647114e-20
4.8892879587939,3.861949455895831e-20
4.884218289200158,4.375751721652481e-20
4.879148619606415,4.9571047220346895e-20
4.874078950012673,5.614781202840067e-20
4.869009280418931,6.358678863616163e-20
4.863939610825189,7.199962727585756e-20
4.858869941231446,8.151225280929104e-20
4.853800271637704,9.226666566115391e-20
4.848730602043962,1.0442296678238375e-19
4.843660932450219,1.1816163409033017e-19
4.838591262856477,1.3368608114154242e-19
4.833521593262735,1.5122553249519019e-19
4.828451923668993,1.7103825436661708e-19
4.82338225407525,1.9341518380322826e-19
4.818312584481508,2.1868400479597073e-19
4.813242914887766,2.472137255336956e-19
4.808173245294023,2.7941981748563e-19
4.803103575700281,3.157699842391762e-19
4.798033906106539,3.567906361144608e-19
4.7929642365127965,4.0307415562184244e-19
4.7878945669190545,4.552870489338904e-19
4.7828248973253125,5.141790898305758e-19
4.7777552277315705,5.805935751806801e-19
4.772685558137828,6.554788250950554e-19
4.767615888544086,7.399010765950057e-19
4.762546218950344,8.350589371691284e-19
4.757476549356601,9.422995841510445e-19
4.752406879762859,1.0631369176714672e-18
4.747337210169117,1.199271899277955e-18
4.742267540575375,1.35261533546108e-18
4.737197870981632,1.5253133955982517e-18
4.73212820138789,1.7197761875785924e-18
4.727058531794148,1.9387097520005426e-18
4.721988862200405,2.1851518777717394e-18
4.716919192606663,2.4625121886729217e-18
4.711849523012921,2.774617002503915e-18
4.706779853419178,3.1257595223931126e-18
4.701710183825436,3.5207559843697216e-18
4.696640514231694,3.9650084570738185e-18
4.691570844637952,4.464575069290535e-18
4.686501175044209,5.026248529706616e-18
4.681431505450467,5.65764390184348e-18
4.676361835856725,6.367296706588862e-18
4.671292166262982,7.164772546300394e-18
4.66622249666924,8.060789579430159e-18
4.661152827075498,9.067355324504094e-18
4.656083157481756,1.0197919438766323e-17
4.651013487888013,1.1467544301778675e-17
4.645943818294271,1.289309543986464e-17
4.640874148700529,1.449345405591894e-17
4.6358044791067865,1.6289754183403673e-17
4.6307348095130445,1.8305647266299685e-17
4.6256651399193025,2.0567597281594804e-17
4.62059547032556,2.3105209871097537e-17
4.615525800731818,2.5951599338831467e-17
4.610456131138076,2.914379780310574e-17
4.605386461544334,3.272321127302684e-17
4.600316791950591,3.6736127952564825e-17
4.595247122356849,4.1234284666449375e-17
4.590177452763107,4.627549795685444e-17
4.585107783169364,5.192436712413191e-17
4.580038113575622,5.82530572856864e-17
4.57496844398188,6.534217141196817e-17
4.569898774388138,7.328172127600003e-17
4.564829104794395,8.217220833253489e-17
4.559759435200653,9.212582673557753e-17
4.554689765606911,1.0326780202101019e-16
4.549620096013168,1.157378804380941e-16
4.544550426419426,1.2969198552543836e-16
4.539480756825684,1.4530406031085328e-16
4.534411087231941,1.6276811548965102e-16
4.529341417638199,1.8230050612378616e-16
4.524271748044457,2.041424618280587e-16
4.519202078450714,2.2856289809461735e-16
4.514132408856972,2.558615393811441e-16
4.50906273926323,2.863723878808855e-16
4.503993069669488,3.204675755362576e-16
4.498923400075745,3.585616408871843e-16
4.493853730482003,4.011162767979475e-16
4.488784060888261,4.486456000234532e-16
4.483714391294519,5.017219990017534e-16
4.4786447217007765,5.609826222443512e-16
4.4735750521070345,6.271365762925068e-16
4.4685053825132925,7.00972909477527e-16
4.46343571291955,7.833694657308046e-16
4.458366043325808,8.753027015103261e-16
4.453296373732066,9.778585686246383e-16
4.448226704138323,1.0922445764326956e-15
4.443157034544581,1.219803158678796e-15
4.438087364950839,1.3620264831948443e-15
4.433017695357096,1.5205728569877917e-15
4.427948025763354,1.6972848949652122e-15
4.422878356169612,1.894209637885389e-15
4.41780868657587,2.1136208242188353e-15
4.412739016982127,2.3580435416704005e-15
4.407669347388385,2.630281507349226e-15
4.402599677794643,2.9334472512395356e-15
4.397530008200901,3.270995505994747e-15
4.392460338607158,3.646760137471685e-15
4.387390669013416,4.064994985182256e-15
4.382320999419674,4.530419020349455e-15
4.377251329825931,5.048266271899884e-15
4.372181660232189,5.624341017913583e-15
4.367111990638447,6.265078792161141e-15
4.362042321044704,6.977613812733319e-15
4.356972651450962,7.769853502699767e-15
4.35190298185722,8.650560841418028e-15
4.3468333122634775,9.629445359652694e-15
4.3417636426697355,1.0717263672082688e-14
4.3366939730759935,1.1925930527006516e-14
4.3316243034822515,1.3268641445029521e-14
4.326554633888509,1.4760008116257836e-14
4.321484964294767,1.641620782922681e-14
4.316415294701025,1.8255148315067125e-14
4.311345625107283,2.0296649508381268e-14
4.30627595551354,2.2562643853908944e-14
4.301206285919798,2.5077396928100558e-14
4.296136616326056,2.7867750301098116e-14
4.291066946732313,3.096338874222044e-14
4.285997277138571,3.43971340767139e-14
4.280927607544829,3.820526823961405e-14
4.275857937951086,4.2427888350483116e-14
4.270788268357344,4.7109296956333546e-14
4.265718598763602,5.229843096347345e-14
4.260648929169859,5.804933320415583e-14
4.255579259576117,6.442167105967732e-14
4.250509589982375,7.148130708309497e-14
4.245439920388633,7.930092712368001e-14
4.24037025079489,8.796073204051762e-14
4.235300581201148,9.754919969146745e-14
4.230230911607406,1.0816392448417608e-13
4.225161242013664,1.199125423692005e-13
4.220091572419921,1.3291374973959914e-13
4.215021902826179,1.472984252834433e-13
4.209952233232437,1.6321086443424426e-13
4.204882563638694,1.8081013670956826e-13
4.199812894044952,2.002715769617783e-13
4.19474322445121,2.2178842243565095e-13
4.1896735548574675,2.4557360858610925e-13
4.1846038852637255,2.7186173790071934e-13
4.1795342156699835,3.009112375264602e-13
4.174464546076241,3.3300672332696434e-13
4.169394876482499,3.684615900756038e-13
4.164325206888757,4.0762084977098716e-13
4.159255537295014,4.5086424246671984e-13
4.154185867701272,4.986096464412569e-13
4.14911619810753,5.513168168968078e-13
4.144046528513788,6.094914845866575e-13
4.138976858920046,6.73689847787358e-13
4.133907189326303,7.445234928765509e-13
4.128837519732561,8.226647805510343e-13
4.123767850138819,9.088527366143892e-13
4.118698180545076,1.0038994885542176e-12
4.113628510951334,1.1086972921605262e-12
4.108558841357592,1.2242261965832577e-12
4.103489171763849,1.3515624018503916e-12
4.098419502170107,1.4918873702613108e-12
4.093349832576365,1.646497762398401e-12
4.088280162982622,1.8168162797516484e-12
4.08321049338888,2.004403508906242e-12
4.078140823795138,2.210970876454615e-12
4.073071154201395,2.43839483861061e-12
4.068001484607653,2.688732444117404e-12
4.062931815013911,2.9642384225618397e-12
4.057862145420169,3.2673839617679904e-12
4.052792475826427,3.6008773468175038e-12
4.047722806232684,3.96768663895642e-12
4.042653136638942,4.371064575093663e-12
4.0375834670452,4.814575868112991e-12
4.0325137974514575,5.302127085633616e-12
4.0274441278577156,5.837999281493629e-12
4.0223744582639736,6.426883551853584e-12
4.017304788670231,7.073919688528672e-12
4.012235119076489,7.7847381082702e-12
4.007165449482747,8.565505250543106e-12
4.002095779889004,9.422972660021956e-12
3.997026110295262,1.0364530005298542e-11
3.99195644070152,1.1398262333292746e-11
3.9868867711077773,1.2533011919949092e-11
3.981817101514035,1.3778445151462281e-11
3.976747431920293,1.5145124954987795e-11
3.971677762326551,1.664458939109471e-11
3.9666080927328085,1.828943711875016e-11
3.961538423139066,2.0093420543330957e-11
3.956468753545324,2.2071547554503088e-11
3.9513990839515816,2.4240192849143133e-11
3.946329414357839,2.661721991037154e-11
3.941259744764097,2.9222114773489523e-11
3.936190075170355,3.207613275045491e-11
3.9311204055766122,3.5202459305325065e-11
3.9260507359828702,3.8626386274432744e-11
3.9209810663891282,4.237550460961316e-11
3.915911396795386,4.647991479535939e-11
3.9108417272016434,5.0972456058344766e-11
3.9057720576079014,5.588895545912029e-11
3.900702388014159,6.126849794136878e-11
3.8956327184204165,6.715371842520245e-11
3.8905630488266745,7.35911170792141e-11
3.8854933792329325,8.06313990022836e-11
3.88042370963919,8.832983970003255e-11
3.8753540400454476,9.674667795942825e-11
3.8702843704517056,1.059475380123287e-10
3.865214700857963,1.160038832348546e-10
3.8601450312642207,1.2699350405028183e-10
3.8550753616704787,1.3900104318029306e-10
3.8500056920767363,1.521185619102752e-10
3.844936022482994,1.6644615158300177e-10
3.839866352889252,1.8209259509287203e-10
3.83479668329551,1.9917608370004137e-10
3.8297270137017674,2.1782499500067624e-10
3.824657344108025,2.381787383584075e-10
3.819587674514283,2.603886745085036e-10
3.8145180049205405,2.8461911638105804e-10
3.809448335326798,3.1104841844950187e-10
3.804378665733056,3.3987016210034493e-10
3.799308996139314,3.7129444465072435e-10
3.7942393265455716,4.055492797317371e-10
3.789169656951829,4.4288211683362123e-10
3.784099987358087,4.835614879054954e-10
3.7790303177643447,5.278787890529859e-10
3.7739606481706023,5.761502056188292e-10
3.7688909785768603,6.287187893006926e-10
3.763821308983118,6.85956696489303e-10
3.7587516393893754,7.482675977254641e-10
3.7536819697956334,8.160892690950249e-10
3.7486123002018914,8.898963775149852e-10
3.743542630608149,9.702034732099496e-10
3.7384729610144065,1.0575682042236969e-09
3.7334032914206645,1.1525947695332052e-09
3.728333621826922,1.2559376292019991e-09
3.7232639522331796,1.36830549198962e-09
3.7181942826394376,1.4904656028866802e-09
3.7131246130456956,1.6232483551307197e-09
3.7080549434519527,1.7675522533442168e-09
3.7029852738582107,1.9243492564947724e-09
3.6979156042644687,2.0946905313925693e-09
3.6928459346707263,2.2797126494044537e-09
3.687776265076984,2.4806442609885964e-09
3.682706595483242,2.6988132845560734e-09
3.6776369258894994,2.9356546480816554e-09
3.672567256295757,3.1927186238574838e-09
3.667497586702015,3.4716797988639598e-09
3.662427917108273,3.77434672547413e-09
3.6573582475145305,4.102672299670931e-09
3.652288577920788,4.458764916692333e-09
3.647218908327046,4.8449004570739736e-09
3.6421492387333037,5.263535159470319e-09
3.637079569139561,5.717319440427399e-09
3.632009899545819,6.209112725469647e-09
3.626940229952077,6.7419993604463025e-09
3.6218705603583343,7.3193056770546475e-09
3.6168008907645923,7.944618291797998e-09
3.6117312211708503,8.621803723328258e-09
3.606661551577108,9.35502941913444e-09
3.6015918819833654,1.0148786288863188e-08
3.5965222123896234,1.100791284817137e-08
3.591452542795881,1.1937621083914137e-08
3.5863828732021386,1.2943524158671764e-08
3.5813132036083966,1.4031666080137649e-08
3.5762435340146546,1.5208553468752067e-08
3.571173864420912,1.6481189565220223e-08
3.5661041948271697,1.785711062824921e-08
3.5610345252334277,1.934442488202902e-08
3.5559648556396852,2.0951854182730184e-08
3.550895186045943,2.2688778583651352e-08
3.545825516452201,2.4565283989686434e-08
3.540755846858459,2.6592213103526987e-08
3.535686177264716,2.878121987852905e-08
3.530616507670974,3.114482770648247e-08
3.525546838077232,3.3696491582648964e-08
3.5204771684834895,3.645066450539758e-08
3.515407498889747,3.942286838359924e-08
3.510337829296005,4.262976974163618e-08
3.5052681597022626,4.608926052946457e-08
3.50019849010852,4.982054436365623e-08
3.495128820514778,5.384422854478932e-08
3.490059150921036,5.818242221694818e-08
3.4849894813272937,6.285884105653455e-08
3.4799198117335512,6.789891890010664e-08
3.4748501421398093,7.332992674464615e-08
3.469780472546067,7.918109957856169e-08
3.4647108029523244,8.548377152796202e-08
3.4596411333585824,9.227151983040135e-08
3.45457146376484,9.958031817741123e-08
3.449501794171098,1.0744869999785907e-07
3.4444321245773555,1.1591793228656805e-07
3.439362454983613,1.2503220061671814e-07
3.434292785389871,1.3483880601049685e-07
3.4292231157961286,1.4538837438022492e-07
3.4241534462023866,1.567350792919129e-07
3.419083776608644,1.6893687884491275e-07
3.414014107014902,1.8205576750504644e-07
3.4089444374211597,1.9615804377452587e-07
3.4038747678274173,2.1131459462995883e-07
3.3988050982336753,2.2760119771014395e-07
3.393735428639933,2.450988422880047e-07
3.388665759046191,2.6389407011616534e-07
3.3835960894524484,2.8407933729345437e-07
3.378526419858706,3.0575339835998597e-07
3.373456750264964,3.2902171389178676e-07
3.3683870806712215,3.539968829321138e-07
3.3633174110774795,3.8079910166589796e-07
3.358247741483737,4.095566498163409e-07
3.3531780718899946,4.404064063184892e-07
3.3481084022962526,4.734943959040811e-07
3.34303873270251,5.089763683148879e-07
3.337969063108768,5.470184119484603e-07
3.3328993935150257,5.877976038309004e-07
3.3278297239212833,6.315026979055792e-07
3.3227600543275413,6.783348537255552e-07
3.317690384733799,7.285084077400954e-07
3.312620715140057,7.822516894728112e-07
3.3075510455463144,8.398078850006514e-07
3.3024813759525724,9.014359502588469e-07
3.29741170635883,9.674115768180976e-07
3.2923420367650875,1.038028212905769e-06
3.2872723671713455,1.113598142573901e-06
3.282202697577603,1.1944536260527188e-06
3.277133027983861,1.2809481044698438e-06
3.2720633583901186,1.3734574722624103e-06
3.266993688796376,1.4723814207619178e-06
3.261924019202634,1.5781448565904964e-06
3.2568543496088918,1.6911993986718912e-06
3.2517846800151498,1.8120249578312483e-06
3.2467150104214073,1.9411314031355583e-06
3.241645340827665,2.0790603193099512e-06
3.236575671233923,2.226386859755984e-06
3.2315060016401804,2.383721699895275e-06
3.2264363320464384,2.5517130957657837e-06
3.221366662452696,2.731049053010004e-06
3.216296992858954,2.9224596116122427e-06
3.2112273232652115,3.126719251968542e-06
3.206157653671469,3.3446494281058663e-06
3.201087984077727,3.577121234108338e-06
3.1960183144839847,3.8250582100573524e-06
3.1909486448902427,4.089439294048327e-06
3.1858789752965,4.371301927113062e-06
3.1808093057027578,4.671745318147785e-06
3.1757396361090158,4.991933876230325e-06
3.1706699665152733,5.3331008179979265e-06
3.1656002969215313,5.696551958056309e-06
3.160530627327789,6.083669690697846e-06
3.1554609577340464,6.495917171520891e-06
3.1503912881403044,6.934842707868492e-06
3.145321618546562,7.402084367336323e-06
3.14025194895282,7.899374813941779e-06
3.1351822793590776,8.428546381897887e-06
3.130112609765335,8.991536397292546e-06
3.125042940171593,9.59039275834462e-06
3.1199732705778507,1.0227279785283033e-05
3.1149036009841087,1.0904484351279832e-05
3.1098339313903662,1.1624422306264707e-05
3.1047642617966242,1.2389645205846574e-05
3.099694592202882,1.3202847357982675e-05
3.0946249226091394,1.4066873200449851e-05
3.0895552530153974,1.4984725022603973e-05
3.084485583421655,1.5959571045344292e-05
3.079415913827913,1.6994753873644734e-05
3.0743462442341705,1.8093799336463154e-05
3.069276574640428,1.926042572929827e-05
3.064206905046686,2.0498553475127308e-05
3.0591372354529436,2.1812315219932707e-05
3.0540675658592016,2.3206066379500113e-05
3.048997896265459,2.4684396154662042e-05
3.0439282266717167,2.6252139032645093e-05
3.0388585570779747,2.791438679268247e-05
3.0337888874842323,2.9676501034551418e-05
3.0287192178904903,3.154412624920057e-05
3.023649548296748,3.35232034511467e-05
3.018579878703006,3.561998439282375e-05
3.0135102091092634,3.78410463815926e-05
3.008440539515521,4.019330772062025e-05
3.003370869921779,4.268404379536327e-05
2.9983012003280365,4.5320903827896315e-05
2.9932315307342945,4.8111928321836144e-05
2.988161861140552,5.106556722112347e-05
2.9830921915468096,5.4190698806420113e-05
2.9780225219530676,5.749664935338639e-05
2.972952852359325,6.09932135775891e-05
2.967883182765583,6.469067589127748e-05
2.9628135131718407,6.859983249775457e-05
2.9577438435780983,7.273201434953016e-05
2.9526741739843563,7.709911099691863e-05
2.947604504390614,8.171359535420115e-05
2.942534834796872,8.658854941090163e-05
2.9374651652031294,9.173769091618988e-05
2.932395495609387,9.717540106481292e-05
2.927325826015645,0.00010291675321338613
2.9222561564219025,0.0001089775426562512
2.9171864868281605,0.00011537431749046573
2.912116817234418,0.00012212441059985984
2.907047147640676,0.00012924597278837283
2.9019774780469336,0.00013675800709321396
2.896907808453191,0.00014468040430861472
2.891838138859449,0.0001530339797511908
2.8867684692657067,0.0001618405112981165
2.8816987996719647,0.0001711227787294563
2.8766291300782223,0.00018090460440615437
2.87155946048448,0.0001912108953151994
2.866489790890738,0.00020206768651359044
2.8614201212969954,0.00021350218600266787
2.8563504517032534,0.00022554282106433167
2.851280782109511,0.00023821928609060462
2.8462111125157685,0.000251562591937789
2.8411414429220265,0.0002656051168363139
2.836071773328284,0.0002803806588870939
2.831002103734542,0.00029592449017487306
2.8259324341407996,0.0003122734125287265
2.8208627645470576,0.00032946581495934673
2.815793094953315,0.00034754173280234147
2.8107234253595728,0.0003665429085960845
2.8056537557658308,0.00038651285472210813
2.8005840861720883,0.0004074969178352182
2.7955144165783463,0.00042954234510973277
2.790444746984604,0.00045269835232737975
2.7853750773908614,0.00047701619383135806
2.7803054077971194,0.0005025492343700585
2.775235738203377,0.0005293530228527568
2.770166068609635,0.0005574853680383232
2.7650963990158925,0.0005870064161767218
2.76002672942215,0.0006179787306215046
2.754957059828408,0.0006504673734301376
2.7498873902346657,0.0006845399889671336
2.7448177206409237,0.0007202668895234044
2.739748051047181,0.0007577211429632273
2.734678381453439,0.0007969786624083445
2.729608711859697,0.0008381182979665447
2.7245390422659543,0.0008812219305099155
2.7194693726722123,0.0009263745675055406
2.71439970307847,0.0009736644408990861
2.709330033484728,0.0010231831070489526
2.7042603638909855,0.001075025548706178
2.699190694297243,0.0011292902790321815
2.694121024703501,0.0011860794476436975
2.6890513551097586,0.001245498948671036
2.6839816855160166,0.0013076585308124402
2.678912015922274,0.0013726719093642588
2.6738423463285317,0.0014406568802027364
2.6687726767347897,0.0015117354356899229
2.6637030071410472,0.0015860338824722048
2.6586333375473052,0.001663682961136023
2.653563667953563,0.0017448179676815116
2.6484939983598204,0.0018295788767701759
2.6434243287660784,0.0019181104666988727
2.638354659172336,0.0020105624460474716
2.633284989578594,0.0021070895819430974
2.6282153199848515,0.002207851829879284
2.6231456503911095,0.002313014465023052
2.618075980797367,0.0024227482149385897
2.6130063112036246,0.0025372293936500425
2.6079366416098826,0.0026566400369619804
2.60286697201614,0.002781168038949395
2.597797302422398,0.0029110072895244432
2.5927276328286557,0.0030463578129813398
2.5876579632349133,0.003187425907414608
2.5825882936411713,0.003334424284900771
2.577518624047429,0.0034875722123270804
2.572448954453687,0.0036470956527449422
2.5673792848599444,0.0038132274071197812
2.562309615266202,0.003986207256342456
2.55723994567246,0.004166282103361546
2.5521702760787175,0.004353706115288984
2.5471006064849755,0.004548740865325147
2.542030936891233,0.0047516554743435935
2.5369612672974906,0.00496272675196773
2.5318915977037486,0.005182239336966829
2.526821928110006,0.005410485836790753
2.521752258516264,0.005647766966056315
2.5166825889225217,0.005894391683792385
2.5116129193287797,0.00615067732924256
2.5065432497350373,0.00641694975601909
2.501473580141295,0.006693543464393365
2.496403910547553,0.006980801731503026
2.4913342409538104,0.00727907673924786
2.4862645713600684,0.007588729699640261
2.481194901766326,0.007910130977369914
2.4761252321725835,0.008243660209334546
2.4710555625788415,0.00858970642088315
2.465985892985099,0.008948668138511232
2.460916223391357,0.009320953498740153
2.4558465537976146,0.009706980352908736
2.450776884203872,0.010107176367595692
2.44570721461013,0.010521979120388771
2.4406375450163877,0.010951836190708148
2.4355678754226457,0.011397205245385778
2.4304982058289033,0.011858554118698777
2.4254285362351613,0.012336360886546285
2.420358866641419,0.012831113934456309
2.4152891970476764,0.013343312019101989
2.4102195274539344,0.013873464323002913
2.405149857860192,0.01442209050208066
2.40008018826645,0.014989720725734696
2.3950105186727075,0.015576895709098475
2.389940849078965,0.016184166737131488
2.384871179485223,0.016812095680200756
2.3798015098914806,0.017461255000797822
2.3747318402977386,0.01813222775103652
2.369662170703996,0.018825607560572128
2.3645925011102538,0.019541998614578983
2.3595228315165118,0.020282015621421533
2.3544531619227693,0.02104628376965184
2.3493834923290273,0.02183543867396196
2.344313822735285,0.022650126309721616
2.3392441531415424,0.02349100293572814
2.3341744835478004,0.02435873500479567
2.329104813954058,0.025253999061813005
2.324035144360316,0.026177481628896163
2.3189654747665736,0.027129879077271563
2.3138958051728316,0.028111897485519677
2.308826135579089,0.02912425248382404
2.3037564659853467,0.030167669083867088
2.2986867963916047,0.031242881494029536
2.2936171267978622,0.032350632919557115
2.2885474572041202,0.03349167534736661
2.283477787610378,0.03466676931518628
2.2784081180166353,0.035876683664731235
2.2733384484228933,0.03712219527863987
2.268268778829151,0.03840408880091918
2.263199109235409,0.039723156340664416
2.2581294396416665,0.04108019715885261
2.253059770047924,0.04247601733803385
2.247990100454182,0.0439114294347755
2.2429204308604396,0.045387252114753404
2.2378507612666976,0.04690430977041162
2.232781091672955,0.048463432121157994
2.2277114220792127,0.05006545379609509
2.2226417524854707,0.05171121389932988
2.2175720828917282,0.05340155555794264
2.2125024132979862,0.055137325452733615
2.207432743704244,0.05691937333191018
2.202363074110502,0.05874855150790362
2.1972934045167594,0.06062571433755025
2.192223734923017,0.06255171768589177
2.187154065329275,0.0645274183738861
2.1820843957355325,0.06655367361033449
2.1770147261417905,0.06863134040835339
2.171945056548048,0.07076127498673244
2.1668753869543056,0.07294433215651693
2.1618057173605636,0.07518136469316446
2.156736047766821,0.07747322269461093
2.151666378173079,0.07982075292556169
2.1465967085793367,0.08222479814831614
2.1415270389855943,0.0846861964403894
2.1364573693918523,0.08720578049917317
2.13138769979811,0.0897843769338278
2.126318030204368,0.0924228055445532
2.1212483606106254,0.09512187858934149
2.1161786910168834,0.09788240003824389
2.111109021423141,0.10070516481514562
2.1060393518293985,0.10359095802696415
2.1009696822356565,0.10654055418014256
2.095900012641914,0.10955471638423676
2.090830343048172,0.11263419554234727
2.0857606734544296,0.11577972952809669
2.080691003860687,0.11899204234879476
2.075621334266945,0.12227184329440963
2.0705516646732027,0.12561982607192487
2.0654819950794607,0.12903666792464483
2.0604123254857183,0.13252302873600863
2.055342655891976,0.13607955011748224
2.050272986298234,0.13970685448012043
2.0452033167044914,0.14340554408944634
2.0401336471107494,0.1471762001033464
2.035063977517007,0.15101938159279074
2.0299943079232645,0.15493562454527285
2.0249246383295225,0.15892544085104057
2.01985496873578,0.162989317272312
2.014785299142038,0.16712771439590957
2.0097156295482956,0.1713410655699404
2.0046459599545536,0.1756297758254105
1.9995762903608112,0.17999422078396082
1.9945066207670687,0.18443474555318257
1.9894369511733268,0.18895166361135307
1.9843672815795843,0.19354525568373215
1.9792976119858423,0.19821576861297782
1.9742279423920999,0.20296341422658423
1.9691582727983574,0.2077883682046536
1.9640886032046154,0.21269076895167982
1.959018933610873,0.217670716476402
1.953949264017131,0.2227282712841159
1.9488795944233885,0.2278634532861741
1.943809924829646,0.23307624073163818
1.938740255235904,0.23836656916630028
1.9336705856421617,0.24373433042442041
1.9286009160484197,0.24917937165860762
1.9235312464546772,0.2547014944132769
1.9184615768609352,0.2603004537470045
1.9133919072671928,0.26597595740890684
1.9083222376734503,0.27172766507387736
1.9032525680797083,0.27755518764111586
1.8981828984859659,0.28345808659984
1.8931132288922239,0.28943587346553074
1.8880435592984814,0.29548800928926605
1.882973889704739,0.3016139042419953
1.877904220110997,0.3078129172746679
1.8728345505172546,0.3140843558542505
1.8677648809235126,0.32042747577466696
1.8626952113297701,0.326841481040681
1.8576255417360277,0.33332552382177333
1.8525558721422857,0.3398787044720304
1.8474862025485432,0.34650007161110624
1.8424165329548012,0.35318862226043635
1.8373468633610588,0.3599433020280262
1.8322771937673163,0.36676300533445877
1.8272075241735743,0.3736465756721217
1.822137854579832,0.3805928058892347
1.81706818498609,0.38760043848994113
1.8119985153923475,0.3946681659416394
1.8069288457986055,0.40179463098077156
1.801859176204863,0.4089784269085676
1.7967895066111206,0.4162180978687399
1.7917198370173786,0.42351213909978425
1.7866501674236361,0.43085899715544373
1.7815804978298941,0.43825707008797077
1.7765108282361517,0.44570470759010006
1.7714411586424093,0.45320021109309033
1.7663714890486673,0.4607418338197262
1.7613018194549248,0.46832778079295856
1.7562321498611828,0.4759562088025224
1.7511624802674404,0.4836252263338024
1.746092810673698,0.49133289346499276
1.741023141079956,0.4990772217404039
1.7359534714862135,0.5068561740295366
1.7308838018924715,0.5146676643830903
1.725814132298729,0.5225095578986201
1.720744462704987,0.5303796706097358
1.7156747931112446,0.5382757694138796
1.7106051235175022,0.5461955720544095
1.7055354539237602,0.554136747173354
1.7004657843300177,0.5620969144513036
1.6953961147362757,0.5700736448509424
1.6903264451425333,0.5780644609802308
1.6852567755487908,0.5860668375905925
1.6801871059550488,0.5940782022243947
1.6751174363613064,0.6020959360247287
1.6700477667675644,0.6101173747187618
1.664978097173822,0.6181398097841668
1.6599084275800795,0.6261604898058449
1.6548387579863375,0.6341766220278425
1.649769088392595,0.6421853741027584
1.644699418798853,0.6501838760381654
1.6396297492051106,0.6581692223367619
1.6345600796113682,0.6661384743239863
1.6294904100176262,0.674088662653891
1.6244207404238837,0.6820167899812055
1.6193510708301417,0.6899198337846292
1.6142814012363993,0.697794749323868
1.6092117316426573,0.7056384727103989
1.6041420620489149,0.7134479240699372
1.5990723924551724,0.7212200107727259
1.5940027228614304,0.728951630706461
1.588933053267688,0.7366396755657033
1.583863383673946,0.7442810341311739
1.5787937140802035,0.7518725955124277
1.573724044486461,0.7594112523278412
1.568654374892719,0.7668939037970033
1.5635847052989766,0.7743174587220243
1.5585150357052346,0.7816788383363099
1.5534453661114922,0.7889749790016749
1.5483756965177498,0.7962028347374696
1.5433060269240078,0.8033593795684516
1.5382363573302653,0.8104416096814344
1.5331666877365233,0.8174465453843737
1.5280970181427809,0.8243712328651605
1.5230273485490389,0.8312127457512588
1.5179576789552964,0.8379681864750946
1.512888009361554,0.8446346874538948
1.507818339767812,0.8512094120963415
1.5027486701740695,0.8576895556519032
1.4976790005803275,0.8640723459218896
1.492609330986585,0.8703550438542547
1.4875396613928427,0.8765349440465915
1.4824699917991007,0.8826093751837781
1.4774003222053582,0.8885757004382605
1.4723306526116162,0.8944313178616969
1.4672609830178738,0.9001736607970118
1.4621913134241318,0.9058001983393142
1.457121643830389,0.9113084358730573
1.452051974236647,0.9166959157109302
1.446982304642905,0.9219602178575276
1.441912635049163,0.9270989609177954
1.43684296545542,0.9321098031667882
1.431773295861678,0.9369904437933414
1.426703626267936,0.941738624326142
1.4216339566741931,0.946352130246481
1.4165642870804511,0.9508287927875528
1.4114946174867091,0.9551664909161598
1.4064249478929662,0.959363153488584
1.4013552782992242,0.9634167615687248
1.3962856087054822,0.9673253508933041
1.3912159391117402,0.9710870144658413
1.3861462695179974,0.9746999052585782
1.3810765999242554,0.9781622389992543
1.3760069303305134,0.9814722970177954
1.3709372607367705,0.9846284291264044
1.3658675911430285,0.9876290565054112
1.3607979215492865,0.9904726745663025
1.3557282519555445,0.9931578557628667
1.3506585823618016,0.9956832523211188
1.3455889127680596,0.9980475988588527
1.3405192431743176,1.0002497148661995
1.3354495735805747,1.0022885070195386
1.3303799039868327,1.0041629713024431
1.3253102343930907,1.005872194909344
1.3202405647993478,1.0074153579097442
1.3151708952056058,1.0087917346537898
1.3101012256118638,1.0100006949029567
1.3050315560181218,1.0110417046734559
1.299961886424379,1.0119143267834956
1.294892216830637,1.0126182210998527
1.289822547236895,1.013153144483253
1.284752877643152,1.013518950436396
1.27968320804941,1.0137155884625304
1.274613538455668,1.0137431031468522
1.269543868861926,1.0136016329765025
1.2644741992681832,1.0132914089189893
1.2594045296744412,1.0128127527818904
1.2543348600806992,1.0121660753797552
1.2492651904869563,1.0113518745366985
1.2441955208932143,1.0103707329551033
1.2391258512994723,1.0092233159824098
1.2340561817057294,1.0079103693089901
1.2289865121119874,1.0064327166303406
1.2239168425182454,1.004791257306635
1.2188471729245034,1.0029869640516949
1.2137775033307605,1.0010208806819099
1.2087078337370185,0.9988941199534254
1.2036381641432765,0.9966078615130487
1.1985684945495336,0.9941633499851039
1.1934988249557916,0.9915618932125169
1.1884291553620496,0.9888048606662866
1.1833594857683067,0.9858936820329617
1.1782898161745647,0.9828298459850827
1.1732201465808227,0.9796148991348038
1.1681504769870807,0.9762504451662423
1.1630808073933379,0.9727381441376022
1.1580111377995959,0.9690797119398297
1.1529414682058539,0.9652769198947604
1.147871798612111,0.9613315944722348
1.142802129018369,0.9572456171027757
1.137732459424627,0.9530209240600401
1.132662789830885,0.9486595063854902
1.127593120237142,0.9441634098265672
1.1225234506434,0.9395347347590786
1.117453781049658,0.9347756360645076
1.1123841114559152,0.9298883229336067
1.1073144418621732,0.9248750585687425
1.1022447722684312,0.9197381597590912
1.0971751026746883,0.9144799963050263
1.0921054330809463,0.9091029902704518
1.0870357634872043,0.9036096150449505
1.0819660938934623,0.8980023942007852
1.0768964242997194,0.8922839001335142
1.0718267547059774,0.8864567524787017
1.0667570851122354,0.8805236163012797
1.0616874155184925,0.8744872000582175
1.0566177459247506,0.8683502533393157
1.0515480763310086,0.8621155643950245
1.0464784067372666,0.8557859574642106
1.0414087371435237,0.8493642899185346
1.0363390675497817,0.8428534492436156
1.0312693979560397,0.8362563498801969
1.0261997283622968,0.8295759299512282
1.0211300587685548,0.8228151479028233
1.0160603891748128,0.815976979088583
1.01099071958107,0.8090644123276646
1.005921049987328,0.8020804464671867
1.000851380393586,0.7950280869791293
0.9957817107998439,0.7879103426208088
0.990712041206101,0.7807302221863344
0.985642371612359,0.7734907313742341
0.980572702018617,0.7661948697937031
0.9755030324248741,0.7588456281289299
0.9704333628311321,0.751445985477507
0.9653636932373901,0.7439989068754372
0.9602940236436481,0.7365073410176233
0.9552243540499052,0.7289742181790347
0.9501546844561632,0.7214024483382773
0.9450850148624212,0.7137949195018221
0.9400153452686784,0.706154496223995
0.9349456756749364,0.6984840183148114
0.9298760060811944,0.690786299725038
0.9248063364874515,0.6830641275953973
0.9197366668937095,0.6753202614545936
0.9146669972999675,0.6675574325489347
0.9095973277062255,0.6597783432846465
0.9045276581124826,0.6519856667626435
0.8994579885187406,0.6441820463845072
0.8943883189249986,0.6363700955077692
0.8893186493312557,0.6285523971284901
0.8842489797375137,0.6207315035694115
0.8791793101437717,0.6129099361527556
0.8741096405500297,0.6050901848383058
0.8690399709562868,0.5972747078091409
0.8639703013625448,0.5894659309899827
0.8589006317688028,0.5816662474856188
0.8538309621750599,0.5738780169298486
0.8487612925813179,0.5661035647380993
0.8436916229875759,0.5583451812592102
0.838621953393833,0.5506051208238396
0.833552283800091,0.54288560068794
0.828482614206349,0.5351887998699699
0.8234129446126071,0.527516857879864
0.8183432750188642,0.5198718733364562
0.8132736054251222,0.5122559024682408
0.8082039358313802,0.5046709574908116
0.8031342662376373,0.49711900485330224
0.7980645966438953,0.48960196334658684
0.7929949270501533,0.4821217020682627
0.7879252574564104,0.47468003824429233
0.7828555878626684,0.467278734914473
0.7777859182689264,0.45991949849876107
0.7727162486751844,0.4526039762730413
0.7676465790814415,0.4453337537948832
0.7625769094876995,0.43811035233035556
0.7575072398939575,0.4309352263393756
0.7524375703002146,0.4238097610765416
0.7473679007064726,0.4167352703533798
0.7422982311127306,0.4097129944833172
0.7372285615189886,0.4027440983895359
0.7321588919252457,0.3958296697960184
0.7270892223315037,0.3889707173430282
0.7220195527377617,0.3821681683709258
0.7169498831440189,0.37542286600415675
0.7118802135502769,0.3687355650461701
0.7068105439565349,0.3621069260746301
0.701740874362792,0.35553750701572406
0.69667120476905,0.3490277513897337
0.691601535175308,0.34257797237235416
0.686531865581566,0.336188331822717
0.6814621959878231,0.3298588135043981
0.6763925263940811,0.32358918988265906
0.6713228568003391,0.3173789821288588
0.6662531872065962,0.311227413305839
0.6611835176128542,0.3051333551439508
0.6561138480191122,0.2990952693372427
0.6510441784253702,0.29311114487591305
0.6459745088316273,0.2871784335591995
0.6409048392378853,0.28129398646977916
0.6358351696441433,0.2754539947969928
0.6307655000504004,0.2696539389279084
0.6256958304566584,0.2638885501357944
0.6206261608629164,0.2581517894390888
0.6155564912691736,0.25243684823823925
0.6104868216754316,0.24673617512760165
0.6054171520816896,0.24104153280043114
0.6003474824879476,0.2353440882056545
0.5952778128942047,0.22963453808019108
0.5902081433004627,0.2239032706922193
0.5851384737067207,0.21814056312873323
0.5800688041129778,0.21233681180211245
0.5749991345192358,0.20648279210728698
0.5699294649254938,0.20056994141772833
0.5648597953317518,0.1945906579570212
0.5597901257380089,0.18853860661802474
0.5547204561442669,0.18240902161595157
0.5496507865505249,0.17619899503880065
0.544581116956782,0.1699077399683654
0.53951144736304,0.16353681693816705
0.534441777769298,0.1570903130988538
0.5293721081755551,0.150574964578462
0.5243024385818131,0.1440002141284423
0.5192327689880711,0.1373781981834478
0.5141630993943291,0.1307236598548958
0.5090934298005863,0.12405378702472199
0.5040237602068443,0.11738797748925771
0.49895409061310225,0.11074753589565903
0.49388442101935937,0.10415530988318004
0.48881475142561737,0.09763527526073053
0.48374508183187537,0.09121208210361663
0.47867541223813337,0.08491057523675045
0.4736057426443905,0.07875530361256032
0.4685360730506485,0.0727700335406978
0.4634664034569065,0.06697728056439814
0.4583967338631636,0.06139787401701095
0.4533270642694216,0.056050566973212146
0.4482573946756796,0.05095170250136526
0.4431877250819367,0.04611494491774643
0.4381180554881947,0.041551082248447856
0.4330483858944527,0.03726790344058985
0.4279787163007107,0.03327015115508925
0.42290904670696783,0.02955954834033198
0.41783937711322583,0.026134894342718207
0.41276970751948383,0.022992224154656207
0.4077000379257406,0.020125022612820717
