5.47229996207426,7.819356147513619e-64
5.467230292480518,1.0939069208290362e-63
5.462160622886775,1.5296642260918134e-63
5.457090953293033,2.1381219345780803e-63
5.452021283699291,2.987456547731174e-63
5.446951614105549,4.172667444278487e-63
5.441881944511806,5.826095838703249e-63
5.436812274918064,8.132055500758878e-63
5.431742605324322,1.1347177164791924e-62
5.426672935730579,1.5828690563637937e-62
5.421603266136837,2.207373071995192e-62
5.416533596543095,3.0773951334220216e-62
5.411463926949352,4.289138630570018e-62
5.40639425735561,5.976379841509491e-62
5.401324587761868,8.325093797959196e-62
5.396254918168126,1.1593754410092827e-61
5.391185248574383,1.6141502742708038e-61
5.386115578980641,2.246722264819604e-61
5.381045909386899,3.126373283416019e-61
5.3759762397931565,4.349292304565196e-61
5.3709065701994145,6.048990087844936e-61
5.3658369006056725,8.410731162633858e-61
5.3607672310119305,1.169152734087092e-60
5.355697561418188,1.624782847697872e-60
5.350627891824446,2.2573863441018268e-60
5.345558222230704,3.135471311921785e-60
5.340488552636961,4.3539756079947034e-60
5.335418883043219,6.04442795214548e-60
5.330349213449477,8.389001812648672e-60
5.325279543855734,1.1639948130277364e-59
5.320209874261992,1.6146458170218551e-59
5.31514020466825,2.239178724424287e-59
5.310070535074508,3.1044544590100365e-59
5.305000865480765,4.302953563412883e-59
5.299931195887023,5.962558332262219e-59
5.294861526293281,8.260056579291617e-59
5.289791856699538,1.1439777794372998e-58
5.284722187105796,1.5839305250541208e-58
5.279652517512054,2.1924940900066546e-58
5.274582847918312,3.0340608798809837e-58
5.269513178324569,4.197527052591236e-58
5.264443508730827,5.8055834324759926e-58
5.259373839137085,8.027516298570408e-58
5.254304169543342,1.1096839072392916e-57
5.2492344999496,1.53355712620909e-57
5.244164830355858,2.1187661373385564e-57
5.2390951607621155,2.926498471804134e-57
5.2340254911683735,4.041062949805288e-57
5.2289558215746315,5.578594451384587e-57
5.2238861519808895,7.699023645014693e-57
5.218816482387147,1.0622531647701542e-56
5.213746812793405,1.4652163691343e-56
5.208677143199663,2.02048983385367e-56
5.20360747360592,2.785432180541592e-56
5.198537804012178,3.838922555817566e-56
5.193468134418436,5.289404585019564e-56
5.188398464824694,7.285925523574878e-56
5.183328795230951,1.0033281559291903e-55
5.178259125637209,1.3812790662873779e-55
5.173189456043467,1.901077586102698e-55
5.168119786449724,2.6157609666913705e-55
5.163050116855982,3.5981220197526265e-55
5.15798044726224,4.9480394330210255e-55
5.152910777668497,6.802517373482399e-55
5.147841108074755,9.349431755039948e-55
5.142771438481013,1.2846346232111633e-54
5.137701768887271,1.7646260191772276e-54
5.132632099293528,2.4232832307332556e-54
5.127562429699786,3.3268552717842303e-54
5.122492760106044,4.566060466057513e-54
5.117423090512301,6.265088498647516e-54
5.112353420918559,8.593900924159261e-54
5.107283751324817,1.1785033783053283e-53
5.102214081731075,1.6156543381422511e-53
5.097144412137332,2.2143331973189594e-53
5.09207474254359,3.0339901077592365e-53
5.087005072949848,4.155868395798524e-53
5.0819354033561055,5.69096106355637e-53
5.0768657337623635,7.790860164022288e-53
5.0717960641686215,1.066254645308867e-52
5.066726394574879,1.4588544334748041e-52
5.061656724981137,1.995438027886167e-52
5.056587055387395,2.7285980048869588e-52
5.051517385793652,3.7300586910736964e-52
5.04644771619991,5.097606852737032e-52
5.041378046606168,6.964522509698945e-52
5.036308377012426,9.512407885641059e-52
5.031238707418683,1.298863365850328e-51
5.026169037824941,1.7730057170693753e-51
5.021099368231199,2.419525762914111e-51
5.016029698637456,3.300833339914592e-51
5.010960029043714,4.501839042547591e-51
5.005890359449972,6.138031885094011e-51
5.00082068985623,8.366444254192422e-51
4.995751020262487,1.1400531654258536e-50
4.990681350668745,1.5530358773544413e-50
4.985611681075003,2.114997580658822e-50
4.98054201148126,2.8794534826978845e-50
4.975472341887518,3.9190596126937926e-50
4.970402672293776,5.332429086277425e-50
4.965333002700033,7.253364969430666e-50
4.960263333106291,9.863362651579628e-50
4.955193663512549,1.3408534282518437e-49
4.950123993918807,1.8222512252812414e-49
4.945054324325064,2.4757434367562507e-49
4.939984654731322,3.3625849372919804e-49
4.93491498513758,4.565737391861041e-49
4.929845315543838,6.197526977812753e-49
4.9247756459500955,8.409991277238275e-49
4.9197059763563535,1.1408855312262333e-48
4.9146363067626115,1.547240369883746e-48
4.909566637168869,2.0976956108451704e-48
4.904496967575127,2.843124565359465e-48
4.899427297981385,3.852279682251865e-48
4.894357628387642,5.218047148053545e-48
4.8892879587939,7.065879256169131e-48
4.884218289200158,9.565159193749502e-48
4.879148619606415,1.294451312584247e-47
4.874078950012673,1.7512433979511487e-47
4.869009280418931,2.368505062961784e-47
4.863939610825189,3.202350609980101e-47
4.858869941231446,4.32842536051269e-47
4.853800271637704,5.848671298960395e-47
4.848730602043962,7.900425033164835e-47
4.843660932450219,1.0668648128282256e-46
4.838591262856477,1.4402362937264482e-46
4.833521593262735,1.9436732842171633e-46
4.828451923668993,2.6222715658216567e-46
4.82338225407525,3.536687468464884e-46
4.818312584481508,4.768480940404994e-46
4.813242914887766,6.427284175558207e-46
4.808173245294023,8.660416383284816e-46
4.803103575700281,1.1665775166473738e-45
4.798033906106539,1.5709115466032066e-45
4.7929642365127965,2.1147201764179357e-45
4.7878945669190545,2.84588197112609e-45
4.7828248973253125,3.82863015159796e-45
4.7777552277315705,5.149111121096232e-45
4.772685558137828,6.92282256951117e-45
4.767615888544086,9.304563431414207e-45
4.762546218950344,1.250173954634355e-44
4.757476549356601,1.6792150857279384e-44
4.752406879762859,2.2547761692354325e-44
4.747337210169117,3.026645608201435e-44
4.742267540575375,4.061444632575988e-44
4.737197870981632,5.44828898025416e-44
4.73212820138789,7.306344889338827e-44
4.727058531794148,9.794909818068517e-44
4.721988862200405,1.3126856960923326e-43
4.716919192606663,1.7586559954747355e-43
4.711849523012921,2.355378264134566e-43
4.706779853419178,3.153550815949238e-43
4.701710183825436,4.220833144417591e-43
4.696640514231694,5.647490168241091e-43
4.691570844637952,7.553904561407285e-43
4.686501175044209,1.0100572035958433e-42
4.681431505450467,1.3501395687274102e-42
4.676361835856725,1.8041362240501828e-42
4.671292166262982,2.4100036438021717e-42
4.66622249666924,3.2182777878935374e-42
4.661152827075498,4.296220434861373e-42
4.656083157481756,5.733324590194274e-42
4.651013487888013,7.648621916447549e-42
4.645943818294271,1.0200378657353763e-41
4.640874148700529,1.3598956282949162e-41
4.6358044791067865,1.812386386579932e-41
4.6307348095130445,2.414636051713573e-41
4.6256651399193025,3.2159403769939835e-41
4.62059547032556,4.2817317449728124e-41
4.615525800731818,5.698831490029643e-41
4.610456131138076,7.582401910252067e-41
4.605386461544334,1.0085144743274568e-40
4.600316791950591,1.34094677077474e-40
4.595247122356849,1.7823571092554032e-40
4.590177452763107,2.3682709850720915e-40
4.585107783169364,3.145728626747991e-40
4.580038113575622,4.17699542825202e-40
4.57496844398188,5.544460867737461e-40
4.569898774388138,7.357104271285046e-40
4.564829104794395,9.759025478673508e-40
4.559759435200653,1.2940695792049056e-39
4.554689765606911,1.7153791286552027e-39
4.549620096013168,2.2730742027349377e-39
4.544550426419426,3.011048712922096e-39
4.539480756825684,3.987239330342162e-39
4.534411087231941,5.278090809662651e-39
4.529341417638199,6.984432361250188e-39
4.524271748044457,9.239208118524824e-39
4.519202078450714,1.221764294489547e-38
4.514132408856972,1.6150605838219728e-38
4.50906273926323,2.134217019308777e-38
4.503993069669488,2.8192680368567927e-38
4.498923400075745,3.722903982113602e-38
4.493853730482003,4.914446676973532e-38
4.488784060888261,6.485065712812373e-38
4.483714391294519,8.554620101403333e-38
4.4786447217007765,1.1280628333963393e-37
4.4735750521070345,1.4870024522052217e-37
4.4685053825132925,1.959456011224982e-37
4.46343571291955,2.5810973985183963e-37
4.458366043325808,3.398739718188832e-37
4.453296373732066,4.473790625681649e-37
4.448226704138323,5.886772281670674e-37
4.443157034544581,7.743231708610427e-37
4.438087364950839,1.0181466351154078e-36
4.433017695357096,1.3382618553650949e-36
4.427948025763354,1.7583860441442197e-36
4.422878356169612,2.3095608964826863e-36
4.41780868657587,3.032399473167986e-36
4.412739016982127,3.980017729116345e-36
4.407669347388385,5.221857910441175e-36
4.402599677794643,6.848673340696263e-36
4.397530008200901,8.979025006977096e-36
4.392460338607158,1.1767745344008221e-35
4.387390669013416,1.5416960816626128e-35
4.382320999419674,2.019044151803845e-35
4.377251329825931,2.643227491837673e-35
4.372181660232189,3.4591157464006245e-35
4.367111990638447,4.5251981755775194e-35
4.362042321044704,5.91768940907584e-35
4.356972651450962,7.735864021864865e-35
4.35190298185722,1.0108984877439042e-34
4.3468333122634775,1.3205297683920523e-34
4.3417636426697355,1.7243703112929394e-34
4.3366939730759935,2.2508897247676455e-34
4.3316243034822515,2.9371002783407244e-34
4.326554633888509,3.831101239964025e-34
4.321484964294767,4.995375149013638e-34
4.316415294701025,6.511056496526548e-34
4.311345625107283,8.483457426104595e-34
4.30627595551354,1.104921772826975e-33
4.301206285919798,1.4385552879756688e-33
4.296136616326056,1.872221098370621e-33
4.291066946732313,2.435692593137473e-33
4.285997277138571,3.167538113605648e-33
4.280927607544829,4.117699015675466e-33
4.275857937951086,5.350817586102929e-33
4.270788268357344,6.950531209965946e-33
4.265718598763602,9.02501114639193e-33
4.260648929169859,1.1714103837593381e-32
4.255579259576117,1.5198534823386553e-32
4.250509589982375,1.9711766424152763e-32
4.245439920388633,2.5555268533050517e-32
4.24037025079489,3.311817753466593e-32
4.235300581201148,4.2902594841016914e-32
4.230230911607406,5.555613077709737e-32
4.225161242013664,7.191375318882245e-32
4.220091572419921,9.305158073247156e-32
4.215021902826179,1.2035600337928464e-31
4.209952233232437,1.556124617754155e-31
4.204882563638694,2.0111942931868365e-31
4.199812894044952,2.598346879963598e-31
4.19474322445121,3.3556296238244785e-31
4.1896735548574675,4.331964915155046e-31
4.1846038852637255,5.5902332271702884e-31
4.1795342156699835,7.211221915685797e-31
4.174464546076241,9.298680456580011e-31
4.169394876482499,1.1985788782122568e-30
4.164325206888757,1.5443429453428047e-30
4.159255537295014,1.989076135862322e-30
4.154185867701272,2.5608728669970937e-30
4.14911619810753,3.295731183254648e-30
4.144046528513788,4.23975474388685e-30
4.138976858920046,5.4519623726472674e-30
4.133907189326303,7.007871430091256e-30
4.128837519732561,9.004066503106155e-30
4.123767850138819,1.1564022380540779e-29
4.118698180545076,1.4845523269773637e-29
4.113628510951334,1.9050112830760238e-29
4.108558841357592,2.4435127050835757e-29
4.103489171763849,3.132901077617409e-29
4.098419502170107,4.0150807039231055e-29
4.093349832576365,5.143494644100754e-29
4.088280162982622,6.586276463162757e-29
4.08321049338888,8.430255551562687e-29
4.078140823795138,1.0786044642108846e-28
4.073071154201395,1.3794498450306767e-28
4.068001484607653,1.763490829920444e-28
4.062931815013911,2.2535393164702374e-28
4.057862145420169,2.878606784086625e-28
4.052792475826427,3.675572023797455e-28
4.047722806232684,4.691292021078806e-28
4.042653136638942,5.985272189304733e-28
4.0375834670452,7.633042306068678e-28
4.0325137974514575,9.730422467736534e-28
4.0274441278577156,1.2398911181242603e-27
4.0223744582639736,1.5792487915722145e-27
4.017304788670231,2.0106198259200317e-27
4.012235119076489,2.5586985309575964e-27
4.007165449482747,3.254735114143337e-27
4.002095779889004,4.1382583470183935e-27
3.997026110295262,5.259247289999036e-27
3.99195644070152,6.680868526314588e-27
3.9868867711077773,8.482925382598394e-27
3.981817101514035,1.0766203283384815e-26
3.976747431920293,1.3657942598604755e-26
3.971677762326551,1.73187294557114e-26
3.9666080927328085,2.1951168930051556e-26
3.961538423139066,2.781079743552563e-26
3.956468753545324,3.521980653015267e-26
3.9513990839515816,4.458429434160512e-26
3.946329414357839,5.641594038434644e-26
3.941259744764097,7.135922335983997e-26
3.936190075170355,9.022558039560358e-26
3.9311204055766122,1.1403625350811521e-25
3.9260507359828702,1.4407600155501534e-25
3.9209810663891282,1.8196039431231166e-25
3.915911396795386,2.297200753314311e-25
3.9108417272016434,2.899062138720403e-25
3.9057720576079014,3.6572240312108984e-25
3.900702388014159,4.611895512298485e-25
3.8956327184204165,5.813519142572809e-25
3.8905630488266745,7.325344111456932e-25
3.8854933792329325,9.226638333785645e-25
3.88042370963919,1.1616696308595651e-24
3.8753540400454476,1.4619837626094333e-24
3.8702843704517056,1.839163821044854e-24
3.865214700857963,2.3126694875943236e-24
3.8601450312642207,2.9068296210849383e-24
3.8550753616704787,3.652046246238556e-24
3.8500056920767363,4.586292801081696e-24
3.844936022482994,5.756977715582454e-24
3.839866352889252,7.223261340248928e-24
3.83479668329551,9.058935174022696e-24
3.8297270137017674,1.1355998179107856e-23
3.824657344108025,1.4229096851110373e-23
3.819587674514283,1.7821035029538634e-23
3.8145180049205405,2.2309607896780246e-23
3.809448335326798,2.791607432146081e-23
3.804378665733056,3.4915655227430075e-23
3.799308996139314,4.3650536165308185e-23
3.7942393265455716,5.454596359103463e-23
3.789169656951829,6.813016124194609e-23
3.784099987358087,8.505896122826845e-23
3.7790303177643447,1.0614625109721442e-22
3.7739606481706023,1.3240159181880267e-22
3.7688909785768603,1.650766729407391e-22
3.763821308983118,2.057226529468816e-22
3.7587516393893754,2.562609008476195e-22
3.7536819697956334,3.1907022839669007e-22
3.7486123002018914,3.9709440442464447e-22
3.743542630608149,4.939746020549008e-22
3.7384729610144065,6.14212480658934e-22
3.7334032914206645,7.6337088945332405e-22
3.728333621826922,9.483207498877948e-22
3.7232639522331796,1.1775445917014937e-21
3.7181942826394376,1.4615095583884303e-21
3.7131246130456956,1.813125553655555e-21
3.7080549434519527,2.248307682718554e-21
3.7029852738582107,2.786666386098756e-21
3.6979156042644687,3.452353832747359e-21
3.6928459346707263,4.2751014322181365e-21
3.687776265076984,5.291490982425546e-21
3.682706595483242,6.546511280854142e-21
3.6776369258894994,8.095463344341017e-21
3.672567256295757,1.0006291130430162e-20
3.667497586702015,1.2362431344787432e-20
3.662427917108273,1.526629617351945e-20
3.6573582475145305,1.884352734360719e-20
3.652288577920788,2.324818968994799e-20
3.647218908327046,2.86691084793894e-20
3.6421492387333037,3.533759841825598e-20
3.637079569139561,4.3536885124239436e-20
3.632009899545819,5.3613583769771716e-20
3.626940229952077,6.599167687882682e-20
3.6218705603583343,8.118952661836275e-20
3.6168008907645923,9.98405696548672e-20
3.6117312211708503,1.2271847868924907e-19
3.606661551577108,1.5076773886980804e-19
3.6015918819833654,1.8514078508446434e-19
3.5965222123896234,2.272430844442237e-19
3.591452542795881,2.787878352261972e-19
3.5863828732021386,3.4186229888311344e-19
3.5813132036083966,4.190081970928243e-19
3.5762435340146546,5.133191051354762e-19
3.571173864420912,6.28558372777242e-19
3.5661041948271697,7.693018241612755e-19
3.5610345252334277,9.411103526481361e-19
3.5559648556396852,1.1507385633581949e-18
3.550895186045943,1.4063868590139974e-18
3.545825516452201,1.7180058536607558e-18
3.540755846858459,2.097663781687974e-18
3.535686177264716,2.5599897030688997e-18
3.530616507670974,3.122707857385782e-18
3.525546838077232,3.8072815692349554e-18
3.5204771684834895,4.639688751254128e-18
3.515407498889747,5.65135540133567e-18
3.510337829296005,6.8802786816506424e-18
3.5052681597022626,8.372377357827666e-18
3.50019849010852,1.0183114755261639e-17
3.495128820514778,1.2379448178940461e-17
3.490059150921036,1.5042169207044713e-17
3.4849894813272937,1.826871171868546e-17
3.4799198117335512,2.2176519320924104e-17
3.4748501421398093,2.690708143476273e-17
3.469780472546067,3.263076819761404e-17
3.4647108029523244,3.955261914654203e-17
3.4596411333585824,4.791927007629327e-17
3.45457146376484,5.802723735984785e-17
3.449501794171098,7.023282036711636e-17
3.4444321245773555,8.496393158455523e-17
3.439362454983613,1.0273422199461139e-16
3.434292785389871,1.2415993782891246e-16
3.4292231157961286,1.499800258531711e-16
3.4241534462023866,1.8108010009348594e-16
3.419083776608644,2.1852099597524203e-16
3.414014107014902,2.6357277126672923e-16
3.4089444374211597,3.1775517057306317e-16
3.4038747678274173,3.828857555935459e-16
3.3988050982336753,4.611371218307661e-16
3.393735428639933,5.551048796421802e-16
3.388665759046191,6.678883801385067e-16
3.3835960894524484,8.031865222624868e-16
3.378526419858706,9.654113955318238e-16
3.373456750264964,1.1598230040225473e-15
3.3683870806712215,1.3926888935780569e-15
3.3633174110774795,1.6714731803685733e-15
3.358247741483737,2.0050602715723057e-15
3.3531780718899946,2.4040194976122688e-15
3.3481084022962526,2.8809179627454906e-15
3.34303873270251,3.450690193205386e-15
3.337969063108768,4.131074650128153e-15
3.3328993935150257,4.94312891363055e-15
3.3278297239212833,5.911837375773347e-15
3.3227600543275413,7.066827651405378e-15
3.317690384733799,8.443214682198164e-15
3.312620715140057,1.0082594734391522e-14
3.3075510455463144,1.2034215248689893e-14
3.3024813759525724,1.4356350876649372e-14
3.29741170635883,1.7117921130281227e-14
3.2923420367650875,2.0400390994082536e-14
3.2872723671713455,2.4300002732372044e-14
3.282202697577603,2.89303951206499e-14
3.277133027983861,3.442567561164927e-14
3.2720633583901186,4.09440217149778e-14
3.266993688796376,4.867190035389874e-14
3.261924019202634,5.782900842851482e-14
3.2568543496088918,6.867405456515327e-14
3.2517846800151498,8.151152141590079e-14
3.2467150104214073,9.66995702899892e-14
3.241645340827665,1.1465927580843304e-13
3.236575671233923,1.3588540820020622e-13
3.2315060016401804,1.6095901540315403e-13
3.2264363320464384,1.9056209698326243e-13
3.221366662452696,2.254947078276674e-13
3.216296992858954,2.6669488249703853e-13
3.2112273232652115,3.1526183206654965e-13
3.206157653671469,3.7248293540938175e-13
3.201087984077727,4.398651275150686e-13
3.1960183144839847,5.191713801032045e-13
3.1909486448902427,6.124630762182229e-13
3.1858789752965,7.221492026369772e-13
3.1808093057027578,8.510434240192256e-13
3.1757396361090158,1.0024302633184455e-12
3.1706699665152733,1.1801417969228248e-12
3.1656002969215313,1.3886464835784382e-12
3.160530627327789,1.6331519870581711e-12
3.1554609577340464,1.9197241279680716e-12
3.1503912881403044,2.255424414772597e-12
3.145321618546562,2.6484689634304107e-12
3.14025194895282,3.1084120250248837e-12
3.1351822793590776,3.6463578082935254e-12
3.130112609765335,4.2752048167259875e-12
3.125042940171593,5.009927526627383e-12
3.1199732705778507,5.8679009230391795e-12
3.1149036009841087,6.869274195726548e-12
3.1098339313903662,8.037400790015863e-12
3.1047642617966242,9.399333021067619e-12
3.099694592202882,1.0986390610921083e-11
3.0946249226091394,1.2834813812957856e-11
3.0895552530153974,1.4986513268109443e-11
3.084485583421655,1.7489930413328062e-11
3.079415913827913,2.0401024160403994e-11
3.0743462442341705,2.37844017099524e-11
3.069276574640428,2.7714613792379054e-11
3.064206905046686,3.2277637369659445e-11
3.0591372354529436,3.757257192759788e-11
3.0540675658592016,4.371357898120287e-11
3.048997896265459,5.0832098354226465e-11
3.0439282266717167,5.907937923151289e-11
3.0388585570779747,6.862936897957015e-11
3.0337888874842323,7.968200835326813e-11
3.0287192178904903,9.246698802888262e-11
3.023649548296748,1.0724802850815525e-10
3.018579878703006,1.2432775341579106e-10
3.0135102091092634,1.440532351653198e-10
3.008440539515521,1.6682230200743645e-10
3.003370869921779,1.9309070672528766e-10
2.9983012003280365,2.2338026983986473e-10
2.9932315307342945,2.5828812428766707e-10
2.988161861140552,2.984972043000365e-10
2.9830921915468096,3.447881388337275e-10
2.9780225219530676,3.9805272958012457e-10
2.972952852359325,4.593092155403449e-10
2.967883182765583,5.2971955064322e-10
2.9628135131718407,6.106089481752543e-10
2.9577438435780983,7.034879761847811e-10
2.9526741739843563,8.10077521846296e-10
2.947604504390614,9.323369803848163e-10
2.942534834796872,1.0724960659599562e-09
2.9374651652031294,1.2330906883283167e-09
2.932395495609387,1.4170033906130605e-09
2.927325826015645,1.6275089006311921e-09
2.9222561564219025,1.868325411525567e-09
2.9171864868281605,2.1436722775384293e-09
2.912116817234418,2.4583348883205386e-09
2.907047147640676,2.817737570924616e-09
2.9019774780469336,3.228025463387428e-09
2.896907808453191,3.6961564084227164e-09
2.891838138859449,4.230004031177472e-09
2.8867684692657067,4.83847329226384e-09
2.8816987996719647,5.531629947481399e-09
2.8766291300782223,6.320845499993747e-09
2.87155946048448,7.218959400513156e-09
2.866489790890738,8.240460437695429e-09
2.8614201212969954,9.401689465962721e-09
2.8563504517032534,1.0721065843000905e-08
2.851280782109511,1.2219340195990466e-08
2.8462111125157685,1.3919876406118065e-08
2.8411414429220265,1.5848965997144223e-08
2.836071773328284,1.8036178437957393e-08
2.831002103734542,2.0514751223493152e-08
2.8259324341407996,2.332202398568509e-08
2.8208627645470576,2.6499921308925397e-08
2.815793094953315,3.009548938579711e-08
2.8107234253595728,3.41614921516445e-08
2.8056537557658308,3.875707308424995e-08
2.8005840861720883,4.394848945096064e-08
2.7955144165783463,4.9809926433855646e-08
2.790444746984604,5.642439926797355e-08
2.7853750773908614,6.388475229244009e-08
2.7803054077971194,7.229476464413746e-08
2.775235738203377,8.177037322304995e-08
2.770166068609635,9.244102453271862e-08
2.7650963990158925,1.044511680537149e-07
2.76002672942215,1.1796190494826973e-07
2.754957059828408,1.3315280712626642e-07
2.7498873902346657,1.502239230328765e-07
2.7448177206409237,1.6939798795284737e-07
2.739748051047181,1.9092285817283653e-07
2.734678381453439,2.1507419000829797e-07
2.729608711859697,2.421583864931579e-07
2.7245390422659543,2.72515836456534e-07
2.7194693726722123,3.0652447277949477e-07
2.71439970307847,3.4460367884507186e-07
2.709330033484728,3.8721857457502246e-07
2.7042603638909855,4.3488471599709843e-07
2.699190694297243,4.881732450157915e-07
2.694121024703501,5.477165289783698e-07
2.6890513551097586,6.1421433274619e-07
2.6839816855160166,6.884405693096486e-07
2.678912015922274,7.712506785349203e-07
2.6738423463285317,8.635896874119674e-07
2.6687726767347897,9.665010091990338e-07
2.6637030071410472,1.081136043139156e-06
2.6586333375473052,1.2087646409716724e-06
2.653563667953563,1.3507865112884805e-06
2.6484939983598204,1.5087436379015199e-06
2.6434243287660784,1.6843337938087523e-06
2.638354659172336,1.8794252380808536e-06
2.633284989578594,2.096072689052624e-06
2.6282153199848515,2.3365346736048703e-06
2.6231456503911095,2.6032923590724125e-06
2.618075980797367,2.899069981427867e-06
2.6130063112036246,3.2268569908745382e-06
2.6079366416098826,3.5899320438507154e-06
2.60286697201614,3.991888978707014e-06
2.597797302422398,4.436664920979335e-06
2.5927276328286557,4.928570673251876e-06
2.5876579632349133,5.4723235540889925e-06
2.5825882936411713,6.0730828604252025e-06
2.577518624047429,6.736488138135361e-06
2.572448954453687,7.468700456269787e-06
2.5673792848599444,8.276446891633311e-06
2.562309615266202,9.167068442004875e-06
2.55723994567246,1.0148571598342812e-05
2.5521702760787175,1.1229683818784048e-05
2.5471006064849755,1.2419913160119053e-05
2.542030936891233,1.3729612335702431e-05
2.5369612672974906,1.5170047482411234e-05
2.5318915977037486,1.675347193329228e-05
2.526821928110006,1.8493205306904335e-05
2.521752258516264,2.0403718239045242e-05
2.5166825889225217,2.250072309753334e-05
2.5116129193287797,2.4801271035928254e-05
2.5065432497350373,2.732385575752823e-05
2.501473580141295,3.0088524376576175e-05
2.496403910547553,3.3116995779346444e-05
2.4913342409538104,3.643278690356953e-05
2.4862645713600684,4.006134737044829e-05
2.481194901766326,4.403020291926356e-05
2.4761252321725835,4.8369108110155076e-05
2.4710555625788415,5.311020877607028e-05
2.465985892985099,5.828821471996662e-05
2.460916223391357,6.394058316806518e-05
2.4558465537976146,7.01077135042198e-05
2.450776884203872,7.683315382410765e-05
2.44570721461013,8.416381986097314e-05
2.4406375450163877,9.215022684685538e-05
2.4355678754226457,0.00010084673488453389
2.4304982058289033,0.00011031180841577212
2.4254285362351613,0.00012060829038056667
2.420358866641419,0.00013180369167008638
2.4152891970476764,0.00014397049648250064
2.4102195274539344,0.00015718648419599447
2.405149857860192,0.00017153506837670092
2.40008018826645,0.0001871056535409674
2.3950105186727075,0.00020399401029128078
2.389940849078965,0.0002223026694429736
2.384871179485223,0.00024214133575468246
2.3798015098914806,0.00026362732186908347
2.3747318402977386,0.00028688600306167323
2.369662170703996,0.00031205129338431883
2.3645925011102538,0.0003392661437765631
2.3595228315165118,0.00036868306270155735
2.3544531619227693,0.00040046465984454685
2.3493834923290273,0.0004347842133902019
2.344313822735285,0.0004718262613707565
2.3392441531415424,0.0005117872175494671
2.3341744835478004,0.0005548760122738211
2.329104813954058,0.0006013147586996564
2.324035144360316,0.0006513394447511003
2.3189654747665736,0.0007052006511420597
2.3138958051728316,0.0007631642957423975
2.308826135579089,0.0008255124045265645
2.3037564659853467,0.0008925439092933688
2.2986867963916047,0.0009645754722937074
2.2936171267978622,0.00104194233784745
2.2885474572041202,0.0011249992109716165
2.283477787610378,0.0012141211629797183
2.2784081180166353,0.0013097045639455366
2.2733384484228933,0.0014121680418547507
2.268268778829151,0.0015219534681934668
2.263199109235409,0.001639526969644158
2.2581294396416665,0.0017653799654768533
2.253059770047924,0.0019000302301349292
2.247990100454182,0.002044022980422614
2.2429204308604396,0.0021979319866023044
2.2378507612666976,0.0023623607066054556
2.232781091672955,0.0025379434424505224
2.2277114220792127,0.0027253465178433533
2.2226417524854707,0.002925269475811395
2.2175720828917282,0.0031384462950902374
2.2125024132979862,0.0033656466238405425
2.207432743704244,0.0036076770291244816
2.202363074110502,0.0038653822604118224
2.1972934045167594,0.004139646525218752
2.192223734923017,0.004431394774803585
2.187154065329275,0.0047415939976565525
2.1820843957355325,0.005071254518321699
2.1770147261417905,0.005421431298879424
2.171945056548048,0.005793225240199787
2.1668753869543056,0.006187784479844803
2.1618057173605636,0.006606305683259083
2.156736047766821,0.007050035324637425
2.151666378173079,0.007520270953598547
2.1465967085793367,0.008018362443528526
2.1415270389855943,0.008545713217181125
2.1364573693918523,0.009103781444844618
2.13138769979811,0.009694081210100215
2.126318030204368,0.010318183637910299
2.1212483606106254,0.010977717979492095
2.1161786910168834,0.011674372648146372
2.111109021423141,0.012409896199936403
2.1060393518293985,0.013186098252841782
2.1009696822356565,0.01400485033775682
2.095900012641914,0.014868086674461888
2.090830343048172,0.015777804865474122
2.0857606734544296,0.016736066500489255
2.080691003860687,0.017744997663953314
2.075621334266945,0.018806789338169892
2.0705516646732027,0.01992369769424595
2.0654819950794607,0.02109804426312037
2.0604123254857183,0.022332215978907877
2.055342655891976,0.023628665086821925
2.050272986298234,0.024989908908033556
2.0452033167044914,0.026418529453961857
2.0401336471107494,0.02791717288269386
2.035063977517007,0.029488548790496553
2.0299943079232645,0.031135429331697034
2.0249246383295225,0.03286064816059567
2.01985496873578,0.034667099189510664
2.014785299142038,0.036557735157549544
2.0097156295482956,0.03853556600525515
2.0046459599545536,0.040603657050862225
1.9995762903608112,0.04276512696455038
1.9945066207670687,0.04502314553774143
1.9894369511733268,0.04738093124520503
1.9843672815795843,0.04984174859844935
1.9792976119858423,0.05240890528961248
1.9742279423920999,0.05508574912580861
1.9691582727983574,0.057875664754608334
1.9640886032046154,0.06078207018204857
1.959018933610873,0.06380841308525846
1.953949264017131,0.06695816692243382
1.9488795944233885,0.07023482684352236
1.943809924829646,0.0736419054055274
1.938740255235904,0.07718292809687116
1.9336705856421617,0.08086142867569483
1.9286009160484197,0.08468094432736681
1.9235312464546772,0.08864501064680096
1.9184615768609352,0.09275715645142393
1.9133919072671928,0.09702089843083354
1.9083222376734503,0.10143973563928702
1.9032525680797083,0.10601714383721116
1.8981828984859659,0.11075656968790255
1.8931132288922239,0.11566142481548512
1.8880435592984814,0.12073507973005966
1.882973889704739,0.12598085762575334
1.877904220110997,0.1314020280571384
1.8728345505172546,0.13700180049918984
1.8677648809235126,0.14278331779561906
1.8626952113297701,0.14874964950011244
1.8576255417360277,0.15490378511464165
1.8525558721422857,0.16124862722872457
1.8474862025485432,0.16778698456324573
1.8424165329548012,0.174521564922233
1.8373468633610588,0.18145496805590192
1.8322771937673163,0.1885896784382606
1.8272075241735743,0.19592805796273205
1.822137854579832,0.20347233855954347
1.81706818498609,0.21122461473911158
1.8119985153923475,0.21918683606634126
1.8069288457986055,0.2273607995716039
1.801859176204863,0.2357481421052773
1.7967895066111206,0.2443503326439621
1.7917198370173786,0.25316866455803755
1.7866501674236361,0.26220424785181934
1.7815804978298941,0.271458001389455
1.7765108282361517,0.28093064512167976
1.7714411586424093,0.2906226923306286
1.7663714890486673,0.30053444191213924
1.7613018194549248,0.31066597071724134
1.7562321498611828,0.32101712597681314
1.7511624802674404,0.33158751783571927
1.746092810673698,0.34237651202496205
1.741023141079956,0.353383222702579
1.7359534714862135,0.3646065054960305
1.7308838018924715,0.37604495078064526
1.725814132298729,0.38769687723033014
1.720744462704987,0.39956032567800054
1.7156747931112446,0.41163305332419947
1.7106051235175022,0.42391252833287363
1.7055354539237602,0.43639592485347456
1.7004657843300177,0.44908011850818774
1.6953961147362757,0.46196168238228963
1.6903264451425333,0.4750368835544063
1.6852567755487908,0.48830168020165216
1.6801871059550488,0.501751719312462
1.6751174363613064,0.5153823350373281
1.6700477667675644,0.5291885477046195
1.664978097173822,0.5431650635254013
1.6599084275800795,0.5573062750074395
1.6548387579863375,0.5716062620947869
1.649769088392595,0.5860587940451336
1.644699418798853,0.600657332052872
1.6396297492051106,0.6153950326213887
1.6345600796113682,0.63026475168348
1.6294904100176262,0.6452590494642791
1.6244207404238837,0.6603701960763825
1.6193510708301417,0.6755901778323019
1.6142814012363993,0.6909107042549416
1.6092117316426573,0.7063232157623942
1.6041420620489149,0.7218188919994293
1.5990723924551724,0.7373886607841991
1.5940027228614304,0.7530232076354911
1.588933053267688,0.7687129858429237
1.583863383673946,0.784448227040226
1.5787937140802035,0.8002189522400486
1.573724044486461,0.8160149832875901
1.568654374892719,0.8318259546899198
1.5635847052989766,0.8476413257780054
1.5585150357052346,0.863450393159212
1.5534453661114922,0.8792423034194257
1.5483756965177498,0.8950060660357932
1.5433060269240078,0.9107305664635171
1.5382363573302653,0.926404579362897
1.5331666877365233,0.9420167819360341
1.5280970181427809,0.9575557673462044
1.5230273485490389,0.9730100581965814
1.5179576789552964,0.9883681200491176
1.512888009361554,1.0036183749684109
1.507818339767812,1.0187492150796127
1.5027486701740695,1.033749016133603
1.4976790005803275,1.0486061510765268
1.492609330986585,1.0633090036247872
1.4875396613928427,1.0778459818497435
1.4824699917991007,1.092205531779542
1.4774003222053582,1.1063761510277115
1.4723306526116162,1.1203464024598755
1.4672609830178738,1.1341049279109086
1.4621913134241318,1.1476404619646596
1.457121643830389,1.160941845807798
1.452051974236647,1.173998041167192
1.446982304642905,1.1867981443378837
1.441912635049163,1.1993314003049327
1.43684296545542,1.211587216958314
1.431773295861678,1.2235551793952057
1.426703626267936,1.2352250642986895
1.4216339566741931,1.246586854376356
1.4165642870804511,1.2576307528367021
1.4114946174867091,1.2683471978756045
1.4064249478929662,1.278726877139797
1.4013552782992242,1.2887607421292275
1.3962856087054822,1.2984400224956238
1.3912159391117402,1.3077562401903786
1.3861462695179974,1.316701223411282
1.3810765999242554,1.325267120294526
1.3760069303305134,1.3334464122957101
1.3709372607367705,1.3412319272016013
1.3658675911430285,1.3486168517125927
1.3607979215492865,1.3555947435348674
1.3557282519555445,1.362159542920486
1.3506585823618016,1.3683055835937317
1.3455889127680596,1.374027603002471
1.3405192431743176,1.3793207518347421
1.3354495735805747,1.3841806027427024
1.3303799039868327,1.3886031582189395
1.3253102343930907,1.3925848575740152
1.3202405647993478,1.3961225829685564
1.3151708952056058,1.3992136644589244
1.3101012256118638,1.4018558840216473
1.3050315560181218,1.4040474785290245
1.299961886424379,1.4057871416559504
1.294892216830637,1.407074024706306
1.289822547236895,1.407907736355841
1.284752877643152,1.4082883413171983
1.27968320804941,1.4082163579417109
1.274613538455668,1.4076927547811535
1.269543868861926,1.4067189461411822
1.2644741992681832,1.4052967866661548
1.2594045296744412,1.4034285650025498
1.2543348600806992,1.4011169965948969
1.2492651904869563,1.3983652156742559
1.2441955208932143,1.3951767665042323
1.2391258512994723,1.3915555939536666
1.2340561817057294,1.3875060334681415
1.2289865121119874,1.3830328005142136
1.2239168425182454,1.3781409795709199
1.2188471729245034,1.3728360127425245
1.2137775033307605,1.3671236880645286
1.2087078337370185,1.3610101275719888
1.2036381641432765,1.3545017751949355
1.1985684945495336,1.3476053845404847
1.1934988249557916,1.3403280066151144
1.1884291553620496,1.3326769775336396
1.1833594857683067,1.3246599062541264
1.1782898161745647,1.3162846623700728
1.1732201465808227,1.307559363983322
1.1681504769870807,1.298492365673294
1.1630808073933379,1.2890922465705315
1.1580111377995959,1.2793677985353458
1.1529414682058539,1.2693280144358727
1.147871798612111,1.258982076514056
1.142802129018369,1.248339344823163
1.137732459424627,1.2374093457164888
1.132662789830885,1.2262017603641109
1.127593120237142,1.2147264132724702
1.1225234506434,1.202993260780996
1.117453781049658,1.191012379509929
1.1123841114559152,1.1787939547348445
1.1073144418621732,1.1663482686653595
1.1022447722684312,1.153685688608381
1.0971751026746883,1.1408166549999446
1.0921054330809463,1.127751669293893
1.0870357634872043,1.114501281700488
1.0819660938934623,1.1010760787732965
1.0768964242997194,1.087486670848241
1.0718267547059774,1.0737436793446133
1.0667570851122354,1.05985772394361
1.0616874155184925,1.0458394096661747
1.0566177459247506,1.0316993138775201
1.0515480763310086,1.017447973251586
1.0464784067372666,1.0030958707339288
1.0414087371435237,0.9886534225464697
1.0363390675497817,0.9741309652819145
1.0312693979560397,0.959538743139246
1.0261997283622968,0.9448868953547109
1.0211300587685548,0.9301854438845875
1.0160603891748128,0.9154442813971001
1.01099071958107,0.9006731596308218
1.005921049987328,0.8858816781757738
1.000851380393586,0.8710792737311698
0.9957817107998439,0.8562752098905859
0.990712041206101,0.841478567500935
0.985642371612359,0.8266982356364839
0.980572702018617,0.8119429032231538
0.9755030324248741,0.7972210513417813
0.9704333628311321,0.7825409462319277
0.9653636932373901,0.7679106330105663
0.9602940236436481,0.753337930112641
0.9552243540499052,0.7388304244532407
0.9501546844561632,0.724395467304278
0.9450850148624212,0.71004017087201
0.9400153452686784,0.6957714055559577
0.9349456756749364,0.6815957978644868
0.9298760060811944,0.6675197289577537
0.9248063364874515,0.6535493337850213
0.9197366668937095,0.6396905007801931
0.9146669972999675,0.6259488720770383
0.9095973277062255,0.6123298442038992
0.9045276581124826,0.5988385692164409
0.8994579885187406,0.5854799562264582
0.8943883189249986,0.572258673284578
0.8893186493312557,0.5591791495751286
0.8842489797375137,0.5462455778821584
0.8791793101437717,0.5334619172868735
0.8741096405500297,0.5208318960584378
0.8690399709562868,0.5083590147022539
0.8639703013625448,0.4960465491324561
0.8589006317688028,0.4838975539384356
0.8538309621750599,0.4719148657188718
0.8487612925813179,0.4601011064606518
0.8436916229875759,0.44845868694443314
0.838621953393833,0.4369898101632699
0.833552283800091,0.42569647474540545
0.828482614206349,0.4145804783770958
0.8234129446126071,0.40364342122597135
0.8183432750188642,0.3928867093696476
0.8132736054251222,0.38231155823819546
0.8082039358313802,0.371918996082229
0.8031342662376373,0.3617098674810084
0.7980645966438953,0.3516848369066684
0.7929949270501533,0.3418443923616667
0.7879252574564104,0.3321888491068003
0.7828555878626684,0.3227183534965006
0.7777859182689264,0.31343288693687443
0.7727162486751844,0.3043322699800997
0.7676465790814415,0.2954161665663592
0.7625769094876995,0.28668408842170384
0.7575072398939575,0.27813539961708655
0.7524375703002146,0.269769321290509
0.7473679007064726,0.26158493653066545
0.7422982311127306,0.25358119541688207
0.7372285615189886,0.24575692020653428
0.7321588919252457,0.238110810657368
0.7270892223315037,0.23064144946845574
0.7220195527377617,0.22334730781969997
0.7169498831440189,0.2162267509859932
0.7118802135502769,0.20927804399817296
0.7068105439565349,0.20249935731891125
0.701740874362792,0.19588877249759737
0.69667120476905,0.18944428776407884
0.691601535175308,0.1831638235169515
0.686531865581566,0.17704522765797517
0.6814621959878231,0.17108628072020687
0.6763925263940811,0.1652847007338059
0.6713228568003391,0.15963814777030672
0.6662531872065962,0.15414422810378775
0.6611835176128542,0.14880049792601047
0.6561138480191122,0.1436044665526737
0.6510441784253702,0.13855359905986678
0.6459745088316273,0.13364531829400156
0.6409048392378853,0.12887700620558856
0.6358351696441433,0.12424600446766705
0.6307655000504004,0.1197496143541633
0.6256958304566584,0.11538509587237272
0.6206261608629164,0.11114966616767435
0.6155564912691736,0.10704049724783095
0.6104868216754316,0.10305471310884326
0.6054171520816896,0.09918938638425101
0.6003474824879476,0.09544153468448073
0.5952778128942047,0.09180811684134332
0.5902081433004627,0.08828602932374234
0.5851384737067207,0.08487210314203755
0.5800688041129778,0.08156310160787608
0.5749991345192358,0.07835571936053758
0.5699294649254938,0.07524658310648362
0.5648597953317518,0.07223225454197026
0.5597901257380089,0.06930923593514586
0.5547204561442669,0.06647397883004091
0.5496507865505249,0.06372289629640124
0.544581116956782,0.06105237908332532
0.53951144736304,0.05845881593881165
0.534441777769298,0.05593861823067077
0.5293721081755551,0.05348824884742187
0.5243024385818131,0.051104255173225775
0.5192327689880711,0.04878330572321908
0.5141630993943291,0.04652222980156738
0.5090934298005863,0.044318059313024724
0.5040237602068443,0.04216807163072644
0.49895409061310225,0.04006983221081891
0.49388442101935937,0.038021235462019
0.48881475142561737,0.03602054223929298
0.48374508183187537,0.03406641224922169
0.47867541223813337,0.03215792964256899
0.4736057426443905,0.03029462013703518
0.4685360730506485,0.028476458166868023
0.4634664034569065,0.026703862798365553
0.4583967338631636,0.024977681478953784
0.4533270642694216,0.02329916109461325
0.4482573946756796,0.021669906282657952
0.4431877250819367,0.02009182546558971
0.4381180554881947,0.018567065613608016
0.4330483858944527,0.01709793728140258
0.4279787163007107,0.015686831969874075
0.42290904670696783,0.01433613430565608
0.41783937711322583,0.013048131882422657
0.41276970751948383,0.011824925842941968
0.4077000379257406,0.010668345379988979
