1.2862891411564072,0
1.2862891411564072,50
1.2862891411564072,100
1.2842407898054002,150
1.2832166141298968,200
1.2812194715626652,250
1.2801952958871619,300
1.2791711202116582,350
1.2781469445361548,400
1.2771739776444269,450
1.2761498019689232,500
1.2761498019689232,550
1.2751256262934199,600
1.2751256262934199,650
1.2741014506179162,700
1.2741014506179162,750
1.2741014506179162,800
