5.472307962074259,8.88956702080835e-44
5.467308004304916,1.1410673786742222e-43
5.462308046535572,1.4619331966778785e-43
5.457308088766228,1.8697478441494352e-43
5.452308130996885,2.387425017478091e-43
5.44730817322754,3.043810212776022e-43
5.442308215458197,3.87520210613253e-43
5.437308257688853,4.927262283182759e-43
5.43230829991951,6.257411981664957e-43
5.427308342150166,7.937839397926139e-43
5.422308384380822,1.0059272216089299e-42
5.417308426611479,1.2735708887537189e-42
5.412308468842135,1.611035073788737e-42
5.407308511072792,2.036303759925368e-42
5.402308553303448,2.5719565333829983e-42
5.397308595534104,3.246335803588787e-42
5.39230863776476,4.095008548419878e-42
5.387308679995416,5.1625963302631486e-42
5.382308722226073,6.505065640895312e-42
5.377308764456729,8.192593456442827e-42
5.372308806687386,1.0313151321129838e-41
5.367308848918042,1.2976986701321465e-41
5.3623088911486985,1.6322224463304562e-41
5.357308933379355,2.052186624593952e-41
5.35230897561001,2.579253385161287e-41
5.347309017840667,3.2405387830071814e-41
5.342309060071323,4.069975823207207e-41
5.33730910230198,5.110015609264788e-41
5.332309144532636,6.413749780800718e-41
5.3273091867632925,8.047557793724992e-41
5.322309228993949,1.009440786921417e-40
5.317309271224605,1.265797183807294e-40
5.312309313455262,1.5867753110261035e-40
5.307309355685918,1.9885475434659928e-40
5.302309397916574,2.4913040247914776e-40
5.29730944014723,3.1202435050812205e-40
5.2923094823778865,3.9068067872861824e-40
5.287309524608543,4.890211779482546e-40
5.282309566839199,6.119363402264697e-40
5.277309609069856,7.655229273681982e-40
5.272309651300512,9.57379400337349e-40
5.2673096935311685,1.1969732081501324e-39
5.262309735761825,1.496097299355395e-39
5.2573097779924804,1.869437387009075e-39
5.252309820223137,2.335276659503147e-39
5.247309862453793,2.9163710198973583e-39
5.24230990468445,3.641035845917611e-39
5.237309946915106,4.5444950500034234e-39
5.2323099891457625,5.670555326054473e-39
5.227310031376419,7.073683442539303e-39
5.222310073607075,8.821582953343732e-39
5.217310115837732,1.0998389577785372e-38
5.212310158068387,1.3708632772064075e-38
5.207310200299044,1.7082145935744703e-38
5.2023102425297,2.1280150820177553e-38
5.1973102847603565,2.650279494125546e-38
5.192310326991013,3.299848649787647e-38
5.187310369221669,4.107545235298724e-38
5.182310411452326,5.111604460496858e-38
5.177310453682982,6.359444453970424e-38
5.172310495913639,7.909856468801974e-38
5.167310538144294,9.83571369313531e-38
5.1623105803749505,1.22273205224368e-37
5.157310622605607,1.5196552551537806e-37
5.152310664836263,1.8881972509686327e-37
5.14731070706692,2.3455150395183662e-37
5.142310749297576,2.9128469013861143e-37
5.137310791528233,3.616476125291189e-37
5.132310833758889,4.488920550713527e-37
5.127310875989545,5.570400412623111e-37
5.122310918220202,6.910649074759157e-37
5.117310960450857,8.571146104067153e-37
5.112311002681514,1.0627870399301634e-36
5.10731104491217,1.317469351046717e-36
5.1023110871428266,1.6327560814686188e-36
5.097311129373483,2.02296420019365e-36
5.092311171604139,2.505767378339107e-36
5.087311213834796,3.102976859495503e-36
5.082311256065452,3.841502544521234e-36
5.077311298296109,4.754535553968771e-36
5.072311340526765,5.883002906965175e-36
5.0673113827574205,7.27735644576523e-36
5.062311424988077,8.99977221404686e-36
5.057311467218733,1.1126853743415347e-35
5.05231150944939,1.3752953824244415e-35
5.047311551680046,1.6994255198728996e-35
5.042311593910703,2.0993782272250631e-35
5.037311636141359,2.5927554684099434e-35
5.032311678372015,3.20121409855954e-35
5.027311720602672,3.951392866572517e-35
5.022311762833327,4.876049768833709e-35
5.017311805063984,6.015457142390268e-35
5.01231184729464,7.419112486521452e-35
5.007311889525297,9.147835956845452e-35
5.002311931755953,1.1276341305031227e-34
4.997311973986609,1.389638637246297e-34
4.992312016217266,1.7120632858650682e-34
4.987312058447922,2.1087373913615788e-34
4.982312100678579,2.59663232910469e-34
4.977312142909234,3.1965702737231526e-34
4.972312185139891,3.934091667293477e-34
4.967312227370547,4.840516711152321e-34
4.962312269601203,5.95424396518563e-34
4.95731231183186,7.322338633471465e-34
4.952312354062516,9.002474685849888e-34
4.947312396293173,1.1065309061151775e-33
4.942312438523829,1.3597383365753294e-33
4.9373124807544855,1.6704669384215107e-33
4.932312522985141,2.05169001622809e-33
4.927312565215797,2.519285938364807e-33
4.922312607446454,3.0926839426208025e-33
4.91731264967711,3.7956524288574796e-33
4.912312691907767,4.657260926693255e-33
4.907312734138423,5.713053694829046e-33
4.9023127763690795,7.006481132937339e-33
4.897312818599736,8.590645177191347e-33
4.892312860830392,1.0530426982094628e-32
4.887312903061048,1.290507991901584e-32
4.882312945291705,1.5811388796142173e-32
4.877312987522361,1.9367517891501692e-32
4.872313029753017,2.3717696695972777e-32
4.8673130719836735,2.9037924161485667e-32
4.86231311421433,3.5542910919193363e-32
4.857313156444986,4.3494525798053837e-32
4.852313198675643,5.321206975775129e-32
4.847313240906299,6.50847691318916e-32
4.8423132831369555,7.958696337151452e-32
4.837313325367612,9.729656332121158e-32
4.8323133675982675,1.1891747811675856e-31
4.827313409828924,1.4530685649050267e-31
4.82231345205958,1.775081669519255e-31
4.817313494290237,2.1679135742364026e-31
4.812313536520893,2.6470159623849525e-31
4.8073135787515495,3.2311841232700754e-31
4.802313620982206,3.943274342674795e-31
4.797313663212862,4.8110738928607205e-31
4.792313705443519,5.86835580741751e-31
4.787313747674174,7.156157359547921e-31
4.782313789904831,8.724329293540167e-31
4.777313832135487,1.0633412676484482e-30
4.7723138743661435,1.295691208795515e-30
4.7673139165968,1.5784048167692567e-30
4.762313958827456,1.9223089798979675e-30
4.757314001058113,2.3405387024912128e-30
4.752314043288769,2.8490250906162023e-30
4.747314085519426,3.4670856810663994e-30
4.742314127750081,4.218138413487556e-30
4.7373141699807375,5.1305649464081466e-30
4.732314212211394,6.238754321414879e-30
4.72731425444205,7.58436436962957e-30
4.722314296672707,9.217845951764126e-30
4.717314338903363,1.1200284392539392e-29
4.71231438113402,1.3605623630646602e-29
4.707314423364676,1.6523352039075365e-29
4.702314465595332,2.00617450364713e-29
4.697314507825988,2.4351779058943903e-29
4.692314550056644,2.9551854854067766e-29
4.687314592287301,3.585349618711485e-29
4.682314634517957,4.348822386382072e-29
4.677314676748614,5.273584561318171e-29
4.67231471897927,6.393445120256161e-29
4.667314761209926,7.749246081074836e-29
4.662314803440583,9.390314512047532e-29
4.657314845671239,1.137621201542069e-28
4.652314887901895,1.3778842137059196e-28
4.647314930132551,1.6684988331905078e-28
4.642314972363208,2.0199369722851247e-28
4.637315014593864,2.444831940781395e-28
4.63231505682452,2.958421106927119e-28
4.627315099055177,3.5790784806539207e-28
4.622315141285833,4.32895532606193e-28
4.61731518351649,5.234750520971258e-28
4.612315225747146,6.328636704412441e-28
4.607315267977802,7.649373427045934e-28
4.602315310208459,9.243644710245405e-28
4.597315352439114,1.1167665824386733e-27
4.592315394669771,1.3489112951132947e-27
4.587315436900427,1.6289439978770993e-27
4.582315479131084,1.9666659328262088e-27
4.57731552136174,2.373867881900973e-27
4.572315563592396,2.864730463190986e-27
4.567315605823053,3.4563041978153285e-27
4.562315648053709,4.1690850808335996e-27
4.557315690284366,5.0277044598628086e-27
4.552315732515021,6.061755688225606e-27
4.547315774745678,7.306784388956074e-27
4.542315816976334,8.805474376774265e-27
4.53731585920699,1.0609067497690503e-26
4.532315901437647,1.2779063051105149e-26
4.527315943668303,1.5389251284072705e-26
4.52231598589896,1.8528145961666103e-26
4.517316028129616,2.2301893541903455e-26
4.5123160703602725,2.683775139981273e-26
4.507316112590928,3.2288245306125325e-26
4.502316154821584,3.8836137510365317e-26
4.497316197052241,4.670036194569586e-26
4.492316239282897,5.614311302389046e-26
4.487316281513554,6.747831012624688e-26
4.48231632374421,8.108170229220394e-26
4.4773163659748665,9.740292803487399e-26
4.472316408205523,1.169799051825719e-25
4.467316450436179,1.4045599695085263e-25
4.462316492666835,1.6860048521818525e-25
4.457316534897492,2.0233298273435732e-25
4.452316577128148,2.4275253572865624e-25
4.447316619358804,2.9117231065617535e-25
4.4423166615894605,3.4916092784018474e-25
4.437316703820117,4.185917055328509e-25
4.432316746050773,5.017013163576181e-25
4.42731678828143,6.011596412478274e-25
4.422316830512086,7.201529422050554e-25
4.417316872742742,8.624828743682257e-25
4.412316914973399,1.0326843317543375e-24
4.4073169572040545,1.2361656835282233e-24
4.402316999434711,1.4793756252771146e-24
4.397317041665367,1.770001662047588e-24
4.392317083896024,2.1172061799443283e-24
4.38731712612668,2.5319071782015507e-24
4.3823171683573365,3.0271120560196894e-24
4.377317210587993,3.618314416063897e-24
4.3723172528186485,4.3239657039897725e-24
4.367317295049306,5.16603570314856e-24
4.362317337279961,6.1706785072993316e-24
4.357317379510618,7.369023673904851e-24
4.352317421741274,8.79811590110774e-24
4.3473174639719305,1.0502030872020939e-23
4.342317506202587,1.2533199987132316e-23
4.337317548433243,1.4953982696387932e-23
4.3323175906639,1.7838532208226064e-23
4.327317632894555,2.127500868378883e-23
4.322317675125213,2.5368203845650002e-23
4.317317717355868,3.0242652507884097e-23
4.3123177595865245,3.604632018337023e-23
4.307317801817181,4.29549720184838e-23
4.302317844047837,5.117734728645379e-23
4.297317886278494,6.096128606083085e-23
4.29231792850915,7.260098110439894e-23
4.287317970739807,8.644555916857632e-23
4.282318012970463,1.0290923264886457e-22
4.277318055201119,1.2248330586906129e-22
4.272318097431775,1.4575037131808965e-22
4.267318139662431,1.7340109127162644e-22
4.262318181893088,2.0625403094566395e-22
4.257318224123744,2.4527909245305246e-22
4.252318266354401,2.9162519647093133e-22
4.247318308585057,3.466529731399071e-22
4.242318350815713,4.1197335820305926e-22
4.23731839304637,4.894931481758499e-22
4.232318435277026,5.814687534687775e-22
4.227318477507682,6.905696056669508e-22
4.222318519738339,8.199529302954484e-22
4.217318561968995,9.733518960900324e-22
4.212318604199651,1.1551795039514164e-21
4.207318646430307,1.370650992632085e-21
4.202318688660964,1.6259280245060719e-21
4.19731873089162,1.9282884858819914e-21
4.192318773122277,2.286326406418435e-21
4.187318815352933,2.7101872874974913e-21
4.182318857583589,3.211845048398622e-21
4.177318899814246,3.80542787293643e-21
4.172318942044901,4.507601492199038e-21
4.167318984275558,5.338019899328597e-21
4.162319026506214,6.319855192980268e-21
4.157319068736871,7.480420226270443e-21
4.152319110967527,8.851900044507499e-21
4.1473191531981835,1.0472210784104042e-20
4.14231919542884,1.2386007844899627e-20
4.137319237659495,1.4645868820927574e-20
4.132319279890153,1.7313680979433378e-20
4.127319322120808,2.0462268133096066e-20
4.122319364351465,2.4177297696169066e-20
4.117319406582121,2.8559515716394805e-20
4.1123194488127774,3.372736592201783e-20
4.107319491043434,3.982005853666744e-20
4.10231953327409,4.7001166043781266e-20
4.097319575504747,5.546283650807349e-20
4.092319617735402,6.543073079963876e-20
4.0873196599660595,7.716980846872042e-20
4.082319702196715,9.099110847923028e-20
4.077319744427371,1.0725969596729152e-19
4.072319786658028,1.264039751457211e-19
4.067319828888684,1.4892660199438222e-19
4.062319871119341,1.7541726911840178e-19
4.057319913349997,2.065676798928393e-19
4.0523199555806535,2.4318908066120456e-19
4.04731999781131,2.8623277941761146e-19
4.042320040041966,3.3681414840973895e-19
4.037320082272622,3.962406880664563e-19
4.032320124503278,4.660448225354815e-19
4.027320166733935,5.480222052738168e-19
4.022320208964591,6.442764393964585e-19
4.0173202511952475,7.572712652243621e-19
4.012320293425904,8.898914406439795e-19
4.00732033565656,1.0455137431198743e-18
4.002320377887217,1.2280897608191551e-18
3.9973204201178727,1.4422424203993473e-18
3.992320462348529,1.6933785274666276e-18
3.9873205045791855,1.9878199802618903e-18
3.9823205468098415,2.3329567664043746e-18
3.977320589040498,2.7374253761131447e-18
3.9723206312711543,3.2113168738965473e-18
3.9673206735018107,3.766419576124644e-18
3.962320715732467,4.416502097486368e-18
3.9573207579631235,5.177643470107132e-18
3.95232080019378,6.068618122217427e-18
3.947320842424436,7.111344748518748e-18
3.9423208846550923,8.331409534893787e-18
3.9373209268857483,9.758675843078007e-18
3.9323209691164047,1.1427994348626717e-17
3.927321011347061,1.3380029796450207e-17
3.9223210535777175,1.5662223038177702e-17
3.917321095808374,1.8329909899257425e-17
3.9123211380390304,2.1447621755704447e-17
3.9073211802696868,2.509059655710695e-17
3.9023212225003427,2.9346533503276276e-17
3.897321264730999,3.431762977072971e-17
3.892321306961655,4.012294371202954e-17
3.8873213491923115,4.6901135953404533e-17
3.882321391422968,5.4813647950885567e-17
3.8773214336536244,6.40483870101239e-17
3.8723214758842808,7.48239977312039e-17
3.867321518114937,8.73948125338881e-17
3.8623215603455936,1.02056588606843e-16
3.8573216025762496,1.1915315559583892e-16
3.852321644806906,1.3908411792858032e-16
3.8473216870375624,1.6231377824091276e-16
3.8423217292682184,1.8938147434669218e-16
3.8373217714988748,2.2091355207070448e-16
3.832321813729531,2.576372306034609e-16
3.8273218559601876,3.003966564882392e-16
3.822321898190844,3.501714876666281e-16
3.8173219404215004,4.080984010594214e-16
3.812321982652157,4.754959769535785e-16
3.807322024882813,5.538934821698528e-16
3.802322067113469,6.450641529476815e-16
3.797322109344125,7.510636692588782e-16
3.7923221515747816,8.742746166378845e-16
3.787322193805438,1.0174578516485074e-15
3.7823222360360944,1.183811825146158e-15
3.777322278266751,1.377041076231826e-15
3.7723223204974072,1.6014352922984008e-15
3.7673223627280636,1.8619605403424184e-15
3.7623224049587196,2.1643645157434023e-15
3.757322447189376,2.515297931540979e-15
3.7523224894200324,2.9224544890427958e-15
3.7473225316506884,3.394732235268681e-15
3.742322573881345,3.942419531003876e-15
3.7373226161120012,4.577409332765187e-15
3.7323226583426576,5.313446041529696e-15
3.727322700573314,6.166409800637519e-15
3.7223227428039705,7.15464384626793e-15
3.717322785034627,8.29933133934526e-15
3.712322827265283,9.624929052545738e-15
3.7073228694959393,1.1159666367248002e-14
3.7023229117265952,1.2936119272198413e-14
3.6973229539572516,1.4991870470461124e-14
3.692322996187908,1.7370268319126445e-14
3.6873230384185645,2.0121299175961215e-14
3.682323080649221,2.3302589841438002e-14
3.6773231228798773,2.6980559200577916e-14
3.6723231651105337,3.1231740929150463e-14
3.6673232073411897,3.614430228113833e-14
3.662323249571846,4.1819787573750255e-14
3.657323291802502,4.837511909487889e-14
3.6523233340331585,5.5944892846423886e-14
3.647323376263815,6.468401188570219e-14
3.6423234184944713,7.477070612737621e-14
3.6373234607251277,8.640999442359236e-14
3.632323502955784,9.983765266782182e-14
3.6273235451864405,1.1532476070166553e-13
3.6223235874170965,1.3318291109495806e-13
3.617323629647753,1.5377017458950625e-13
3.6123236718784093,1.7749793034037312e-13
3.6073237141090653,2.048386842762373e-13
3.6023237563397217,2.3633501618206134e-13
3.597323798570378,2.726098157661222e-13
3.5923238408010345,3.1437799032979015e-13
3.587323883031691,3.624598520754402e-13
3.5823239252623473,4.1779642197577033e-13
3.5773239674930037,4.81466919951295e-13
3.5723240097236597,5.547087483870367e-13
3.567324051954316,6.389403183581703e-13
3.562324094184972,7.357871159990215e-13
3.5573241364156285,8.471114609978152e-13
3.552324178646285,9.750464710884815e-13
3.5473242208769413,1.122034816605976e-12
3.5423242631075977,1.2908729287658298e-12
3.537324305338254,1.4847614155522408e-12
3.5323243475689106,1.7073625413415493e-12
3.5273243897995665,1.962865742215591e-12
3.522324432030223,2.2560622800972676e-12
3.5173244742608794,2.5924302873594583e-12
3.5123245164915353,2.9782316216568313e-12
3.5073245587221917,3.420622140935011e-12
3.502324600952848,3.92777722372184e-12
3.4973246431835046,4.509034603097478e-12
3.492324685414161,5.1750568577735095e-12
3.4873247276448174,5.9380162145272355e-12
3.482324769875474,6.8118046673837006e-12
3.4773248121061298,7.812272815525646e-12
3.472324854336786,8.957501269677534e-12
3.4673248965674426,1.02681089821047e-11
3.4623249387980986,1.1767603425621258e-11
3.457324981028755,1.3482778190241448e-11
3.4523250232594114,1.5444164291441893e-11
3.447325065490068,1.768654230164093e-11
3.442325107720724,2.0249523337909294e-11
3.43732514995138,2.317820797692572e-11
3.4323251921820366,2.652393333716451e-11
3.427325234412693,3.03451198843557e-11
3.4223252766433494,3.470823099739162e-11
3.417325318874006,3.9688859998265165e-11
3.412325361104662,4.537296122384332e-11
3.407325403335318,5.18582438245332e-11
3.4023254455659746,5.925574934340212e-11
3.397325487796631,6.769163679051395e-11
3.392325530027287,7.730920191638431e-11
3.3873255722579434,8.827116074476139e-11
3.3823256144886,1.0076223119228422e-10
3.377325656719256,1.1499205082979105e-10
3.3723256989499126,1.3119847358178623e-10
3.3673257411805686,1.4965129347750284e-10
3.362325783411225,1.7065644952690513e-10
3.3573258256418814,1.9456077247336644e-10
3.352325867872538,2.2175734165547775e-10
3.3473259101031942,2.5269152858717156e-10
3.34232595233385,2.8786781324198255e-10
3.3373259945645066,3.278574695194155e-10
3.332326036795163,3.733072281078771e-10
3.3273260790258194,4.249490380818623e-10
3.3223261212564754,4.83611063240266e-10
3.317326163487132,5.502300655834547e-10
3.3123262057177882,6.258653466349959e-10
3.3073262479484447,7.117144377560225e-10
3.302326290179101,8.091307534171426e-10
3.297326332409757,9.196434468503857e-10
3.2923263746404134,1.044979735897531e-09
3.28732641687107,1.1870899985280475e-09
3.2823264591017263,1.3481759727810857e-09
3.2773265013323827,1.5307224351926153e-09
3.2723265435630386,1.7375327755425744e-09
3.267326585793695,1.9717689344873602e-09
3.2623266280243515,2.236996224870931e-09
3.257326670255008,2.537233617829051e-09
3.252326712485664,2.8770101418757404e-09
3.2473267547163203,3.2614281177145553e-09
3.2423267969469767,3.696234034352448e-09
3.237326839177633,4.1878979640917726e-09
3.2323268814082895,4.743702516113201e-09
3.2273269236389455,5.371842441706596e-09
3.222326965869602,6.081536129939882e-09
3.2173270081002583,6.88315037197512e-09
3.2123270503309147,7.788339926769556e-09
3.207327092561571,8.810203592109322e-09
3.202327134792227,9.963458674532173e-09
3.1973271770228835,1.1264635961594001e-08
3.19232721925354,1.2732297532198172e-08
3.1873272614841963,1.4387279997603133e-08
3.1823273037148523,1.6252966049754347e-08
3.1773273459455087,1.8355587507470564e-08
3.172327388176165,2.07245633977508e-08
3.1673274304068215,2.3392876992312356e-08
3.162327472637478,2.6397496142014732e-08
3.157327514868134,2.97798417179638e-08
3.1523275570987903,3.358630948209462e-08
3.1473275993294467,3.7868851276574245e-08
3.142327641560103,4.268562204549848e-08
3.1373276837907595,4.8101699889666335e-08
3.1323277260214155,5.418988711169749e-08
3.127327768252072,6.103160104101542e-08
3.1223278104827283,6.87178643434083e-08
3.1173278527133848,7.735040552575366e-08
3.112327894944041,8.704288145156716e-08
3.107327937174697,9.79222348964299e-08
3.1023279794053535,1.101302015040976e-07
3.09732802163601,1.238249819649761e-07
3.0923280638666664,1.3918309684038028e-07
3.0873281060973223,1.5640144321132764e-07
3.0823281483279787,1.7569957425321487e-07
3.077328190558635,1.9732222494256078e-07
3.0723282327892916,2.2154210940497446e-07
3.067328275019948,2.4866301793218463e-07
3.062328317250604,2.7902324444887874e-07
3.0573283594812604,3.1299937821749114e-07
3.0523284017119168,3.510104968528365e-07
3.047328443942573,3.935228013016921e-07
3.0423284861732296,4.4105473735066696e-07
3.0373285284038856,4.941826524857116e-07
3.032328570634542,5.535470415675585e-07
3.0273286128651984,6.198594398405541e-07
3.022328655095855,6.939100272907718e-07
3.0173286973265108,7.765760143492624e-07
3.012328739557167,8.688308854354359e-07
3.0073287817878236,9.717545838954685e-07
3.00232882401848,1.0865447295539287e-06
2.9973288662491364,1.2145289684112064e-06
2.9923289084797924,1.3571785630332905e-06
2.987328950710449,1.5161233419472508e-06
2.982328992941105,1.6931681369315014e-06
2.9773290351717616,1.890310848533239e-06
2.972329077402418,2.1097622925207886e-06
2.967329119633074,2.353967993350963e-06
2.9623291618637304,2.6256321051728076e-06
2.957329204094387,2.92774365647347e-06
2.9523292463250432,3.2636053312768323e-06
2.947329288555699,3.63686501791554e-06
2.9423293307863556,4.05155037589721e-06
2.937329373017012,4.5121066923686335e-06
2.9323294152476684,5.023438322240803e-06
2.927329457478325,5.590954030275943e-06
2.922329499708981,6.220616579455969e-06
2.9173295419396372,6.918996937860333e-06
2.9123295841702936,7.693333506193501e-06
2.90732962640095,8.551596800130658e-06
2.9023296686316065,9.50256005592387e-06
2.8973297108622624,1.055587626434417e-05
2.892329753092919,1.1722162177164067e-05
2.8873297953235753,1.3013089872139465e-05
2.8823298375542317,1.444148650695775e-05
2.877329879784888,1.6021442940029013e-05
2.872329922015544,1.7768431946436176e-05
2.8673299642462005,1.9699436810973567e-05
2.862330006476857,2.1833091137136e-05
2.8573300487075133,2.418983077129972e-05
2.8523300909381692,2.679205880531715e-05
2.8473301331688257,2.9664324688457116e-05
2.842330175399482,3.283351855119814e-05
2.8373302176301385,3.632908191894737e-05
2.832330259860795,4.0183236073450954e-05
2.827330302091451,4.4431229403582416e-05
2.8223303443221073,4.911160517545651e-05
2.8173303865527637,5.426649124452427e-05
2.81233042878342,5.99419133295144e-05
2.8073304710140765,6.618813356990717e-05
2.8023305132447325,7.30600161950631e-05
2.797330555475389,8.061742224424372e-05
2.7923305977060453,8.892563539255806e-05
2.7873306399367017,9.805582105828508e-05
2.7823306821673577,0.00010808552109209453
2.777330724398014,0.00011909918647822952
2.7723307666286705,0.00013118875061171432
2.767330808859327,0.00014445424585383268
2.7623308510899833,0.0001590044662104099
2.7573308933206393,0.00017495767912346867
2.7523309355512957,0.00019244238951634246
2.747330977781952,0.00021159815938502234
2.7423310200126085,0.00023257648638378792
2.737331062243265,0.0002555417450107671
2.732331104473921,0.0002806721941581882
2.7273311467045773,0.00030816105495221
2.7223311889352337,0.00033821766296763584
2.71733123116589,0.0003710686990624918
2.712331273396546,0.00040695950323580587
2.7073313156272025,0.000446155476067552
2.702331357857859,0.0004889435724518359
2.6973314000885154,0.0005356338924813483
2.6923314423191718,0.0005865613744819744
2.6873314845498277,0.0006420875953293259
2.682331526780484,0.0007026026833022929
2.6773315690111406,0.0007685273488409873
2.672331611241797,0.0008403150386751843
2.6673316534724534,0.0009184542188729774
2.6623316957031093,0.0010034707924253298
2.6573317379337658,0.001095930657027915
2.652331780164422,0.001196442408745146
2.6473318223950786,0.001305660197238614
2.642331864625735,0.0014242867382118784
2.637331906856391,0.0015530764886610483
2.6323319490870474,0.0016928389904234346
2.627331991317704,0.0018444423873811332
2.62233203354836,0.0020088171214982585
2.617332075779016,0.0021869598126473765
2.6123321180096726,0.002379937326906405
2.607332160240329,0.0025888910376801718
2.6023322024709854,0.002815041283613687
2.597332244701642,0.0030596920268158986
2.592332286932298,0.0033242357143961777
2.587332329162954,0.0036101583457274723
2.5823323713936106,0.003919044747186652
2.577332413624267,0.004252584055376591
2.5723324558549234,0.004612575409005551
2.5673324980855794,0.005000933848680026
2.562332540316236,0.005419696422854582
2.557332582546892,0.005871028497074131
2.5523326247775486,0.006357230262433613
2.5473326670082046,0.006880743437868831
2.542332709238861,0.007444158159474082
2.5373327514695174,0.00805022004851854
2.532332793700174,0.00870183744819923
2.5273328359308302,0.009402088817428727
2.522332878161486,0.010154230268106915
2.5173329203921426,0.010961703230369452
2.512332962622799,0.011828142228249176
2.5073330048534554,0.012757382746023302
2.502333047084112,0.013753469163266193
2.497333089314768,0.014820662734277647
2.4923331315454242,0.015963449585124457
2.4873331737760807,0.017186548699023172
2.482333216006737,0.018494919858207597
2.477333258237393,0.019893771507783275
2.4723333004680494,0.021388568504371683
2.467333342698706,0.02298503970960739
2.4623333849293623,0.024689185385769467
2.4573334271600187,0.026507284348030572
2.4523334693906746,0.028445900824983314
2.447333511621331,0.030511890976274377
2.4423335538519875,0.03271240901335283
2.437333596082644,0.03505491286651091
2.4323336383133003,0.037547169338595754
2.4273336805439563,0.0401972586829829
2.4223337227746127,0.04301357854064488
2.417333765005269,0.04600484716843232
2.4123338072359255,0.04918010588799438
2.4073338494665815,0.05254872068214479
2.402333891697238,0.05612038286289832
2.3973339339278943,0.059905108732908684
2.3923339761585507,0.06391323815961068
2.387334018389207,0.06815543197906762
2.382334060619863,0.07264266814433527
2.3773341028505195,0.07738623653112447
2.372334145081176,0.08239773231173562
2.3673341873118323,0.08768904780663199
2.3623342295424887,0.09327236272175617
2.3573342717731447,0.0991601326787723
2.352334314003801,0.10536507594493456
2.3473343562344575,0.11190015826935433
2.342334398465114,0.11877857573308306
2.3373344406957703,0.12601373552185907
2.3323344829264263,0.1336192345325815
2.3273345251570827,0.14160883572776853
2.322334567387739,0.14999644215652674
2.3173346096183955,0.15879606856597153
2.3123346518490515,0.16802181053381962
2.307334694079708,0.17768781106097895
2.3023347363103643,0.18780822457261964
2.2973347785410207,0.19839717828736897
2.292334820771677,0.20946873092709165
2.287334863002333,0.22103682875411235
2.2823349052329895,0.2331152589387551
2.277334947463646,0.24571760027766462
2.2723349896943024,0.2588571713023989
2.2673350319249588,0.27254697583814286
2.2623350741556147,0.28679964609394415
2.257335116386271,0.3016273833882997
2.2523351586169276,0.3170418966371064
2.247335200847584,0.33305433875449186
2.24233524307824,0.3496752411406836
2.2373352853088964,0.36691444645443494
2.2323353275395528,0.3847810398902327
2.227335369770209,0.40328327920231366
2.2223354120008656,0.4224285237379543
2.2173354542315216,0.4422231627613085
2.212335496462178,0.46267254336598757
2.2073355386928344,0.48378089828928317
2.202335580923491,0.5055512739532974
2.197335623154147,0.5279854590681562
2.192335665384803,0.5510839141398489
2.1873357076154596,0.5748457022300806
2.182335749846116,0.5992684213181185
2.1773357920767724,0.6243481386147796
2.1723358343074284,0.6500793271772025
2.167335876538085,0.6764548051697805
2.162335918768741,0.7034656781121952
2.1573359609993976,0.731101284450242
2.152336003230054,0.7593491447795668
2.14733604546071,0.7881949150468137
2.1423360876913664,0.8176223440476916
2.137336129922023,0.8476132355371433
2.1323361721526792,0.8781474152635971
2.1273362143833356,0.9092027032374358
2.1223362566139916,0.9407548915431903
2.117336298844648,0.9727777280055783
2.1123363410753044,1.0052429060212824
2.107336383305961,1.0381200608705698
2.1023364255366173,1.0713767728253478
2.0973364677672732,1.1049785773722105
2.0923365099979296,1.1388889828693212
2.087336552228586,1.1730694959547057
2.0823365944592425,1.207479655018126
2.0773366366898984,1.2420770720400784
2.072336678920555,1.2768174830868386
2.0673367211512113,1.3116548077303474
2.0623367633818677,1.3465412176341454
2.057336805612524,1.3814272145118704
2.05233684784318,1.4162617176215133
2.0473368900738365,1.4509921609072909
2.042336932304493,1.4855645998410014
2.0373369745351493,1.5199238279466771
2.0323370167658057,1.554013502916593
2.0273370589964617,1.5877762821441712
2.022337101227118,1.621153967410994
2.0173371434577745,1.6540876583725914
2.012337185688431,1.6865179143920617
2.007337227919087,1.7183849241741989
2.0023372701497433,1.749628682557127
1.9973373123803997,1.7801891737256386
1.992337354611056,1.8100065600223518
1.9873373968417125,1.8390213754517821
1.9823374390723685,1.867174722899598
1.977337481303025,1.8944084740272076
1.9723375235336813,1.9206654707511905
1.9673375657643377,1.9458897271792555
1.9623376079949941,1.9700266308505339
1.95733765022565,1.9930231421178373
1.9523376924563065,2.0148279905139987
1.947337734686963,2.035391866962253
1.9423377769176193,2.0546676107220208
1.9373378191482753,2.072610390004857
1.9323378613789317,2.0891778752493977
1.9273379036095881,2.1043304041078303
1.9223379458402445,2.1180311372671796
1.917337988070901,2.1302462043054278
1.912338030301557,2.140944838862909
1.9073380725322133,2.150099502491683
1.9023381147628697,2.1576859966281243
1.8973381569935261,2.1636835622149797
1.8923381992241826,2.1680749665773353
1.8873382414548385,2.1708465772313805
1.882338283685495,2.171988422374045
1.8773383259161514,2.1714942378658995
1.8723383681468078,2.1693615005780136
1.8673384103774642,2.165591448026308
1.8623384526081201,2.1601890842646108
1.8573384948387766,2.1531631720505
1.852338537069433,2.1445262113369683
1.8473385793000894,2.1342944041795517
1.8423386215307453,2.1224876061826157
1.8373386637614018,2.1091292646431397
1.8323387059920582,2.0942463435846674
1.8273387482227146,2.0778692359113267
1.822338790453371,2.0600316629513924
1.817338832684027,2.0407705617034155
1.8123388749146834,2.0201259601466024
1.8073389171453398,1.9981408410296262
1.8023389593759962,1.9748609946106648
1.7973390016066526,1.9503348608838436
1.7923390438373086,1.924613361894218
1.787339086067965,1.8977497248134463
1.7823391282986214,1.8697992965201273
1.7773391705292778,1.8408193505011619
1.7723392127599338,1.8108688869616305
1.7673392549905902,1.7800084270987682
1.7623392972212466,1.7482998025588228
1.757339339451903,1.7158059411520064
1.7523393816825594,1.6825906499486618
1.7473394239132154,1.6487183969173884
1.7423394661438718,1.6142540922921544
1.7373395083745282,1.5792628708687426
1.7323395506051846,1.5438098764307715
1.727339592835841,1.5079600494916114
1.722339635066497,1.471777919510136
1.7173396772971534,1.4353274026964529
1.7123397195278098,1.3986716064684037
1.7073397617584662,1.3618726415524651
1.7023398039891222,1.3249914426440799
1.6973398462197786,1.2880875984548263
1.692339888450435,1.2512191918781685
1.6873399306810914,1.214442650904359
1.6823399729117479,1.1778126108095197
1.6773400151424038,1.1413817880369146
1.6723400573730602,1.1052008660811596
1.6673400996037167,1.0693183935805781
1.662340141834373,1.0337806947213137
1.6573401840650295,0.9986317919597536
1.6523402262956854,0.9639133409793774
1.6473402685263419,0.9296645777150356
1.6423403107569983,0.895922277202458
1.6373403529876547,0.8627207239444636
1.6323403952183106,0.8300916934276422
1.627340437448967,0.7980644443745203
1.6223404796796235,0.7666657212758841
1.6173405219102799,0.7359197667159522
1.6123405641409363,0.7058483429782897
1.6073406063715923,0.6764707624025252
1.6023406486022487,0.6478039259499477
1.597340690832905,0.619862369428955
1.5923407330635615,0.5926583168286412
1.587340775294218,0.5662017402090248
1.5823408175248739,0.5405004255994137
1.5773408597555303,0.5155600443609646
1.5723409019861867,0.4913842294752597
1.5673409442168431,0.46797465622725526
1.5623409864474995,0.4453311267576904
1.5573410286781555,0.4234516579670684
1.552341070908812,0.4023325722603588
1.5473411131394683,0.3819685906287255
1.5423411553701247,0.3623529275720932
1.5373411976007807,0.34347738737428246
1.532341239831437,0.3253324612512806
1.5273412820620935,0.30790742490305845
1.52234132429275,0.29119043601080125
1.5173413665234063,0.27516863123453716
1.5123414087540623,0.25982822228139124
1.5073414509847187,0.24515459063225226
1.5023414932153751,0.2311323805345875
1.4973415354460315,0.21774558989167966
1.492341577676688,0.2049776587035197
1.487341619907344,0.19281155474199257
1.4823416621380003,0.1812298561725373
1.4773417043686567,0.17021483086590222
1.4723417465993132,0.1597485121766124
1.4673417888299696,0.1498127709988396
1.462341831060626,0.14038938394511835
1.4573418732912824,0.13146009752828328
1.452341915521938,0.12300668826158488
1.4473419577525943,0.11501101862575479
1.4423419999832507,0.10745508888429815
1.4373420422139072,0.10032108475918237
1.4323420844445636,0.09359142100784609
1.42734212667522,0.08724878096890468
1.4223421689058764,0.08127615216774335
1.4173422111365328,0.0756568580942129
1.4123422533671892,0.07037458628277117
1.4073422955978447,0.06541341284060305
1.4023423378285012,0.06075782358153551
1.3973423800591576,0.056392731932996105
1.392342422289814,0.0523034937900637
1.3873424645204704,0.04847591949489442
1.3823425067511268,0.04489628312181917
1.3773425489817832,0.04155132924836659
1.3723425912124396,0.038428277390672956
1.367342633443096,0.03551482427847078
1.3623426756737524,0.0327991441403593
1.357342717904408,0.03026988716464412
1.3523427601350644,0.027916176294911985
1.3473428023657208,0.025727602512919
1.3423428445963772,0.023694218754523905
1.3373428868270336,0.021806532597426695
1.33234292905769,0.02005549785255093
1.3273429712883464,0.01843250518410804
1.3223430135190029,0.01692937187678842
1.3173430557496593,0.015538330862180039
1.3123430979803148,0.014252019110430761
1.3073431402109712,0.013063465487355205
1.3023431824416276,0.011966078171607145
1.297343224672284,0.010953631721183398
1.2923432669029404,0.010020253873332942
1.2873433091335968,0.009160412156900055
1.2823433513642533,0.008368900391175348
1.2773433935949097,0.007640825140438358
1.272343435825566,0.006971592188514176
1.2673434780562216,0.006356893092819612
1.262343520286878,0.005792691872523817
1.2573435625175344,0.005275211880592319
1.2523436047481908,0.004800922904635145
1.2473436469788473,0.00436652853664042
1.2423436892095037,0.0039689538468803
1.23734373144016,0.003605333392544708
1.2323437736708165,0.003272999587027246
1.227343815901473,0.0029694714512878088
1.2223438581321293,0.002692443764386893
1.2173439003627848,0.0024397766261591044
1.2123439425934412,0.0022094854411028255
1.2073439848240977,0.0019997313289354273
1.202344027054754,0.001808811963927757
1.1973440692854105,0.0016351528421008187
1.192344111516067,0.001477298972659818
1.1873441537467233,0.0013339069876593206
1.1823441959773797,0.0012037376618395897
1.1773442382080361,0.0010856488328421896
1.1723442804386917,0.0009785887105908401
1.167344322669348,0.0008815895634949333
1.1623443649000045,0.0007937617682766841
1.157344407130661,0.0007142882096154635
1.1523444493613173,0.0006424190154158844
1.1473444915919737,0.0005774666133137493
1.1423445338226301,0.0005188010940060186
1.1373445760532865,0.000465845867100114
1.132344618283943,0.0004180735953972704
1.1273446605145985,0.0003750023938292478
1.1223447027452549,0.00033619227963526684
1.1173447449759113,0.0003012418607764966
1.1123447872065677,0.00026978525002272527
1.1073448294372241,0.00024148919259538677
1.1023448716678805,0.00021605039570315112
1.097344913898537,0.00019319304875224487
1.0923449561291934,0.0001726665234484059
1.0873449983598498,0.00015424324342769327
1.0823450405905062,0.00013771671345784743
1.0773450828211617,0.00012289969864069612
1.0723451250518181,0.00010962254442043384
1.0673451672824745,9.773162856437823e-05
1.062345209513131,8.708793663461283e-05
1.0573452517437874,7.756575281303566e-05
1.0523452939744438,6.905145828152262e-05
1.0473453362051002,6.144242969520368e-05
1.0423453784357566,5.46460306220825e-05
1.037345420666413,4.857868915769947e-05
1.0323454628970685,4.316505525990662e-05
1.027345505127725,3.833723168624162e-05
1.0223455473583813,3.4034072754369315e-05
1.0173455895890378,3.0200545483719293e-05
1.0123456318196942,2.6787148012294783e-05
1.0073456740503506,2.3749380515056183e-05
1.002345716281007,2.1047264177275e-05
0.9973457585116634,1.8644904095788275e-05
0.9923458007423198,1.651009229110178e-05
0.9873458429729762,1.4613947311830302e-05
0.9823458852036318,1.2930587198252338e-05
0.9773459274342882,1.1436832842274897e-05
0.9723459696649446,1.011193903561777e-05
0.967346011895601,8.93735073567336e-06
0.9623460541262574,7.896482298697936e-06
0.9573460963569138,6.97451763258092e-06
0.9523461385875702,6.158229406523498e-06
0.9473461808182266,5.4358156229836134e-06
0.942346223048883,4.7967520089047235e-06
0.9373462652795386,4.231658819480542e-06
0.932346307510195,3.7321807696387455e-06
0.9273463497408514,3.2908789173206763e-06
0.9223463919715078,2.9011334198688617e-06
0.9173464342021642,2.5570561718195637e-06
0.9123464764328206,2.2534124105741065e-06
0.907346518663477,1.98555044717065e-06
0.9023465608941335,1.7493387440051121e-06
0.8973466031247899,1.5411096210363102e-06
0.8923466453554454,1.3576089277799052e-06
0.8873466875861018,1.1959510710897928e-06
0.8823467298167582,1.0535788389860178e-06
0.8773467720474146,9.282275090582518e-07
0.872346814278071,8.178927764942701e-07
0.8673468565087274,7.208020816266924e-07
0.8623468987393839,6.353889599748771e-07
0.8573469409700403,5.602700788899724e-07
0.8523469832006967,4.94224663820585e-07
0.8473470254313531,4.3617605360141823e-07
0.8423470676620086,3.8517515772744584e-07
0.837347109892665,3.4038561904696844e-07
0.8323471521233214,3.0107051248421955e-07
0.8273471943539779,2.6658043416146977e-07
0.8223472365846343,2.3634285559355746e-07
0.8173472788152907,2.0985263452907448e-07
0.8123473210459471,1.866635876519465e-07
0.8073473632766035,1.6638104095521406e-07
0.8023474055072599,1.4865528144426242e-07
0.7973474477379154,1.3317583926528887e-07
0.7923474899685718,1.1966653277637833e-07
0.7873475321992283,1.0788121090442493e-07
0.7823475744298847,9.760012780124764e-08
0.7773476166605411,8.862688477091043e-08
0.7723476588911975,8.078587412321145e-08
0.7673477011218539,7.392015942612472e-08
0.7623477433525103,6.78897269529391e-08
0.7573477855831667,6.257004426096994e-08
0.7523478278138231,5.785086403830956e-08
0.7473478700444787,5.363521476691058e-08
0.7423479122751351,4.983852443182239e-08
0.7373479545057915,4.6387829413918895e-08
0.7323479967364479,4.322102769404218e-08
0.7273480389671043,4.0286143336602976e-08
0.7223480811977607,3.7540577602428195e-08
0.7173481234284171,3.4950330603492206e-08
0.7123481656590736,3.2489185769709086e-08
0.70734820788973,3.0137857166572886e-08
0.7023482501203855,2.788310652982321e-08
0.6973482923510419,2.5716842474151336e-08
0.6923483345816983,2.3635218469480577e-08
0.6873483768123547,2.1637748734323885e-08
0.6823484190430111,1.9726462142633025e-08
0.6773484612736675,1.7905113646417482e-08
0.672348503504324,1.6178470737084413e-08
0.6673485457349804,1.4551689333435106e-08
0.6623485879656368,1.3029789478015302e-08
0.6573486301962923,1.1617236664454436e-08
0.6523486724269487,1.0317629837093271e-08
0.6473487146576051,9.133492422403326e-09
0.6423487568882615,8.066158463831554e-09
0.637348799118918,7.11574228904157e-09
0.6323488413495744,6.281177337463472e-09
0.6273488835802308,5.560307950101419e-09
0.6223489258108872,4.9500171394671405e-09
0.6173489680415436,4.446373615283846e-09
0.6123490102722,4.044782577842579e-09
0.6073490525028555,3.740126885322666e-09
0.602349094733512,3.5268879859576787e-09
0.5973491369641684,3.3992392759619868e-09
0.5923491791948248,3.3511080710559183e-09
0.5873492214254812,3.3762059244567572e-09
0.5823492636561376,3.4680303524932743e-09
0.577349305886794,3.619843923537388e-09
0.5723493481174504,3.824638940601446e-09
0.5673493903481068,4.075097458949444e-09
0.5623494325787624,4.363557035199119e-09
0.5573494748094188,4.68199236925777e-09
0.5523495170400752,5.022021901265207e-09
0.5473495592707316,5.374946548278906e-09
0.542349601501388,5.731825250001036e-09
0.5373496437320444,6.083589025276088e-09
0.5323496859627008,6.421192040600375e-09
0.5273497281933572,6.7357949961522824e-09
0.5223497704240136,7.018973183480897e-09
0.5173498126546701,7.2629390864901734e-09
0.5123498548853256,7.46076757682372e-09
0.507349897115982,7.606610743463995e-09
0.5023499393466384,7.695889284324397e-09
0.4973499815772948,7.72544820004004e-09
0.49235002380795123,7.693666224460062e-09
0.48735006603860764,7.600510894040242e-09
0.48235010826926406,7.447534232023213e-09
0.47735015049992013,7.237807488268339e-09
