5.472307962074259,8.359330415700585e-84
5.467308004304916,1.2890927391166034e-83
5.462308046535572,1.9872939392356497e-83
5.457308088766228,3.0626979743483278e-83
5.452308130996885,4.718554980751705e-83
5.44730817322754,7.267335439758014e-83
5.442308215458197,1.1189256277802706e-82
5.437308257688853,1.7222077361583287e-82
5.43230829991951,2.6498826715047705e-82
5.427308342150166,4.0758960567536667e-82
5.422308384380822,6.267199753946454e-82
5.417308426611479,9.63333588330436e-82
5.412308468842135,1.4802377471139178e-81
5.407308511072792,2.2737194473878924e-81
5.402308553303448,3.49133956551516e-81
5.397308595534104,5.359156821834015e-81
5.39230863776476,8.223364212011594e-81
5.387308679995416,1.2613945959593875e-80
5.382308722226073,1.9341967848360032e-80
5.377308764456729,2.9648220880306352e-80
5.372308806687386,4.543024817665086e-80
5.367308848918042,6.958897317524202e-80
5.3623088911486985,1.0655776272140177e-79
5.357308933379355,1.631096795529027e-79
5.35230897561001,2.495888023510515e-79
5.347309017840667,3.8178778373119975e-79
5.342309060071323,5.838099036589891e-79
5.33730910230198,8.924304611506201e-79
5.332309144532636,1.363740876854116e-78
5.3273091867632925,2.0832671015898366e-78
5.322309228993949,3.1813743206172597e-78
5.317309271224605,4.856712495661888e-78
5.312309313455262,7.411888843187797e-78
5.307309355685918,1.1307726931696242e-77
5.302309397916574,1.7245771280887113e-77
5.29730944014723,2.6293702497590904e-77
5.2923094823778865,4.007592182659112e-77
5.287309524608543,6.106307942820918e-77
5.282309566839199,9.301177726409e-77
5.277309609069856,1.4163213176864667e-76
5.272309651300512,2.1560095809364825e-76
5.2673096935311685,3.280990311816877e-76
5.262309735761825,4.991427646162894e-76
5.2573097779924804,7.591197099037314e-76
5.252309820223137,1.1541476662601361e-75
5.247309862453793,1.7541953786729425e-75
5.24230990468445,2.6653838598808655e-75
5.237309946915106,4.0486144157999833e-75
5.2323099891457625,6.147767883859367e-75
5.227310031376419,9.33237853774933e-75
5.222310073607075,1.4162190710232898e-74
5.217310115837732,2.1484786176391943e-74
5.212310158068387,3.258317315499112e-74
5.207310200299044,4.939882847829306e-74
5.2023102425297,7.486865098405469e-74
5.1973102847603565,1.1343382566760971e-73
5.192310326991013,1.718080381082359e-73
5.187310369221669,2.6013681531931444e-73
5.182310411452326,3.937465164586949e-73
5.177310453682982,5.957819469545081e-73
5.172310495913639,9.011826867264367e-73
5.167310538144294,1.3626754836119017e-72
5.1623105803749505,2.0598017131476464e-72
5.157310622605607,3.112512343036807e-72
5.152310664836263,4.701634173867034e-72
5.14731070706692,7.099669495351006e-72
5.142310749297576,1.0717130304180805e-71
5.137310791528233,1.6172218030570852e-71
5.132310833758889,2.4395575025282115e-71
5.127310875989545,3.678770593150402e-71
5.122310918220202,5.545547028165928e-71
5.117310960450857,8.356724117318358e-71
5.112311002681514,1.2588609160377387e-70
5.10731104491217,1.8956997502979215e-70
5.1023110871428266,2.8537219196952832e-70
5.097311129373483,4.2944177740372947e-70
5.092311171604139,6.460227085551712e-70
5.087311213834796,9.71499307818483e-70
5.082311256065452,1.4604572245136483e-69
5.077311298296109,2.1947612316316777e-69
5.072311340526765,3.297146955424209e-69
5.0673113827574205,4.951564401687452e-69
5.062311424988077,7.433617304539623e-69
5.057311467218733,1.115609362379843e-68
5.05231150944939,1.6737046802647836e-68
5.047311551680046,2.5101563716785528e-68
5.042311593910703,3.763383791734602e-68
5.037311636141359,5.640434063195859e-68
5.032311678372015,8.450906396941198e-68
5.027311720602672,1.2657596021722986e-67
5.022311762833327,1.8952073215888008e-67
5.017311805063984,2.836743746452666e-67
5.01231184729464,4.244647667225298e-67
5.007311889525297,6.34923733827205e-67
5.002311931755953,9.49423550473342e-67
4.997311973986609,1.419243932093423e-66
4.992312016217266,2.1208634806737396e-66
4.987312058447922,3.168304754888458e-66
4.982312100678579,4.731508523518625e-66
4.977312142909234,7.06367246502532e-66
4.972312185139891,1.0541913956739105e-65
4.967312227370547,1.5727729884745894e-65
4.962312269601203,2.345686065971028e-65
4.95731231183186,3.4972812404020945e-65
4.952312354062516,5.212517798344337e-65
4.947312396293173,7.766410018802515e-65
4.942312438523829,1.1567732997603648e-64
4.9373124807544855,1.7223870106133025e-64
4.932312522985141,2.5636994418009547e-64
4.927312565215797,3.814667326711696e-64
4.922312607446454,5.674122636164778e-64
4.91731264967711,8.437087203527356e-64
4.912312691907767,1.2541151341967302e-63
4.907312734138423,1.8635138025750225e-63
4.9023127763690795,2.768072406754233e-63
4.897312818599736,4.1102781817313987e-63
4.892312860830392,6.10117182130051e-63
4.887312903061048,9.053216969529336e-63
4.882312945291705,1.342887503272384e-62
4.877312987522361,1.991236316071067e-62
4.872313029753017,2.951562117624024e-62
4.8673130719836735,4.373473857851749e-62
4.86231311421433,6.478078578963537e-62
4.857313156444986,9.592031585470387e-62
4.852313198675643,1.4197745976487552e-61
4.847313240906299,2.1007403550553967e-61
4.8423132831369555,3.107201051124653e-61
4.837313325367612,4.594203415803501e-61
4.8323133675982675,6.790393241025365e-61
4.827313409828924,1.0032830734881274e-60
4.82231345205958,1.4818217854332156e-60
4.817313494290237,2.1878247524495863e-60
4.812313536520893,3.229039412571492e-60
4.8073135787515495,4.76407581402247e-60
4.802313620982206,7.026333842274098e-60
4.797313663212862,1.035914790530996e-59
4.792313705443519,1.5267390038654961e-59
4.787313747674174,2.249321270092695e-59
4.782313789904831,3.3127185222536416e-59
4.777313832135487,4.8771306600032905e-59
4.7723138743661435,7.177802706584258e-59
4.7673139165968,1.0560059870154328e-58
4.762313958827456,1.553064320289482e-58
4.757314001058113,2.283290406849818e-58
4.752314043288769,3.355690813231393e-58
4.747314085519426,4.930060028143596e-58
4.742314127750081,7.240562865490111e-58
4.7373141699807375,1.0630229404502101e-57
4.732314212211394,1.5601394652738517e-57
4.72731425444205,2.2889427482354864e-57
4.722314296672707,3.357046450106749e-57
4.717314338903363,4.92187773484636e-57
4.71231438113402,7.213655890786335e-57
4.707314423364676,1.0568933637314243e-56
4.702314465595332,1.5479539124786613e-56
4.697314507825988,2.2663964440198315e-56
4.692314550056644,3.31714579474548e-56
4.687314592287301,4.853374754358739e-56
4.682314634517957,7.098610942329891e-56
4.677314676748614,1.0378935880689205e-55
4.67231471897927,1.5169866221327035e-55
4.667314761209926,2.2164586524279823e-55
4.662314803440583,3.237322072802041e-55
4.657314845671239,4.726720715377977e-55
4.652314887901895,6.898918987180448e-55
4.647314930132551,1.0065804059903661e-54
4.642314972363208,1.4681195716259538e-54
4.637315014593864,2.1405189332704478e-54
4.63231505682452,3.1197552860714424e-54
4.627315099055177,4.545324396759057e-54
4.622315141285833,6.619896519943417e-54
4.61731518351649,9.637813629914316e-54
4.612315225747146,1.4026389236333963e-53
4.607315267977802,2.0405738531447343e-53
4.602315310208459,2.9675418286778554e-53
4.597315352439114,4.313983944261063e-53
4.592315394669771,6.268973059088571e-53
4.587315436900427,9.10645972213428e-53
4.582315479131084,1.3223217539201878e-52
4.57731552136174,1.9193680931309172e-52
4.572315563592396,2.7849163263702776e-52
4.567315605823053,4.039224825366501e-52
4.562315648053709,5.856190485899361e-52
4.557315690284366,8.487172099391197e-52
4.552315732515021,1.2295349676207145e-51
4.547315774745678,1.7805259274753662e-51
4.542315816976334,2.5774177152187953e-51
4.53731585920699,3.7294949429464735e-51
4.532315901437647,5.394406003328253e-51
4.527315943668303,7.799475364325564e-51
4.52231598589896,1.1272367410851909e-50
4.517316028129616,1.6285187682813056e-50
4.5123160703602725,2.351788497317566e-50
4.507316112590928,3.3949365504036824e-50
4.502316154821584,4.898838058084916e-50
4.497316197052241,7.0661476822050285e-50
4.492316239282897,1.018827822925627e-49
4.487316281513554,1.4684111279594864e-49
4.48231632374421,2.1155520587059616e-49
4.4773163659748665,3.04669804168143e-49
4.472316408205523,4.38596638829706e-49
4.467316450436179,6.311491366357632e-49
4.462316492666835,9.0788363960489e-49
4.457316534897492,1.305451277751147e-48
4.452316577128148,1.8763950566448465e-48
4.447316619358804,2.696012856528887e-48
4.4423166615894605,3.872172598046323e-48
4.437316703820117,5.559344568582071e-48
4.432316746050773,7.978655868635934e-48
4.42731678828143,1.1446541483652223e-47
4.422316830512086,1.6415662819492209e-47
4.417316872742742,2.353332583706366e-47
4.412316914973399,3.372485351765494e-47
4.4073169572040545,4.831253013134214e-47
4.402316999434711,6.918523352762355e-47
4.397317041665367,9.904026815567055e-47
4.392317083896024,1.4172800251458253e-46
4.38731712612668,2.027428298653885e-46
4.3823171683573365,2.899223111689315e-46
4.377317210587993,4.144423920128403e-46
4.3723172528186485,5.922335215293292e-46
4.367317295049306,8.45994885031774e-46
4.362317337279961,1.2080582213046066e-45
4.357317379510618,1.724457918869426e-45
4.352317421741274,2.460713117682132e-45
4.3473174639719305,3.5100385271063606e-45
4.342317506202587,5.004999223448146e-45
4.337317548433243,7.134046957981709e-45
4.3323175906639,1.0164972471851855e-44
4.327317632894555,1.4478151848230965e-44
4.322317675125213,2.0613656301477308e-44
4.317317717355868,2.933797662487649e-44
4.3123177595865245,4.1738486548596206e-44
4.307317801817181,5.935711596043901e-44
4.302317844047837,8.437942255077098e-44
4.297317886278494,1.1990189734628648e-43
4.29231792850915,1.7030970032572234e-43
4.287317970739807,2.418101985754076e-43
4.282318012970463,3.4318621754950005e-43
4.277318055201119,4.8685898504140454e-43
4.272318097431775,6.903873883208255e-43
4.267318139662431,9.785816378120431e-43
4.262318181893088,1.3864817002132834e-42
4.257318224123744,1.9635522745685558e-42
4.252318266354401,2.779588301772728e-42
4.247318308585057,3.933024316270226e-42
4.242318350815713,5.562620112634173e-42
4.23731839304637,7.863885931180151e-42
4.232318435277026,1.1112156875919948e-41
4.227318477507682,1.5694990136349373e-41
4.222318519738339,2.2157625486076102e-41
4.217318561968995,3.1266738673809913e-41
4.212318604199651,4.4099794417688114e-41
4.207318646430307,6.217020103361105e-41
4.202318688660964,8.760250212390513e-41
4.19731873089162,1.233774563493489e-40
4.192318773122277,1.7367467058911523e-40
4.187318815352933,2.443513202344699e-40
4.182318857583589,3.436105997146839e-40
4.177318899814246,4.829345423892634e-40
4.172318942044901,6.783850131483724e-40
4.167318984275558,9.524171708452449e-40
4.162319026506214,1.336405899539165e-39
4.157319068736871,1.874163678085943e-39
4.152319110967527,2.626836480430309e-39
4.1473191531981835,3.67971416238723e-39
4.14231919542884,5.151699400498987e-39
4.137319237659495,7.208466693524552e-39
4.132319279890153,1.008074067538982e-38
4.127319322120808,1.4089672983655838e-38
4.122319364351465,1.968205694896795e-38
4.117319406582121,2.747916888838452e-38
4.1123194488127774,3.8344473049556247e-38
4.107319491043434,5.347742437397328e-38
4.10231953327409,7.454335538894682e-38
4.097319575504747,1.0385322376014816e-37
4.092319617735402,1.4461221390757209e-37
4.0873196599660595,2.012633629707207e-37
4.082319702196715,2.7996225043005372e-37
4.077319744427371,3.8923235689339275e-37
4.072319786658028,5.40869340801759e-37
4.067319828888684,7.51188096793795e-37
4.062319871119341,1.0427416480706714e-36
4.057319913349997,1.4466892604656958e-36
4.0523199555806535,2.0060575548328897e-36
4.04731999781131,2.7802295740998098e-36
4.042320040041966,3.851121980256396e-36
4.037320082272622,5.331682505632229e-36
4.032320124503278,7.377575869210758e-36
4.027320166733935,1.0203250455675859e-35
4.022320208964591,1.41040228364429e-35
4.0173202511952475,1.9486427452132372e-35
4.012320293425904,2.690991572386633e-35
4.00732033565656,3.714413626583872e-35
4.002320377887217,5.124760017541072e-35
3.9973204201178727,7.067568886572301e-35
3.992320462348529,9.74289098892727e-35
3.9873205045791855,1.3425633966652591e-34
3.9823205468098415,1.8493470774336383e-34
3.977320589040498,2.5465111590348604e-34
3.9723206312711543,3.5052768384215548e-34
3.9673206735018107,4.823404743911357e-34
3.962320715732467,6.635042411493448e-34
3.9573207579631235,9.12420718177642e-34
3.95232080019378,1.254323862932757e-33
3.947320842424436,1.7238041067428775e-33
3.9423208846550923,2.3682599328309653e-33
3.9373209268857483,3.252615335428608e-33
3.9323209691164047,4.465764530486867e-33
3.927321011347061,6.1293723814120824e-33
3.9223210535777175,8.409886232423123e-33
3.917321095808374,1.1534923710129874e-32
3.9123211380390304,1.581562069759489e-32
3.9073211802696868,2.1677093565204237e-32
3.9023212225003427,2.969994327350206e-32
3.897321264730999,4.0676778408520873e-32
3.892321306961655,5.568915728328883e-32
3.8873213491923115,7.621227799533333e-32
3.882321391422968,1.0425735814204991e-31
3.8773214336536244,1.4256518357199808e-31
3.8723214758842808,1.9486909301712144e-31
3.867321518114937,2.6625214090410777e-31
3.8623215603455936,3.6363193471999017e-31
3.8573216025762496,4.9641847169513235e-31
3.852321644806906,6.774062736194104e-31
3.8473216870375624,9.23983680078684e-31
3.8423217292682184,1.2597712484617802e-30
3.8373217714988748,1.7168404305560513e-30
3.832321813729531,2.3387165528502676e-30
3.8273218559601876,3.184441324015002e-30
3.822321898190844,4.3340659407337184e-30
3.8173219404215004,5.896074829419726e-30
3.812321982652157,8.017413498300818e-30
3.807322024882813,1.0897027092921788e-29
3.802322067113469,1.4804129419368443e-29
3.797322109344125,2.0102842690247632e-29
3.7923221515747816,2.72854125356324e-29
3.787322193805438,3.701695967669374e-29
3.7823222360360944,5.0195744258928266e-29
3.777322278266751,6.803427823366743e-29
3.7723223204974072,9.216844156083662e-29
3.7673223627280636,1.2480419441180853e-28
3.7623224049587196,1.689147366991283e-28
3.757322447189376,2.2850532364688313e-28
3.7523224894200324,3.089687686969589e-28
3.7473225316506884,4.175624413296997e-28
3.742322573881345,5.64047947330257e-28
3.7373226161120012,7.615485269704325e-28
3.7323226583426576,1.027697671220946e-27
3.727322700573314,1.3861770633292802e-27
3.7223227428039705,1.8687747286072965e-27
3.717322785034627,2.5181379068833387e-27
3.712322827265283,3.391453214111482e-27
3.7073228694959393,4.5653638561380795e-27
3.7023229117265952,6.142536256191094e-27
3.6973229539572516,8.26042474257902e-27
3.692322996187908,1.11029638756427e-26
3.6873230384185645,1.4916158068232875e-26
3.682323080649221,2.0028856529160376e-26
3.6773231228798773,2.688042353876098e-26
3.6723231651105337,3.6057573055446253e-26
3.6673232073411897,4.8343376726456537e-26
3.662323249571846,6.478243365277302e-26
3.657323291802502,8.676748532874156e-26
3.6523233340331585,1.1615447092015868e-25
3.647323376263815,1.5541527925159825e-25
3.6423234184944713,2.0784043924105672e-25
3.6373234607251277,2.77807929740886e-25
3.632323502955784,3.7113948464418246e-25
3.6273235451864405,4.955726160745886e-25
3.6223235874170965,6.613855977414527e-25
3.617323629647753,8.822245245307018e-25
3.6123236718784093,1.1761971877304537e-24
3.6073237141090653,1.5673190500535987e-24
3.6023237563397217,2.087423605545736e-24
3.597323798570378,2.7786848749048223e-24
3.5923238408010345,3.696946343245418e-24
3.587323883031691,4.916111727916184e-24
3.5823239252623473,6.533933052951107e-24
3.5773239674930037,8.679636458185384e-24
3.5723240097236597,1.1523963622577694e-23
3.567324051954316,1.5292386591217377e-23
3.562324094184972,2.0282489140287504e-23
3.5573241364156285,2.688681549263921e-23
3.552324178646285,3.562288920180716e-23
3.5473242208769413,4.71726299598264e-23
3.5423242631075977,6.243408113733397e-23
3.537324305338254,8.258925433572867e-23
3.5323243475689106,1.091930618288079e-22
3.5273243897995665,1.442898248542088e-22
3.522324432030223,1.9056582077351123e-22
3.5173244742608794,2.515489018472896e-22
3.5123245164915353,3.3186955978050177e-22
3.5073245587221917,4.3760215236503125e-22
3.502324600952848,5.767106477535255e-22
3.4973246431835046,7.596305610722681e-22
3.492324685414161,1.0000282518375557e-21
3.4873247276448174,1.3157910574421335e-21
3.482324769875474,1.7303176814376206e-21
3.4773248121061298,2.2741988972147304e-21
3.472324854336786,2.9874053358511116e-21
3.4673248965674426,3.9221336624526404e-21
3.4623249387980986,5.146507074112917e-21
3.457324981028755,6.749383688035771e-21
3.4523250232594114,8.84660077385203e-21
3.447325065490068,1.1589078726529895e-20
3.442325107720724,1.5173332343676992e-20
3.43732514995138,1.985509627312429e-20
3.4323251921820366,2.5966976569563707e-20
3.427325234412693,3.39413041231148e-20
3.4223252766433494,4.433970490959392e-20
3.417325318874006,5.789133780610989e-20
3.412325361104662,7.55423102662287e-20
3.407325403335318,9.85195001298576e-20
3.4023254455659746,1.2841293250577177e-19
3.397325487796631,1.672820404452645e-19
3.392325530027287,2.177926489494538e-19
3.3873255722579434,2.833934553220301e-19
3.3823256144886,3.685432515732219e-19
3.377325656719256,4.790032947614114e-19
3.3723256989499126,6.2221326724914e-19
3.3673257411805686,8.077744201396275e-19
3.362325783411225,1.0480700633212403e-18
3.3573258256418814,1.3590619396818455e-18
3.352325867872538,1.7613116871719132e-18
3.3473259101031942,2.281290168469217e-18
3.34232595233385,2.9530547160003637e-18
3.3373259945645066,3.8203962887797535e-18
3.332326036795163,4.9395864162799554e-18
3.3273260790258194,6.382889190757239e-18
3.3223261212564754,8.243048453283551e-18
3.317326163487132,1.0639017209183532e-17
3.3123262057177882,1.3723268366426552e-17
3.3073262479484447,1.7691117094593845e-17
3.302326290179101,2.2792600457175614e-17
3.297326332409757,2.9347605766716925e-17
3.2923263746404134,3.7765123251329373e-17
3.28732641687107,4.856773101739605e-17
3.2823264591017263,6.242271338036079e-17
3.2773265013323827,8.018158299292141e-17
3.2723265435630386,1.0293024233395305e-16
3.267326585793695,1.3205260543571884e-16
3.2623266280243515,1.693112367277555e-16
3.257326670255008,2.1694948866792637e-16
3.252326712485664,2.778207809728073e-16
3.2473267547163203,3.5555212105912464e-16
3.2423267969469767,4.547507916686709e-16
3.237326839177633,5.812654195840042e-16
3.2323268814082895,7.425155033207991e-16
3.2273269236389455,9.479070599917223e-16
3.222326965869602,1.209356528896194e-15
3.2173270081002583,1.5419506611041213e-15
3.2123270503309147,1.9647771022873e-15
3.207327092561571,2.5019690771884067e-15
3.202327134792227,3.1840184253999997e-15
3.1973271770228835,4.049424735291119e-15
3.19232721925354,5.146765113276097e-15
3.1873272614841963,6.537289996022349e-15
3.1823273037148523,8.298176334311234e-15
3.1773273459455087,1.0526601645446247e-14
3.172327388176165,1.3344842319592955e-14
3.1673274304068215,1.6906648986815763e-14
3.162327472637478,2.1405212934009464e-14
3.157327514868134,2.708311324090469e-14
3.1523275570987903,3.424472783970645e-14
3.1473275993294467,4.3271707210240945e-14
3.142327641560103,5.464225194371702e-14
3.1373276837907595,6.895511111334412e-14
3.1323277260214155,8.695943482219987e-14
3.127327768252072,1.0959188067143766e-13
3.1223278104827283,1.380227014483504e-13
3.1173278527133848,1.737129437808474e-13
3.112327894944041,2.1848538153765387e-13
3.107327937174697,2.746124136866e-13
3.1023279794053535,3.4492489885239515e-13
3.09732802163601,4.329468079327021e-13
3.0923280638666664,5.43061688225811e-13
3.0873281060973223,6.807182917027125e-13
3.0823281483279787,8.526843797293242e-13
3.077328190558635,1.0673597413204937e-12
3.0723282327892916,1.3351619299627505e-12
3.067328275019948,1.6690012294385188e-12
3.062328317250604,2.084865015597867e-12
3.0573283594812604,2.602536125613152e-12
3.0523284017119168,3.246475243751061e-12
3.047328443942573,4.046903861276792e-12
3.0423284861732296,5.041132305781169e-12
3.0373285284038856,6.275186947536497e-12
3.032328570634542,7.80580231966016e-12
3.0273286128651984,9.702857944585088e-12
3.022328655095855,1.2052356631523226e-11
3.0173286973265108,1.4960061483514606e-11
3.012328739557167,1.8555933526589365e-11
3.0073287817878236,2.2999541579875124e-11
3.00232882401848,2.848665171505791e-11
2.9973288662491364,3.525724658489261e-11
2.9923289084797924,4.3605276433181606e-11
2.987328950710449,5.389050539357393e-11
2.982328992941105,6.655289070983527e-11
2.9773290351717616,8.213002109550303e-11
2.972329077402418,1.0127824635047682e-10
2.967329119633074,1.2479825681850574e-10
2.9623291618637304,1.5366602213886777e-10
2.957329204094387,1.890701785368016e-10
2.9523292463250432,2.3245716792705457e-10
2.947329288555699,2.855856866211927e-10
2.9423293307863556,3.505923037641548e-10
2.937329373017012,4.300704683736802e-10
2.9323294152476684,5.271655490781004e-10
2.927329457478325,6.456890541062746e-10
2.922329499708981,7.902557745109619e-10
2.9173295419396372,9.664482970172208e-10
2.9123295841702936,1.1810141629281573e-09
2.90732962640095,1.4421019278752844e-09
2.9023296686316065,1.75954352905452e-09
2.8973297108622624,2.145191721144889e-09
2.892329753092919,2.613322933188177e-09
2.8873297953235753,3.1811177654285554e-09
2.8823298375542317,3.869233532638172e-09
2.877329879784888,4.702485820877967e-09
2.872329922015544,5.710659017933176e-09
2.8673299642462005,6.9294692727787874e-09
2.862330006476857,8.401707415536413e-09
2.8573300487075133,1.017859411721727e-08
2.8523300909381692,1.2321385091975888e-08
2.8473301331688257,1.4903270562291488e-08
2.842330175399482,1.8011620654869766e-08
2.8373302176301385,2.175063702632879e-08
2.832330259860795,2.6244481008318672e-08
2.827330302091451,3.1640960110725205e-08
2.8223303443221073,3.811586805470709e-08
2.8173303865527637,4.58780888798515e-08
2.81233042878342,5.517559337000801e-08
2.8073304710140765,6.630247639549913e-08
2.8023305132447325,7.960720714108786e-08
2.797330555475389,9.550229099007709e-08
2.7923305977060453,1.1447557252562446e-07
2.7873306399367017,1.37103444205594e-07
2.7823306821673577,1.640662653419569e-07
2.777330724398014,1.961663417098864e-07
2.7723307666286705,2.3434886813683386e-07
2.767330808859327,2.797262955665369e-07
2.7623308510899833,3.336066512297924e-07
2.7573308933206393,3.975264166451137e-07
2.7523309355512957,4.732886542774446e-07
2.747330977781952,5.630071709643164e-07
2.7423310200126085,6.691576159478592e-07
2.737331062243265,7.946365349163754e-07
2.732331104473921,9.428295403695787e-07
2.7273311467045773,1.1176899145139611e-06
2.7223311889352337,1.3238291355369717e-06
2.71733123116589,1.5666210134028229e-06
2.712331273396546,1.8523213393001527e-06
2.7073313156272025,2.18820519572901e-06
2.702331357857859,2.582724344258472e-06
2.6973314000885154,3.0456874076629465e-06
2.6923314423191718,3.5884658950351867e-06
2.6873314845498277,4.22422948527012e-06
2.682331526780484,4.96821438882146e-06
2.6773315690111406,5.8380290527490615e-06
2.672331611241797,6.854001962762891e-06
2.6673316534724534,8.039576831250964e-06
2.6623316957031093,9.421761045180522e-06
2.6573317379337658,1.1031633885305357e-05
2.652331780164422,1.2904921721258538e-05
2.6473318223950786,1.5082648138706683e-05
2.642331864625735,1.7611867767501317e-05
2.637331906856391,2.0546493456154044e-05
2.6323319490870474,2.3948227380185744e-05
2.627331991317704,2.7887607681805042e-05
2.62233203354836,3.2445183317327564e-05
2.617332075779016,3.7712830937665965e-05
2.6123321180096726,4.379522884629852e-05
2.607332160240329,5.0811504367929114e-05
2.6023322024709854,5.889707231819672e-05
2.597332244701642,6.820568368808449e-05
2.592332286932298,7.891170514268767e-05
2.587332329162954,9.121265147821993e-05
2.5823323713936106,0.0001053319947776805
2.577332413624267,0.00012152227564704362
2.5723324558549234,0.00014006854359129326
2.5673324980855794,0.00016129215529226627
2.562332540316236,0.00018555496126549726
2.557332582546892,0.00021326391308642634
2.5523326247775486,0.0002448761250703657
2.5473326670082046,0.000280904425946552
2.542332709238861,0.0003219234376623752
2.5373327514695174,0.000368576219965402
2.532332793700174,0.0004215815208105405
2.5273328359308302,0.0004817416738980113
2.522332878161486,0.0005499511857310742
2.5173329203921426,0.0006272060554547026
2.512332962622799,0.0007146138713580873
2.5073330048534554,0.000813404728251613
2.502333047084112,0.0009249430099172427
2.497333089314768,0.0010507400804295795
2.4923331315454242,0.0011924679273005532
2.4873331737760807,0.0013519737980573117
2.482333216006737,0.0015312958699601408
2.477333258237393,0.0017326799900434216
2.4723333004680494,0.001958597519451094
2.467333342698706,0.0022117643120725533
2.4623333849293623,0.0024951608526933853
2.4573334271600187,0.002812053574190037
2.4523334693906746,0.003166017366644245
2.447333511621331,0.0035609592835622204
2.4423335538519875,0.004001143441587219
2.437333596082644,0.004491217100122401
2.4323336383133003,0.005036237896076807
2.4273336805439563,0.005641702196450894
2.4223337227746127,0.00631357451764443
2.417333765005269,0.007058317945161771
2.4123338072359255,0.007882925470779421
2.4073338494665815,0.00879495214622497
2.402333891697238,0.009802547932996456
2.3973339339278943,0.010914491107162952
2.3923339761585507,0.012140222055872375
2.387334018389207,0.01348987727894413
2.382334060619863,0.014974323384432064
2.3773341028505195,0.016605190841558076
2.372334145081176,0.018394907228105595
2.3673341873118323,0.02035672968242479
2.3623342295424887,0.022504776242895326
2.3573342717731447,0.024854055730281904
2.352334314003801,0.027420495801229308
2.3473343562344575,0.030220968774535006
2.342334398465114,0.03327331480617662
2.3373344406957703,0.036596361964813855
2.3323344829264263,0.04020994273704248
2.3273345251570827,0.0441349064715521
2.322334567387739,0.04839312725401035
2.3173346096183955,0.05300750669045915
2.3123346518490515,0.05800197106679218
2.307334694079708,0.06340146234595842
2.3023347363103643,0.06923192246342962
2.2973347785410207,0.07552027038559213
2.292334820771677,0.08229437140557298
2.287334863002333,0.08958299816691165
2.2823349052329895,0.09741578292780959
2.277334947463646,0.10582316060771738
2.2723349896943024,0.11483630219388909
2.2673350319249588,0.12448703812847078
2.2623350741556147,0.1348077713466356
2.257335116386271,0.145831379693241
2.2523351586169276,0.15759110750933272
2.247335200847584,0.17012044625024728
2.24233524307824,0.18345300407386378
2.2373352853088964,0.19762236442019337
2.2323353275395528,0.21266193369159442
2.227335369770209,0.22860477823574715
2.2223354120008656,0.24548345093063675
2.2173354542315216,0.26332980777134074
2.212335496462178,0.2821748149616798
2.2073355386928344,0.3020483471190569
2.202335580923491,0.32297897730706493
2.197335623154147,0.34499375971708013
2.192335665384803,0.36811800592600413
2.1873357076154596,0.39237505576183207
2.182335749846116,0.41778604391094354
2.1773357920767724,0.4443696634999546
2.1723358343074284,0.4721419279800048
2.167335876538085,0.5011159327314163
2.162335918768741,0.5313016178911436
2.1573359609993976,0.562705533983258
2.152336003230054,0.5953306120033894
2.14733604546071,0.6291759396704475
2.1423360876913664,0.6642365456124678
2.137336129922023,0.7005031932971487
2.1323361721526792,0.7379621865506553
2.1273362143833356,0.7765951885298892
2.1223362566139916,0.8163790560225258
2.117336298844648,0.8572856909448986
2.1123363410753044,0.8992819108894533
2.107336383305961,0.9423293405396416
2.1023364255366173,0.9863843257204269
2.0973364677672732,1.0313978717855659
2.0923365099979296,1.0773156079579063
2.087336552228586,1.1240777791354475
2.0823365944592425,1.171619266552781
2.0773366366898984,1.219869638544822
2.072336678920555,1.2687532324966684
2.0673367211512113,1.3181892688804815
2.0623367633818677,1.368091998077275
2.057336805612524,1.4183708804595836
2.05233684784318,1.4689307999707923
2.0473368900738365,1.5196723111801653
2.042336932304493,1.5704919195211127
2.0373369745351493,1.6212823941360788
2.0323370167658057,1.6719331124579198
2.0273370589964617,1.7223304353571833
2.022337101227118,1.7723581113811773
2.0173371434577745,1.821897708308236
2.012337185688431,1.8708290699422416
2.007337227919087,1.9190307957837143
2.0023372701497433,1.9663807409379985
1.9973373123803997,2.0127565333631208
1.992337354611056,2.0580361053238123
1.9873373968417125,2.102098235708318
1.9823374390723685,2.144823099684373
1.977337481303025,2.186092822024052
1.9723375235336813,2.2257920303164482
1.9673375657643377,2.2638084042151876
1.9623376079949941,2.300033216836306
1.95733765022565,2.3343618644315973
1.9523376924563065,2.366694380514442
1.947337734686963,2.396935930707919
1.9423377769176193,2.4249972847183496
1.9373378191482753,2.450795262009096
1.9323378613789317,2.4742531479569556
1.9273379036095881,2.4953010775138473
1.9223379458402445,2.5138763836661213
1.917337988070901,2.5299239082783607
1.912338030301557,2.5433962732243
1.9073380725322133,2.554254110039148
1.9023381147628697,2.5624662466711916
1.8973381569935261,2.5680098502611064
1.8923381992241826,2.5708705252304274
1.8873382414548385,2.571042366312047
1.882338283685495,2.568527966500911
1.8773383259161514,2.5633383802394496
1.8723383681468078,2.55549304247519
1.8673384103774642,2.5450196445360405
1.8623384526081201,2.53195396805849
1.8573384948387766,2.5163396784740506
1.852338537069433,2.4982280798084355
1.8473385793000894,2.4776778327749565
1.8423386215307453,2.454754638348446
1.8373386637614018,2.4295308891881104
1.8323387059920582,2.402085291437809
1.8273387482227146,2.372502459570644
1.822338790453371,2.3408724870620694
1.817338832684027,2.3072904957728975
1.8123388749146834,2.2718561670015434
1.8073389171453398,2.2346732572239656
1.8023389593759962,2.1958491015812793
1.7973390016066526,2.1554941081989454
1.7923390438373086,2.113721246428533
1.787339086067965,2.0706455320930637
1.7823391282986214,2.026383512790487
1.7773391705292778,1.9810527562658988
1.7723392127599338,1.9347713448023012
1.7673392549905902,1.8876573785009192
1.7623392972212466,1.8398284902254094
1.757339339451903,1.7914013748695945
1.7523393816825594,1.7424913354748117
1.7473394239132154,1.6932118485714618
1.7423394661438718,1.6436741509497739
1.7373395083745282,1.5939868498776735
1.7323395506051846,1.5442555585806985
1.727339592835841,1.4945825585804535
1.722339635066497,1.4450664902569863
1.7173396772971534,1.3958020727582088
1.7123397195278098,1.3468798541285822
1.7073397617584662,1.2983859922731258
1.7023398039891222,1.2504020671135216
1.6973398462197786,1.2030049240348857
1.692339888450435,1.1562665484670067
1.6873399306810914,1.1102539711967905
1.6823399729117479,1.065029203771691
1.6773400151424038,1.0206492031306855
1.6723400573730602,0.9771658643926424
1.6673400996037167,0.9346260405437665
1.662340141834373,0.8930715875992664
1.6573401840650295,0.8525394336700306
1.6523402262956854,0.8130616702451223
1.6473402685263419,0.7746656639054392
1.6423403107569983,0.7373741866133622
1.6373403529876547,0.7012055626774564
1.6323403952183106,0.6661738304692499
1.627340437448967,0.6322889169699285
1.6223404796796235,0.5995568232466945
1.6173405219102799,0.5679798189997732
1.6123405641409363,0.5375566443792321
1.6073406063715923,0.5082827173439406
1.6023406486022487,0.4801503449203165
1.597340690832905,0.4531489368136809
1.5923407330635615,0.42726521992768823
1.587340775294218,0.4024834524547865
1.5823408175248739,0.37878563631108136
1.5773408597555303,0.356151726800111
1.5723409019861867,0.33455983850021065
1.5673409442168431,0.31398644647785257
1.5623409864474995,0.2944065820333166
1.5573410286781555,0.27579402228436745
1.552341070908812,0.2581214729876701
1.5473411131394683,0.24136074408593802
1.5423411553701247,0.22548291755128508
1.5373411976007807,0.21045850717178996
1.532341239831437,0.1962576099992376
1.5273412820620935,0.18285004924159207
1.52234132429275,0.1702055084445159
1.5173413665234063,0.15829365686249672
1.5123414087540623,0.1470842659724861
1.5073414509847187,0.13654731713180618
1.5023414932153751,0.12665310042779312
1.4973415354460315,0.11737230480969489
1.492341577676688,0.10867609963382281
1.487341619907344,0.10053620779117735
1.4823416621380003,0.09292497062272978
1.4773417043686567,0.08581540486123741
1.4723417465993132,0.07918125186987135
1.4673417888299696,0.07299701947679188
1.462341831060626,0.06723801673103402
1.4573418732912824,0.06188038192835767
1.452341915521938,0.05690110427589407
1.4473419577525943,0.05227803958125399
1.4423419999832507,0.04798992036503652
1.4373420422139072,0.044016360805331244
1.4323420844445636,0.04033785692862538
1.42734212667522,0.03693578246361237
1.4223421689058764,0.033792380772707055
1.4173422111365328,0.030890753270756455
1.4123422533671892,0.028214844731667396
1.4073422955978447,0.025749425871694914
1.4023423378285012,0.023480073583261468
1.3973423800591576,0.02139314917573773
1.392342422289814,0.019475774960041
1.3873424645204704,0.017715809492557858
1.3823425067511268,0.016101821771261925
1.3773425489817832,0.014623064653371733
1.3723425912124396,0.013269447739925885
1.367342633443096,0.01203150994863927
1.3623426756737524,0.010900391972727621
1.357342717904408,0.00986780880038626
1.3523427601350644,0.008926022447576783
1.3473428023657208,0.008067815035949936
1.3423428445963772,0.0072864623283222865
1.3373428868270336,0.0065757078162369835
1.33234292905769,0.0059297374378862195
1.3273429712883464,0.005343154990068309
1.3223430135190029,0.004810958284891466
1.3173430557496593,0.004328516090563459
1.3123430979803148,0.003891545885735739
1.3073431402109712,0.0034960924483890955
1.3023431824416276,0.003138507293022505
1.297343224672284,0.002815428963799413
1.2923432669029404,0.002523764186159682
1.2873433091335968,0.002260669875084034
1.2823433513642533,0.0020235359945541234
1.2773433935949097,0.0018099692596607834
1.272343435825566,0.0016177776701592542
1.2673434780562216,0.0014449558619561928
1.262343520286878,0.001289671260958308
1.2573435625175344,0.0011502510218532349
1.2523436047481908,0.0010251697326861815
1.2473436469788473,0.0009130378645079422
1.2423436892095037,0.0008125909438886032
1.23734373144016,0.0007226794247104317
1.2323437736708165,0.0006422592343795398
1.227343815901473,0.0005703829684406026
1.2223438581321293,0.0005061917065593055
1.2173439003627848,0.0004489074219716693
1.2123439425934412,0.0003978259558069151
1.2073439848240977,0.0003523105271874734
1.202344027054754,0.0003117857497106854
1.1973440692854105,0.0002757321248292033
1.192344111516067,0.0002436809827766577
1.1873441537467233,0.00021520984202896956
1.1823441959773797,0.0001899381588430757
1.1773442382080361,0.00016752343916087513
1.1723442804386917,0.00014765768608947862
1.167344322669348,0.00013006415724763987
1.1623443649000045,0.00011449440747755634
1.157344407130661,0.00010072559373418485
1.1523444493613173,8.85580203520686e-05
1.1473444915919737,7.781290432432611e-05
1.1423445338226301,6.833034168210548e-05
1.1373445760532865,5.996745750963716e-05
1.132344618283943,5.259672354671185e-05
1.1273446605145985,4.610442869667534e-05
1.1223447027452549,4.0389289057150315e-05
1.1173447449759113,3.536118530957258e-05
1.1123447872065677,3.094001643309831e-05
1.1073448294372241,2.7054659742735763e-05
1.1023448716678805,2.364202818858584e-05
1.097344913898537,2.0646216693564603e-05
1.0923449561291934,1.8017730054357656e-05
1.0873449983598498,1.5712785590147094e-05
1.0823450405905062,1.3692684302972835e-05
1.0773450828211617,1.1923244820699091e-05
1.0723451250518181,1.0374294837345384e-05
1.0673451672824745,9.019215155114144e-06
1.062345209513131,7.83453177678752e-06
1.0573452517437874,6.799551804724653e-06
1.0523452939744438,5.896039181274433e-06
1.0473453362051002,5.107926561859458e-06
1.0423453784357566,4.421059852121545e-06
1.037345420666413,3.822972169066041e-06
1.0323454628970685,3.302684206711185e-06
1.027345505127725,2.850528201868467e-06
1.0223455473583813,2.45799290687508e-06
1.0173455895890378,2.1175871840135753e-06
1.0123456318196942,1.822720040858001e-06
1.0073456740503506,1.567595126174882e-06
1.002345716281007,1.3471179011199066e-06
0.9973457585116634,1.156813888880171e-06
0.9923458007423198,9.927565860623157e-07
0.9873458429729762,8.515037894770346e-07
0.9823458852036318,7.300412511045582e-07
0.9773459274342882,6.25732720745693e-07
0.9723459696649446,5.362755692512636e-07
0.967346011895601,4.596613046854842e-07
0.9623460541262574,3.9414039905573204e-07
0.9573460963569138,3.3819093441295496e-07
0.9523461385875702,2.90490654587278e-07
0.9473461808182266,2.4989207325609414e-07
0.942346223048883,2.1540034138002634e-07
0.9373462652795386,1.8615361842555706e-07
0.932346307510195,1.6140572352279147e-07
0.9273463497408514,1.4051086619586753e-07
0.9223463919715078,1.2291027302999102e-07
0.9173464342021642,1.0812053809411752e-07
0.9123464764328206,9.572353258032374e-08
0.907346518663477,8.535771432488597e-08
0.9023465608941335,7.671068189056467e-08
0.8973466031247899,6.951282179505163e-08
0.8923466453554454,6.353190214627325e-08
0.8873466875861018,5.8568472044778917e-08
0.8823467298167582,5.4451934051636156e-08
0.8773467720474146,5.103716697334823e-08
0.872346814278071,4.8201588133895e-08
0.8673468565087274,4.58425579396179e-08
0.8623468987393839,4.387504448417286e-08
0.8573469409700403,4.2229481659543017e-08
0.8523469832006967,4.0849770137862075e-08
0.8473470254313531,3.969138605092934e-08
0.8423470676620086,3.871957662951222e-08
0.837347109892665,3.790763494770721e-08
0.8323471521233214,3.723525681875975e-08
0.8273471943539779,3.668699149278021e-08
0.8223472365846343,3.625080392345178e-08
0.8173472788152907,3.591676993558937e-08
0.8123473210459471,3.567592669312277e-08
0.8073473632766035,3.551929960043989e-08
0.8023474055072599,3.543712342486158e-08
0.7973474477379154,3.541827033689071e-08
0.7923474899685718,3.544989112031795e-08
0.7873475321992283,3.551726844197713e-08
0.7823475744298847,3.56038732530823e-08
0.7773476166605411,3.569160759215829e-08
0.7723476588911975,3.576120973664914e-08
0.7673477011218539,3.579279124198405e-08
0.7623477433525103,3.5766470301574615e-08
0.7573477855831667,3.5663062379812776e-08
0.7523478278138231,3.546478744681867e-08
0.7473478700444787,3.515595350930566e-08
0.7423479122751351,3.472357850188819e-08
0.7373479545057915,3.4157916871872486e-08
0.7323479967364479,3.3452863133784627e-08
0.7273480389671043,3.2606211955859296e-08
0.7223480811977607,3.1619762549965296e-08
0.7173481234284171,3.0499263789151747e-08
0.7123481656590736,2.9254205065744303e-08
0.70734820788973,2.7897465928247595e-08
0.7023482501203855,2.644484454075077e-08
0.6973482923510419,2.4914490612107113e-08
0.6923483345816983,2.332627236146229e-08
0.6873483768123547,2.1701109155743877e-08
0.6823484190430111,2.006030163110237e-08
0.6773484612736675,1.8424889473059102e-08
0.672348503504324,1.6815063768557365e-08
0.6673485457349804,1.5249656238515366e-08
0.6623485879656368,1.3745722061535372e-08
0.6573486301962923,1.2318226799695063e-08
0.6523486724269487,1.0979841541960615e-08
0.6473487146576051,9.740844184251026e-09
0.6423487568882615,8.60911912720679e-09
0.637348799118918,7.590242898584979e-09
0.6323488413495744,6.687639533324166e-09
0.6273488835802308,5.902787128417937e-09
0.6223489258108872,5.2354559063141285e-09
0.6173489680415436,4.683958361032072e-09
0.6123490102722,4.245393538420906e-09
0.6073490525028555,3.9158700586094555e-09
0.602349094733512,3.6906959086843066e-09
0.5973491369641684,3.564527056356859e-09
0.5923491791948248,3.5314712716288424e-09
0.5873492214254812,3.5851478925828935e-09
0.5823492636561376,3.718708338975382e-09
0.577349305886794,3.924825692361367e-09
0.5723493481174504,4.195664392808342e-09
0.5673493903481068,4.522842872483541e-09
0.5623494325787624,4.897402643305096e-09
0.5573494748094188,5.309796939953758e-09
0.5523495170400752,5.749910527354278e-09
0.5473495592707316,6.20711982414491e-09
0.542349601501388,6.670399249393007e-09
0.5373496437320444,7.128475904106973e-09
0.5323496859627008,7.57003062817188e-09
0.5273497281933572,7.983939425681362e-09
0.5223497704240136,8.359545527256739e-09
0.5173498126546701,8.686949237059499e-09
0.5123498548853256,8.957300434911722e-09
0.507349897115982,9.163077352300624e-09
0.5023499393466384,9.29833512495673e-09
0.4973499815772948,9.358908672657221e-09
0.49235002380795123,9.342556612504005e-09
0.48735006603860764,9.249036036462213e-09
0.48235010826926406,9.08010186533179e-09
0.47735015049992013,8.8394288587947e-09
