5.472307962074259,5.505197372931835e-122
5.467308004304916,1.0258311780472348e-121
5.462308046535572,1.9108307749349012e-121
5.457308088766228,3.5580537339557295e-121
5.452308130996885,6.622888980627586e-121
5.44730817322754,1.2323328509671477e-120
5.442308215458197,2.2922139101014323e-120
5.437308257688853,4.262161529181255e-120
5.43230829991951,7.922339554326304e-120
5.427308342150166,1.4720649647293174e-119
5.422308384380822,2.7343348167080126e-119
5.417308426611479,5.077253185374486e-119
5.412308468842135,9.424527102164561e-119
5.407308511072792,1.7488199787944273e-118
5.402308553303448,3.2440426671004232e-118
5.397308595534104,6.015683464153949e-118
5.39230863776476,1.1151706571085082e-117
5.387308679995416,2.0666003801203635e-117
5.382308722226073,3.8285229840084036e-117
5.377308764456729,7.09032669107119e-117
5.372308806687386,1.3126894468282987e-116
5.367308848918042,2.429511162462606e-116
5.3623088911486985,4.495077917107184e-116
5.357308933379355,8.314135497606525e-116
5.35230897561001,1.5372995995933421e-115
5.347309017840667,2.8415894626850303e-115
5.342309060071323,5.250797745951372e-115
5.33730910230198,9.699514460700772e-115
5.332309144532636,1.7911623188202536e-114
5.3273091867632925,3.306583764611421e-114
5.322309228993949,6.102152312332462e-114
5.317309271224605,1.1257571078564934e-113
5.312309313455262,2.0761734252197448e-113
5.307309355685918,3.8277089696832496e-113
5.302309397916574,7.05455416066752e-113
5.29730944014723,1.2997343840837457e-112
5.2923094823778865,2.393828266613161e-112
5.287309524608543,4.407412352647972e-112
5.282309566839199,8.111957346457685e-112
5.277309609069856,1.49251223162266e-111
5.272309651300512,2.7451079123400156e-111
5.2673096935311685,5.047185671049379e-111
5.262309735761825,9.276552012314394e-111
5.2573097779924804,1.704395950625563e-110
5.252309820223137,3.130402939399042e-110
5.247309862453793,5.747449143541183e-110
5.24230990468445,1.0548593656897673e-109
5.237309946915106,1.9353432034415342e-109
5.2323099891457625,3.5494820237609106e-109
5.227310031376419,6.507515025342407e-109
5.222310073607075,1.1926371292823183e-108
5.217310115837732,2.184963809965647e-108
5.212310158068387,4.00150038642839e-108
5.207310200299044,7.325616392346806e-108
5.2023102425297,1.3406279231019728e-107
5.1973102847603565,2.4525354091800653e-107
5.192310326991013,4.4850313183638e-107
5.187310369221669,8.198966957459305e-107
5.182310411452326,1.4982925010898986e-106
5.177310453682982,2.737022004575928e-106
5.172310495913639,4.998096369202249e-106
5.167310538144294,9.123806948176656e-106
5.1623105803749505,1.664919227023734e-105
5.157310622605607,3.037081015748854e-105
5.152310664836263,5.5381692565001215e-105
5.14731070706692,1.0095392710449217e-104
5.142310749297576,1.8396188454412218e-104
5.137310791528233,3.3510475638742634e-104
5.132310833758889,6.102136028050255e-104
5.127310875989545,1.1107904306398294e-103
5.122310918220202,2.0213042270828058e-103
5.117310960450857,3.676891829853128e-103
5.112311002681514,6.68620804458312e-103
5.10731104491217,1.215427242619754e-102
5.1023110871428266,2.208656689088699e-102
5.097311129373483,4.012154800631666e-102
5.092311171604139,7.28580163036548e-102
5.087311213834796,1.3225956930296731e-101
5.082311256065452,2.400085959011785e-101
5.077311298296109,4.3538772037924986e-101
5.072311340526765,7.895414384850695e-101
5.0673113827574205,1.431273625127952e-100
5.062311424988077,2.5936952279079623e-100
5.057311467218733,4.698543330139066e-100
5.05231150944939,8.50853859038986e-100
5.047311551680046,1.5402581779740507e-99
5.042311593910703,2.7872646659679562e-99
5.037311636141359,5.04206348886757e-99
5.032311678372015,9.117653178758667e-99
5.027311720602672,1.6481688355969695e-98
5.022311762833327,2.978265361081146e-98
5.017311805063984,5.379814754444147e-98
5.01231184729464,9.714325691062887e-98
5.007311889525297,1.7534709394375837e-97
5.002311931755953,3.1639108195857005e-97
4.997311973986609,5.70674977007867e-97
4.992312016217266,1.0289435964532365e-96
4.987312058447922,1.8545206908042226e-96
4.982312100678579,3.3412458985028483e-96
4.977312142909234,6.017569829956503e-96
4.972312185139891,1.083350852190926e-95
4.967312227370547,1.9496282268473425e-95
4.962312269601203,3.5072652121873354e-95
4.95731231183186,6.306944943222249e-95
4.952312354062516,1.1337117768278079e-94
4.947312396293173,2.0371315717484787e-94
4.942312438523829,3.659046960766506e-94
4.9373124807544855,6.569754041605355e-94
4.932312522985141,1.1791315672818179e-93
4.927312565215797,2.115472173225277e-93
4.922312607446454,3.7938852549807826e-93
4.91731264967711,6.80131483188832e-93
4.912312691907767,1.2188027471896558e-92
4.907312734138423,2.1832623686372443e-92
4.9023127763690795,3.909403917790531e-92
4.897312818599736,6.997573439226646e-92
4.892312860830392,1.252036327543081e-91
4.887312903061048,2.23933573438175e-91
4.882312945291705,4.003636188921063e-91
4.877312987522361,7.155227360340438e-91
4.872313029753017,1.2782801391537887e-90
4.8673130719836735,2.282773153959042e-90
4.86231311421433,4.075059213161382e-90
4.857313156444986,7.271765645233023e-90
4.852313198675643,1.297122289986379e-89
4.847313240906299,2.3129026889018263e-89
4.8423132831369555,4.1225834218100474e-89
4.837313325367612,7.345433377421759e-89
4.8323133675982675,1.308282289346524e-88
4.827313409828924,2.3292800552552633e-88
4.82231345205958,4.1455127256934745e-88
4.817313494290237,7.375154696885484e-88
4.812313536520893,1.3115967578048267e-87
4.8073135787515495,2.331662971934583e-87
4.802313620982206,4.143499780492692e-87
4.797313663212862,7.360456757730721e-87
4.792313705443519,1.3070067967455725e-86
4.787313747674174,2.3199906230838846e-86
4.782313789904831,4.116513251193215e-86
4.777313832135487,7.301418554544897e-86
4.7723138743661435,1.2945501495891175e-85
4.7673139165968,2.294371932326822e-85
4.762313958827456,4.0648208232863565e-85
4.757314001058113,7.198647503777896e-85
4.752314043288769,1.2743582531825134e-84
4.747314085519426,2.255082545122269e-84
4.742314127750081,3.988987993368643e-84
4.7373141699807375,7.053285149688386e-84
4.732314212211394,1.2466587392010622e-83
4.72731425444205,2.2025720629357002e-83
4.722314296672707,3.889896052214942e-83
4.717314338903363,6.867048281920557e-83
4.71231438113402,1.2117843172232884e-82
4.707314423364676,2.137482412866384e-82
4.702314465595332,3.768778697514302e-82
4.697314507825988,6.642299533627041e-82
4.692314550056644,1.1701859691565887e-81
4.687314592287301,2.0606717595650456e-81
4.682314634517957,3.6272640161342037e-81
4.677314676748614,6.382118605440978e-81
4.67231471897927,1.122444566480599e-80
4.667314761209926,1.9732325532383392e-80
4.662314803440583,3.4674007098809855e-80
4.657314845671239,6.090336522013901e-80
4.652314887901895,1.0692744627485328e-79
4.647314930132551,1.8764930336812074e-79
4.642314972363208,3.2916514583341886e-79
4.637315014593864,5.771506420812699e-79
4.63231505682452,1.0115150955800852e-78
4.627315099055177,1.7719964796300586e-78
4.622315141285833,3.1028455828971584e-78
4.61731518351649,5.430800872232986e-78
4.612315225747146,9.501094875062123e-78
4.607315267977802,1.661457386603271e-77
4.602315310208459,2.9040916412398897e-77
4.597315352439114,5.073840737409663e-77
4.592315394669771,8.860712822763493e-77
4.587315436900427,1.546698929394131e-76
4.582315479131084,2.6986604678006715e-76
4.57731552136174,4.706479408324467e-76
4.572315563592396,8.204454667086126e-76
4.567315605823053,1.4295823631927469e-75
4.562315648053709,2.4898597988100243e-75
4.557315690284366,4.3345825986388134e-75
4.552315732515021,7.542700586046769e-75
4.547315774745678,1.3119408518700243e-74
4.542315816976334,2.2809204658013293e-74
4.53731585920699,3.963832672519174e-74
4.532315901437647,6.885423174262066e-74
4.527315943668303,1.1955205742968455e-73
4.52231598589896,2.0748923332112382e-73
4.517316028129616,3.599541722579329e-73
4.5123160703602725,6.241846011214402e-73
4.507316112590928,1.0819174598156839e-72
4.502316154821584,1.8745259533342756e-72
4.497316197052241,3.2464294614820437e-72
4.492316239282897,5.620028256519188e-72
4.487316281513554,9.725002779682051e-72
4.48231632374421,1.6821324915254255e-71
4.4773163659748665,2.9083738080179295e-71
4.472316408205523,5.0264333027381435e-71
4.467316450436179,8.683387496520126e-71
4.462316492666835,1.4994695284680433e-70
4.457316534897492,2.5882410449285833e-70
4.452316577128148,4.465700381516917e-70
4.447316619358804,7.701781227565277e-70
4.4423166615894605,1.3277253564134785e-69
4.437316703820117,2.2879121303102367e-69
4.432316746050773,3.9407857399396984e-69
4.42731678828143,6.784797769640231e-69
4.422316830512086,1.167614996871298e-68
4.417316872742742,2.008487056104856e-68
4.412316914973399,3.453367961182391e-68
4.4073169572040545,5.934974368789344e-68
4.402316999434711,1.0195174253691023e-67
4.397317041665367,1.7505230509825e-67
4.392317083896024,3.004248758263343e-67
4.38731712612668,5.153428746337744e-67
4.3823171683573365,8.83581095074705e-67
4.377317210587993,1.5142016872956714e-66
4.3723172528186485,2.593615754141758e-66
4.367317295049306,4.440272275679716e-66
4.362317337279961,7.59789214317827e-66
4.357317379510618,1.2994325793420658e-65
4.352317421741274,2.2212072119740097e-65
4.3473174639719305,3.794868352595776e-65
4.342317506202587,6.4799892357603055e-65
4.337317548433243,1.1059088900564228e-64
4.3323175906639,1.8863807810343286e-64
4.327317632894555,3.215893067722572e-64
4.322317675125213,5.479400863692742e-64
4.317317717355868,9.330834016393788e-64
4.3123177595865245,1.588034876362566e-63
4.307317801817181,2.7011430398592273e-63
4.302317844047837,4.5917515343225525e-63
4.297317886278494,7.800944105055956e-63
4.29231792850915,1.3244883945373898e-62
4.287317970739807,2.2473726342465553e-62
4.282318012970463,3.810845059623519e-62
4.277318055201119,6.457728872531117e-62
4.272318097431775,1.0935622714147657e-61
4.267318139662431,1.8505691161936824e-61
4.262318181893088,3.129379530632527e-61
4.257318224123744,5.288051755670094e-61
4.252318266354401,8.929180176190353e-61
4.247318308585057,1.5066086061135585e-60
4.242318350815713,2.540139430065723e-60
4.23731839304637,4.279361979184927e-60
4.232318435277026,7.203802236510655e-60
4.227318477507682,1.2117235971283631e-59
4.222318519738339,2.036586340476288e-59
4.217318561968995,3.4202558957657606e-59
4.212318604199651,5.739450687921174e-59
4.207318646430307,9.623602045900208e-59
4.202318688660964,1.612353254947606e-58
4.19731873089162,2.6992140140991996e-58
4.192318773122277,4.515105585270656e-58
4.187318815352933,7.546580376490258e-58
4.182318857583589,1.2603223076875954e-57
4.177318899814246,2.1030941625745404e-57
4.172318942044901,3.506526506125073e-57
4.167318984275558,5.841597678761191e-57
4.162319026506214,9.723359688060654e-57
4.157319068736871,1.6170551298110044e-56
4.152319110967527,2.6868931843906135e-56
4.1473191531981835,4.46053023545349e-56
4.14231919542884,7.3982145371172115e-56
4.137319237659495,1.2259318565394887e-55
4.132319279890153,2.029553453058438e-55
4.127319322120808,3.3568092948414346e-55
4.122319364351465,5.5468175000709925e-55
4.117319406582121,9.15699804121236e-55
4.1123194488127774,1.5102801930857902e-54
4.107319491043434,2.488641800225795e-54
4.10231953327409,4.097086594757608e-54
4.097319575504747,6.73915125049769e-54
4.092319617735402,1.1075510771222424e-53
4.0873196599660595,1.8187101173008043e-53
4.082319702196715,2.984132645365621e-53
4.077319744427371,4.892627447362176e-53
4.072319786658028,8.015862939600604e-53
4.067319828888684,1.3123724318639122e-52
4.062319871119341,2.147220271073611e-52
4.057319913349997,3.510927444290369e-52
4.0523199555806535,5.737262303722672e-52
4.04731999781131,9.369912295434213e-52
4.042320040041966,1.5294069837175205e-51
4.037320082272622,2.4950221303611426e-51
4.032320124503278,4.0681308388829825e-51
4.027320166733935,6.629616199254629e-51
4.022320208964591,1.0798343904238629e-50
4.0173202511952475,1.7579328019730177e-50
4.012320293425904,2.860379980737714e-50
4.00732033565656,4.651796479502518e-50
4.002320377887217,7.561218253723701e-50
3.9973204201178727,1.228386788650088e-49
3.992320462348529,1.994567869161473e-49
3.9873205045791855,3.2369115663237978e-49
3.9823205468098415,5.250242040954729e-49
3.977320589040498,8.511236470721746e-49
3.9723206312711543,1.3790165732346784e-48
3.9673206735018107,2.2331031910101284e-48
3.962320715732467,3.614180907956945e-48
3.9573207579631235,5.846182872826355e-48
3.95232080019378,9.451401740404553e-48
3.947320842424436,1.5271493364913989e-47
3.9423208846550923,2.466201550955504e-47
3.9373209268857483,3.980501934752338e-47
3.9323209691164047,6.4211058596290385e-47
3.927321011347061,1.0352495504172893e-46
3.9223210535777175,1.668184080675121e-46
3.917321095808374,2.686624556113345e-46
3.9123211380390304,4.324484380376926e-46
3.9073211802696868,6.9570661786685365e-46
3.9023212225003427,1.1186192985926318e-45
3.897321264730999,1.7976393839679403e-45
3.892321306961655,2.887263660168437e-45
3.8873213491923115,4.6348235835084366e-45
3.882321391422968,7.436043643805689e-45
3.8773214336536244,1.1923711319873464e-44
3.8723214758842808,1.9109107331067003e-44
3.867321518114937,3.06074522484478e-44
3.8623215603455936,4.899705774703862e-44
3.8573216025762496,7.839112108412785e-44
3.852321644806906,1.2534748751165976e-43
3.8473216870375624,2.003152154330979e-43
3.8423217292682184,3.1993319268609536e-43
3.8373217714988748,5.1068027975461485e-43
3.832321813729531,8.14667792644655e-43
3.8273218559601876,1.2988255261741492e-42
3.822321898190844,2.0694595217398416e-42
3.8173219404215004,3.295306958104942e-42
3.812321982652157,5.244022383893048e-42
3.807322024882813,8.339879514961038e-42
3.802322067113469,1.3254959888226452e-41
3.797322109344125,2.105315875632815e-41
3.7923221515747816,3.34174355038909e-41
3.787322193805438,5.300816669835673e-41
3.7823222360360944,8.40278186407756e-41
3.777322278266751,1.3311006383899385e-40
3.7723223204974072,2.1071870594637592e-40
3.7673223627280636,3.3334706558417255e-40
3.7623224049587196,5.269732128073591e-40
3.757322447189376,8.324839668941447e-40
3.7523224894200324,1.3141828753181276e-39
3.7473225316506884,2.0731252874737083e-39
3.742322573881345,3.2680028856778994e-39
3.7373226161120012,5.147825972974555e-39
3.7323226583426576,8.10302769896359e-39
3.727322700573314,1.2745310605674474e-38
3.7223227428039705,2.0032301372462396e-38
3.717322785034627,3.146200323200759e-38
3.712322827265283,4.937588365207686e-38
3.7073228694959393,7.743090724471484e-38
3.7023229117265952,1.2133409026125733e-37
3.6973229539572516,1.89984648306161e-37
3.692322996187908,2.9724845486272924e-37
3.6873230384185645,4.647126100316503e-37
3.682323080649221,7.259579640033475e-37
3.6773231228798773,1.1331806312408148e-36
3.6723231651105337,1.767445467017259e-36
3.6673232073411897,2.7545505138250324e-36
3.662323249571846,4.289552488829675e-36
3.657323291802502,6.674650129251138e-36
3.6523233340331585,1.0377651885081895e-35
3.647323376263815,1.6122137091613165e-35
3.6423234184944713,2.502637383713298e-35
3.6373234607251277,3.881717948247657e-35
3.632323502955784,6.015887532800878e-35
3.6273235451864405,9.315884738563772e-35
3.6223235874170965,1.4414386767474794e-34
3.617323629647753,2.228511698986723e-34
3.6123236718784093,3.442543024813935e-34
3.6073237141090653,5.313596602197114e-34
3.6023237563397217,8.194860523675114e-34
3.597323798570378,1.2628081288419803e-33
3.5923238408010345,1.9443525655826163e-33
3.587323883031691,2.9912556543600818e-33
3.5823239252623473,4.598031288944952e-33
3.5773239674930037,7.062023846396778e-33
3.5723240097236597,1.083737947330446e-32
3.567324051954316,1.66171362401583e-32
3.562324094184972,2.5457972544361434e-32
3.5573241364156285,3.8969612811420976e-32
3.552324178646285,5.960214607408677e-32
3.5473242208769413,9.108148312720361e-32
3.5423242631075977,1.3906873782749055e-31
3.537324305338254,2.1215777941621064e-31
3.5323243475689106,3.233830228815041e-31
3.5273243897995665,4.924963648024278e-31
3.522324432030223,7.494024739512815e-31
3.5173244742608794,1.139336973215406e-30
3.5123245164915353,1.7306645704171566e-30
3.5073245587221917,2.626611849701472e-30
3.502324600952848,3.982903593083251e-30
3.4973246431835046,6.03424831116437e-30
3.492324685414161,9.134075833280007e-30
3.4873247276448174,1.3814101421906581e-29
3.482324769875474,2.0873524013521522e-29
3.4773248121061298,3.15124749431056e-29
3.472324854336786,4.7531478572128053e-29
3.4673248965674426,7.162929200766403e-29
3.4623249387980986,1.0784721783748658e-28
3.457324981028755,1.6223128044810475e-28
3.4523250232594114,2.438181314647917e-28
3.447325065490068,3.6610151439180293e-28
3.442325107720724,5.492113818790848e-28
3.43732514995138,8.231487909635447e-28
3.4323251921820366,1.2325833300343223e-27
3.427325234412693,1.843960718413607e-27
3.4223252766433494,2.7560224697334977e-27
3.417325318874006,4.1153599207498465e-27
3.412325361104662,6.139388619764764e-27
3.407325403335318,9.150248571886567e-27
3.4023254455659746,1.3624775158245193e-26
3.397325487796631,2.0268083447294226e-26
3.392325530027287,3.0121812303613184e-26
3.3873255722579434,4.4723188495008756e-26
3.3823256144886,6.633852659961704e-26
3.377325656719256,9.830563828328706e-26
3.3723256989499126,1.455354193291048e-25
3.3673257411805686,2.1524583379647246e-25
3.362325783411225,3.180348265614916e-25
3.3573258256418814,4.694469907258062e-25
3.352325867872538,6.922587545654737e-25
3.3473259101031942,1.0198080167907753e-24
3.34232595233385,1.5008403219308325e-24
3.3373259945645066,2.2065546008294002e-24
3.332326036795163,3.240835551483779e-24
3.3273260790258194,4.7550974953353594e-24
3.3223261212564754,6.969794070004674e-24
3.317326163487132,1.0205552341579226e-23
3.3123262057177882,1.4928187150717482e-23
3.3073262479484447,2.181371032570869e-23
3.302326290179101,3.18421096977058e-23
3.297326332409757,4.643247558479426e-23
3.2923263746404134,6.763748151103615e-23
3.28732641687107,9.84229674059538e-23
3.2823264591017263,1.430693985823282e-22
3.2773265013323827,2.077476555368839e-22
3.2723265435630386,3.0134388687722212e-22
3.267326585793695,4.366397643732847e-22
3.2623266280243515,6.319992651957864e-22
3.257326670255008,9.13776486023819e-22
3.252326712485664,1.3197485705433596e-21
3.2473267547163203,1.9040042698638798e-21
3.2423267969469767,2.7438968898804533e-21
3.237326839177633,3.9499212991831225e-21
3.2323268814082895,5.6797274498165206e-21
3.2273269236389455,8.15797818970246e-21
3.222326965869602,1.170445368756666e-20
3.2173270081002583,1.677377735821452e-20
3.2123270503309147,2.4011498213263486e-20
3.207327092561571,3.4333163840570856e-20
3.202327134792227,4.9035666892154764e-20
3.1973271770228835,6.99538366147937e-20
3.19232721925354,9.96803767723225e-20
3.1873272614841963,1.418743753434324e-19
3.1823273037148523,2.0169349092288586e-19
3.1773273459455087,2.863986021410739e-19
3.172327388176165,4.061986255628236e-19
3.1673274304068215,5.754293319583033e-19
3.162327472637478,8.141960123471467e-19
3.157327514868134,1.1506594407281508e-18
3.1523275570987903,1.6242127646557758e-18
3.1473275993294467,2.2898905563088876e-18
3.142327641560103,3.2244795589207703e-18
3.1373276837907595,4.534976267380011e-18
3.1323277260214155,6.370276463888192e-18
3.127327768252072,8.93730929370052e-18
3.1223278104827283,1.2523274620215633e-17
3.1173278527133848,1.7526249328654112e-17
3.112327894944041,2.449725261425762e-17
3.107327937174697,3.4197978251628433e-17
3.1023279794053535,4.767991558723821e-17
3.09732802163601,6.639262741948362e-17
3.0923280638666664,9.233171509577648e-17
3.0873281060973223,1.282407234589385e-16
3.0823281483279787,1.7788624642164909e-16
3.077328190558635,2.4643222125229133e-16
3.0723282327892916,3.4094842157927467e-16
3.067328275019948,4.711002385480646e-16
3.062328317250604,6.5008298603392445e-16
3.0573283594812604,8.958855128521957e-16
3.0523284017119168,1.2329966108047463e-15
3.047328443942573,1.6947058862375157e-15
3.0423284861732296,2.3262014544924516e-15
3.0373285284038856,3.188734007227435e-15
3.032328570634542,4.365205708792223e-15
3.0273286128651984,5.967659814319398e-15
3.022328655095855,8.147301754062055e-15
3.0173286973265108,1.1107886258661429e-14
3.012328739557167,1.5123572927527248e-14
3.0073287817878236,2.0562703938842948e-14
3.00232882401848,2.7919417560841885e-14
2.9973288662491364,3.785561229189889e-14
2.9923289084797924,5.1256560781830894e-14
2.987328950710449,6.93044941451662e-14
2.982328992941105,9.357580518863327e-14
2.9773290351717616,1.2616924229541948e-13
2.972329077402418,1.6987469792027859e-13
2.967329119633074,2.2839508202133547e-13
2.9623291618637304,3.066374963098818e-13
2.957329204094387,4.110947253052932e-13
2.9523292463250432,5.503442336674093e-13
2.947329288555699,7.356997848092668e-13
2.9423293307863556,9.82060952257357e-13
2.937329373017012,1.3090187870668507e-12
2.9323294152476684,1.7422924932012903e-12
2.927329457478325,2.315593105307203e-12
2.922329499708981,3.0730370605677605e-12
2.9173295419396372,4.0722667117290496e-12
2.9123295841702936,5.388478120362345e-12
2.90732962640095,7.119611239979817e-12
2.9023296686316065,9.393026761736669e-12
2.8973297108622624,1.2374081069039798e-11
2.892329753092919,1.6277120413800138e-11
2.8873297953235753,2.137955312772147e-11
2.8823298375542317,2.803983125269449e-11
2.877329879784888,3.672038882920134e-11
2.872329922015544,4.8016853554481284e-11
2.8673299642462005,6.269518427638179e-11
2.862330006476857,8.17388043070179e-11
2.8573300487075133,1.0640831870887958e-10
2.8523300909381692,1.3831704550985982e-10
2.8473301331688257,1.7952638414963155e-10
2.842330175399482,2.3266602315033423e-10
2.8373302176301385,3.0108519388321445e-10
2.832330259860795,3.8904265760130117e-10
2.827330302091451,5.019449278190911e-10
2.8223303443221073,6.46644450634471e-10
2.8173303865527637,8.31812176627348e-10
2.81233042878342,1.0684022608539725e-09
2.8073304710140765,1.3702306427553433e-09
2.8023305132447325,1.7546941285987096e-09
2.797330555475389,2.2436624947243083e-09
2.7923305977060453,2.8645832502571252e-09
2.7873306399367017,3.6518472783196904e-09
2.7823306821673577,4.648473891256263e-09
2.777330724398014,5.908186211062649e-09
2.7723307666286705,7.497962598140443e-09
2.767330808859327,9.501167538278075e-09
2.7623308510899833,1.2021386468174987e-08
2.7573308933206393,1.518711406216327e-08
2.7523309355512957,1.9157475195233382e-08
2.747330977781952,2.4129192919374493e-08
2.7423310200126085,3.0345059234283715e-08
2.737331062243265,3.8104213218974064e-08
2.732331104473921,4.777458837758665e-08
2.7273311467045773,5.980795815632812e-08
2.7223311889352337,7.475808699584408e-08
2.71733123116589,9.330258566920447e-08
2.712331273396546,1.1626917589978519e-07
2.7073313156272025,1.4466719245748725e-07
2.702331357857859,1.7972529343783827e-07
2.6973314000885154,2.2293651383536302e-07
2.6923314423191718,2.7611198670367284e-07
2.6873314845498277,3.414448733133183e-07
2.682331526780484,4.2158629224352706e-07
2.6773315690111406,5.197353210628282e-07
2.672331611241797,6.397454672820335e-07
2.6673316534724534,7.862503720550945e-07
2.6623316957031093,9.648119254525612e-07
2.6573317379337658,1.1820944411738894e-06
2.652331780164422,1.4460690667691375e-06
2.6473318223950786,1.7662531985993696e-06
2.642331864625735,2.1539903349771545e-06
2.637331906856391,2.622776542565517e-06
2.6323319490870474,3.188640536789202e-06
2.627331991317704,3.870585293531542e-06
2.62233203354836,4.691100123687119e-06
2.617332075779016,5.676753261215486e-06
2.6123321180096726,6.858876246156117e-06
2.607332160240329,8.27435273346048e-06
2.6023322024709854,9.966525833045759e-06
2.597332244701642,1.1986239692373639e-05
2.592332286932298,1.4393032775726556e-05
2.587332329162954,1.7256502179087182e-05
2.5823323713936106,2.0657860350075286e-05
2.577332413624267,2.4691707761504953e-05
2.5723324558549234,2.9468047416150928e-05
2.5673324980855794,3.5114569538833083e-05
2.562332540316236,4.177923743752621e-05
2.557332582546892,4.9633208283080735e-05
2.5523326247775486,5.8874125459699506e-05
2.5473326670082046,6.972982216492235e-05
2.542332709238861,8.246247907417204e-05
2.5373327514695174,9.737328211271081e-05
2.532332793700174,0.00011480762967424829
2.5273328359308302,0.00013516094196282176
2.522332878161486,0.00015888512847957729
2.5173329203921426,0.00018649577298956996
2.512332962622799,0.00021858009854007802
2.5073330048534554,0.00025580577820833947
2.502333047084112,0.00029893066017337423
2.497333089314768,0.0003488134783655215
2.4923331315454242,0.0004064256222726545
2.4873331737760807,0.00047286404138948383
2.482333216006737,0.0005493653611925094
2.477333258237393,0.0006373212883071786
2.4723333004680494,0.0007382953825949054
2.467333342698706,0.0008540412731083928
2.4623333849293623,0.0009865223931175453
2.4573334271600187,0.001137933306563633
2.4523334693906746,0.0013107226942168984
2.447333511621331,0.0015076180623501345
2.4423335538519875,0.0017316522297526672
2.437333596082644,0.0019861916402478543
2.4323336383133003,0.002274966537399978
2.4273336805439563,0.0026021030256607033
2.4223337227746127,0.002972157027679125
2.417333765005269,0.003390150130760988
2.4123338072359255,0.003861607296401962
2.4073338494665815,0.004392596385351786
2.402333891697238,0.004989769426720359
2.3973339339278943,0.005660405533179415
2.3923339761585507,0.006412455335333205
2.387334018389207,0.0072545867768650345
2.382334060619863,0.00819623207818104
2.3773341028505195,0.009247635640088651
2.372334145081176,0.010419902620735501
2.3673341873118323,0.011725047878810879
2.3623342295424887,0.01317604493416505
2.3573342717731447,0.01478687455386217
2.352334314003801,0.016572572527653165
2.3473343562344575,0.01854927615240002
2.342334398465114,0.020734268900611315
2.3373344406957703,0.02314602270455834
2.3323344829264263,0.02580423724504593
2.3273345251570827,0.02872987559350823
2.322334567387739,0.031945195518415063
2.3173346096183955,0.03547377573275205
2.3123346518490515,0.03934053632939966
2.307334694079708,0.043571752626346834
2.3023347363103643,0.048195061624678785
2.2973347785410207,0.05323946026993313
2.292334820771677,0.058735294702545904
2.287334863002333,0.06471423968639729
2.2823349052329895,0.07120926741664076
2.277334947463646,0.0782546049296649
2.2723349896943024,0.08588567936971354
2.2673350319249588,0.09413905040887453
2.2623350741556147,0.10305232917012738
2.257335116386271,0.11266408306716827
2.2523351586169276,0.12301372604992335
2.247335200847584,0.13414139383091941
2.24233524307824,0.14608780376493136
2.2373352853088964,0.15889409916214267
2.2323353275395528,0.1726016779330969
2.227335369770209,0.18725200559125066
2.2223354120008656,0.20288641277537736
2.2173354542315216,0.2195458775984067
2.212335496462178,0.23727079328059328
2.2073355386928344,0.2561007216820937
2.202335580923491,0.27607413351174376
2.197335623154147,0.2972281361539259
2.192335665384803,0.31959819022233027
2.1873357076154596,0.3432178161167037
2.182335749846116,0.3681182920248624
2.1773357920767724,0.3943283449755308
2.1723358343074284,0.4218738367065305
2.167335876538085,0.4507774462655835
2.162335918768741,0.48105835140594655
2.1573359609993976,0.512731910974398
2.152336003230054,0.5458093506131996
2.14733604546071,0.5802974542086329
2.1423360876913664,0.6161982636149596
2.137336129922023,0.6535087892625748
2.1323361721526792,0.6922207343207422
2.1273362143833356,0.7323202351274527
2.1223362566139916,0.7737876206197235
2.117336298844648,0.8165971934956421
2.1123363410753044,0.860717035813539
2.107336383305961,0.9061088416819775
2.1023364255366173,0.9527277796163395
2.0973364677672732,1.0005223870320405
2.0923365099979296,1.0494344992103601
2.087336552228586,1.0993992149099714
2.0823365944592425,1.1503449006048951
2.0773366366898984,1.2021932351082696
2.072336678920555,1.25485929609097
2.0673367211512113,1.308251689725871
2.0623367633818677,1.3622727243833137
2.057336805612524,1.4168186289732192
2.05233684784318,1.4717798161762097
2.0473368900738365,1.5270411904327283
2.042336932304493,1.5824825001692362
2.0373369745351493,1.6379787333369191
2.0323370167658057,1.693400554926305
2.0273370589964617,1.7486147847043563
2.022337101227118,1.8034849130046504
2.0173371434577745,1.8578716519912932
2.012337185688431,1.9116335194184757
2.007337227919087,1.9646274515263282
2.0023372701497433,2.0167094413549163
1.9973373123803997,2.067735198428107
1.992337354611056,2.117560825462251
1.9873373968417125,2.166043507497047
1.9823374390723685,2.2130422086314936
1.977337481303025,2.2584183713808517
1.9723375235336813,2.3020366135546073
1.9673375657643377,2.3437654174925475
1.9623376079949941,2.3834778064890774
1.95733765022565,2.421052003284551
1.9523376924563065,2.4563720656075625
1.947337734686963,2.489328493912586
1.9423377769176193,2.5198188066707754
1.9373378191482753,2.5477480788362157
1.9323378613789317,2.573029439420862
1.9273379036095881,2.5955845244651354
1.9223379458402445,2.6153438820823
1.917337988070901,2.6322473266778723
1.912338030301557,2.6462442398943864
1.9073380725322133,2.6572938163006543
1.9023381147628697,2.66536525232686
1.8973381569935261,2.6704378774359845
1.8923381992241826,2.6725012270119612
1.8873382414548385,2.671555056929569
1.882338283685495,2.667609300244739
1.8773383259161514,2.6606839669014914
1.8723383681468078,2.6508089877883236
1.8673384103774642,2.638024004888648
1.8623384526081201,2.6223781096531256
1.8573384948387766,2.6039295320738014
1.852338537069433,2.582745283258771
1.8473385793000894,2.5589007545898763
1.8423386215307453,2.532479276794326
1.8373386637614018,2.503571642473389
1.8323387059920582,2.4722755958080564
1.8273387482227146,2.4386952933032755
1.822338790453371,2.40294073954039
1.817338832684027,2.3651272019824345
1.8123388749146834,2.3253746089214893
1.8073389171453398,2.283806934671703
1.8023389593759962,2.2405515760986736
1.7973390016066526,2.1957387245359974
1.7923390438373086,2.149500737075372
1.787339086067965,2.1019715111282906
1.7823391282986214,2.0532858660463336
1.7773391705292778,2.003578935454794
1.7723392127599338,1.9529855738010513
1.7673392549905902,1.9016397804458864
1.7623392972212466,1.8496741444339049
1.757339339451903,1.7972193128683676
1.7523393816825594,1.7444034855877106
1.7473394239132154,1.6913519385964513
1.7423394661438718,1.6381865784434109
1.7373395083745282,1.585025529466644
1.7323395506051846,1.5319827555390526
1.727339592835841,1.479167717653227
1.722339635066497,1.426685068381293
1.7173396772971534,1.374634383937728
1.7123397195278098,1.3231099342635255
1.7073397617584662,1.2722004912418214
1.7023398039891222,1.2219891748511762
1.6973398462197786,1.1725533367669907
1.692339888450435,1.1239644806370932
1.6873399306810914,1.076288217987955
1.6823399729117479,1.02958425846622
1.6773400151424038,0.9839064328894493
1.6723400573730602,0.9393027473727602
1.6673400996037167,0.8958154666163362
1.662340141834373,0.853481224284968
1.6573401840650295,0.8123311582853807
1.6523402262956854,0.7723910686515267
1.6473402685263419,0.7336815956820074
1.6423403107569983,0.6962184159371847
1.6373403529876547,0.6600124536954779
1.6323403952183106,0.6250701054872531
1.627340437448967,0.5913934753689619
1.6223404796796235,0.558980618667402
1.6173405219102799,0.5278257920117356
1.6123405641409363,0.49791970757623755
1.6073406063715923,0.4692497895768461
1.6023406486022487,0.4418004311964492
1.597340690832905,0.41555325025415907
1.5923407330635615,0.39048734208010144
1.587340775294218,0.36657952820617623
1.5823408175248739,0.34380459963266824
1.5773408597555303,0.32213555357792306
1.5723409019861867,0.3015438227615966
1.5673409442168431,0.28199949640969596
1.5623409864474995,0.2634715323001111
1.5573410286781555,0.2459279592899334
1.552341070908812,0.22933606987966593
1.5473411131394683,0.2136626024741899
1.5423411553701247,0.19887391309603897
1.5373411976007807,0.18493613639320772
1.532341239831437,0.17181533586188844
1.5273412820620935,0.15947764327461225
1.52234132429275,0.14788938736702206
1.5173413665234063,0.13701721189248092
1.5123414087540623,0.1268281832037856
1.5073414509847187,0.11728988756601691
1.5023414932153751,0.10837051844467398
1.4973415354460315,0.10003895404934694
1.492341577676688,0.09226482544563853
1.487341619907344,0.0850185755773447
1.4823416621380003,0.078271509567221
1.4773417043686567,0.07199583668818701
1.4723417465993132,0.06616470441764499
1.4673417888299696,0.06075222500563635
1.462341831060626,0.05573349500281718
1.4573418732912824,0.05108460820655563
1.452341915521938,0.046782662492705365
1.4473419577525943,0.04280576100667059
1.4423419999832507,0.03913300819010378
1.4373420422139072,0.035744501118946816
1.4323420844445636,0.03262131662441166
1.42734212667522,0.029745494661022612
1.4223421689058764,0.027100018375022183
1.4173422111365328,0.024668791312463575
1.4123422533671892,0.022436612189376644
1.4073422955978447,0.020389147626779354
1.4023423378285012,0.018512903231342488
1.3973423800591576,0.016795193378558497
1.392342422289814,0.015224110029753213
1.3873424645204704,0.013788490887589277
1.3823425067511268,0.012477887167327091
1.3773425489817832,0.011282531233435334
1.3723425912124396,0.010193304323610377
1.367342633443096,0.009201704555265868
1.3623426756737524,0.008299815383447023
1.357342717904408,0.0074802746542281025
1.3523427601350644,0.00673624437423033
1.3473428023657208,0.006061381295159836
1.3423428445963772,0.00544980839237607
1.3373428868270336,0.004896087298541403
1.33234292905769,0.0043951917374311445
1.3273429712883464,0.003942481988979103
1.3223430135190029,0.0035336804045456725
1.3173430557496593,0.0031648479811264498
1.3123430979803148,0.002832361994640449
1.3073431402109712,0.002532894685396043
1.3023431824416276,0.0022633929831579937
1.297343224672284,0.002021059254756925
1.2923432669029404,0.0018033330537059872
1.2873433091335968,0.0016078738486513477
1.2823433513642533,0.0014325447055137165
1.2773433935949097,0.0012753968967305236
1.272343435825566,0.0011346554099501457
1.2673434780562216,0.0010087053277495405
1.262343520286878,0.0008960790493543192
1.2573435625175344,0.0007954443248649846
1.2523436047481908,0.0007055930720869053
1.2473436469788473,0.0006254309456897901
1.2423436892095037,0.0005539676280721165
1.23734373144016,0.0004903078109727104
1.2323437736708165,0.0004336428365643848
1.227343815901473,0.0003832429664988475
1.2223438581321293,0.00033845024716879125
1.2173439003627848,0.00029867193933519017
1.2123439425934412,0.00026337448025865346
1.2073439848240977,0.00023207794659409623
1.202344027054754,0.00020435098657623404
1.1973440692854105,0.00017980619045147468
1.192344111516067,0.00015809586870793276
1.1873441537467233,0.0001389082084202791
1.1823441959773797,0.00012196377895568999
1.1773442382080361,0.00010701235937084764
1.1723442804386917,9.383006105246566e-05
1.167344322669348,8.221672049532765e-05
1.1623443649000045,7.199353854920707e-05
1.157344407130661,6.30009439740047e-05
1.1523444493613173,5.509666069403831e-05
1.1473444915919737,4.815395971121845e-05
1.1423445338226301,4.206007819678452e-05
1.1373445760532865,3.671478980844815e-05
1.132344618283943,3.2029111752772205e-05
1.1273446605145985,2.792413551317764e-05
1.1223447027452549,2.4329969477492274e-05
1.1173447449759113,2.1184782914530338e-05
1.1123447872065677,1.84339418598237e-05
1.1073448294372241,1.602922847278359e-05
1.1023448716678805,1.3928136321287173e-05
1.097344913898537,1.209323483777963e-05
1.0923449561291934,1.04915968788728e-05
1.0873449983598498,9.094283915461951e-06
1.0823450405905062,7.875883891390381e-06
1.0773450828211617,6.814097225425446e-06
1.0723451250518181,5.8893668039879325e-06
1.0673451672824745,5.084548130939086e-06
1.062345209513131,4.384616075686938e-06
1.0573452517437874,3.7764049011478236e-06
1.0523452939744438,3.2483784670566864e-06
1.0473453362051002,2.7904276990219545e-06
1.0423453784357566,2.3936925956677914e-06
1.037345420666413,2.0504062200637142e-06
1.0323454628970685,1.753758291052123e-06
1.027345505127725,1.4977761575250102e-06
1.0223455473583813,1.277221105574208e-06
1.0173455895890378,1.0874981152119802e-06
1.0123456318196942,9.245773496977e-07
1.0073456740503506,7.84925825474246e-07
1.002345716281007,6.654478729211391e-07
0.9973457585116634,5.634331559127236e-07
0.9923458007423198,4.765111697573986e-07
0.9873458429729762,4.02611280748434e-07
0.9823458852036318,3.399275046892346e-07
0.9773459274342882,2.8688734501909514e-07
0.9723459696649446,2.421241225196773e-07
0.967346011895601,2.0445232733436896e-07
0.9623460541262574,1.728456098467712e-07
0.9573460963569138,1.464170998619861e-07
0.9523461385875702,1.2440180386656056e-07
0.9473461808182266,1.0614087856149824e-07
0.942346223048883,9.106761627658793e-08
0.9373462652795386,7.86950054039104e-08
0.932346307510195,6.860474791691242e-08
0.9273463497408514,6.043762776428317e-08
0.9223463919715078,5.388512990244568e-08
0.9173464342021642,4.8682211424765017e-08
0.9123464764328206,4.4601125089128784e-08
0.907346518663477,4.144619287990053e-08
0.9023465608941335,3.904942427404101e-08
0.8973466031247899,3.726687164897061e-08
0.8923466453554454,3.597561459841971e-08
0.8873466875861018,3.5071266407186164e-08
0.8823467298167582,3.44658999273104e-08
0.8773467720474146,3.40862967043251e-08
0.872346814278071,3.387243230182039e-08
0.8673468565087274,3.377612204353878e-08
0.8623468987393839,3.375976435021736e-08
0.8573469409700403,3.3795132893670576e-08
0.8523469832006967,3.386218325892285e-08
0.8473470254313531,3.394785401890548e-08
0.8423470676620086,3.404485544139463e-08
0.837347109892665,3.415045089421115e-08
0.8323471521233214,3.4265245926130325e-08
0.8273471943539779,3.439200763544453e-08
0.8223472365846343,3.453454208731492e-08
0.8173472788152907,3.469666013034971e-08
0.8123473210459471,3.488126204419247e-08
0.8073473632766035,3.508956918904054e-08
0.8023474055072599,3.532052648857986e-08
0.7973474477379154,3.557039350384877e-08
0.7923474899685718,3.5832534453580404e-08
0.7873475321992283,3.6097409257934665e-08
0.7823475744298847,3.6352759005707606e-08
0.7773476166605411,3.6583970657846116e-08
0.7723476588911975,3.6774597780797145e-08
0.7673477011218539,3.690700710119808e-08
0.7623477433525103,3.696311508823759e-08
0.7573477855831667,3.692517493052782e-08
0.7523478278138231,3.677657241864392e-08
0.7473478700444787,3.650258950274704e-08
0.7423479122751351,3.6091096676592865e-08
0.7373479545057915,3.553313972823264e-08
0.7323479967364479,3.4823392553746644e-08
0.7273480389671043,3.396045530148305e-08
0.7223480811977607,3.29469856575282e-08
0.7173481234284171,3.1789660093137334e-08
0.7123481656590736,3.049897083818257e-08
0.70734820788973,2.908887269700752e-08
0.7023482501203855,2.757630110585116e-08
0.6973482923510419,2.59805886442842e-08
0.6923483345816983,2.4322811261764552e-08
0.6873483768123547,2.262509759164947e-08
0.6823484190430111,2.09099348556952e-08
0.6773484612736675,1.919950309644265e-08
0.672348503504324,1.7515066012593927e-08
0.6673485457349804,1.5876441809430932e-08
0.6623485879656368,1.4301571579826354e-08
0.6573486301962923,1.280619621233237e-08
0.6523486724269487,1.1403646106964335e-08
0.6473487146576051,1.0104741479885908e-08
0.6423487568882615,8.917795131582262e-09
0.637348799118918,7.848704558348237e-09
0.6323488413495744,6.901116450595634e-09
0.6273488835802308,6.076644107519928e-09
0.6223489258108872,5.375117182647769e-09
0.6173489680415436,4.79484344816801e-09
0.6123490102722,4.332863834904605e-09
0.6073490525028555,3.985184703010324e-09
0.602349094733512,3.746974898325576e-09
0.5973491369641684,3.6127193767500128e-09
0.5923491791948248,3.576325730120385e-09
0.5873492214254812,3.631184506496508e-09
0.5823492636561376,3.770188476777396e-09
0.577349305886794,3.985719674491136e-09
0.5723493481174504,4.269615884601388e-09
0.5673493903481068,4.613130095111196e-09
0.5623494325787624,5.0068971354471055e-09
0.5573494748094188,5.440921267773581e-09
0.5523495170400752,5.904596910912629e-09
0.5473495592707316,6.38677207878136e-09
0.542349601501388,6.875860694599278e-09
0.5373496437320444,7.360005946027281e-09
0.5323496859627008,7.827292565157877e-09
0.5273497281933572,8.266001664266461e-09
0.5223497704240136,8.664897848201913e-09
0.5173498126546701,9.013535051009497e-09
0.5123498548853256,9.302565159314722e-09
0.507349897115982,9.524032178586539e-09
0.5023499393466384,9.671634585261316e-09
0.4973499815772948,9.740939617017923e-09
0.49235002380795123,9.729535525343908e-09
0.48735006603860764,9.637111102752367e-09
0.48235010826926406,9.465455878534932e-09
0.47735015049992013,9.218378967277233e-09
